EESchema Schematic File Version 4
LIBS:Slave_board-cache
EELAYER 26 0
EELAYER END
$Descr A4 11693 8268
encoding utf-8
Sheet 1 1
Title ""
Date ""
Rev ""
Comp ""
Comment1 ""
Comment2 ""
Comment3 ""
Comment4 ""
$EndDescr
$Comp
L Connector_Generic:Conn_02x18_Top_Bottom J1
U 1 1 5B977D89
P 1440 2390
F 0 "J1" H 1490 3407 50  0000 C CNN
F 1 "PCI_36pos" H 1490 3316 50  0000 C CNN
F 2 "Slave_board:PCI36pos" H 1440 2390 50  0001 C CNN
F 3 "~" H 1440 2390 50  0001 C CNN
	1    1440 2390
	1    0    0    -1  
$EndComp
Wire Wire Line
	1240 1590 1140 1590
Wire Wire Line
	1140 1590 1140 1690
Wire Wire Line
	1140 1790 1240 1790
Wire Wire Line
	1240 1690 1140 1690
Connection ~ 1140 1690
Wire Wire Line
	1140 1690 1140 1790
Wire Wire Line
	1140 1590 1040 1590
Connection ~ 1140 1590
Text Label 1040 1590 2    50   ~ 0
5V
Text Label 1040 1890 2    50   ~ 0
VCC_3V3
Wire Wire Line
	1140 1890 1140 1990
Wire Wire Line
	1140 1990 1240 1990
Connection ~ 1140 1890
Wire Wire Line
	1140 1890 1240 1890
Wire Wire Line
	1040 1890 1140 1890
Wire Wire Line
	1240 2090 1040 2090
Text Label 1040 2090 2    50   ~ 0
MISO
Text Label 1040 2190 2    50   ~ 0
MOSI
Text Label 1040 2290 2    50   ~ 0
SS1
Text Label 1040 2390 2    50   ~ 0
RA2
Text Label 1040 2490 2    50   ~ 0
CLK
Text Label 1040 2590 2    50   ~ 0
SS
$Comp
L power:GNDD #PWR01
U 1 1 5B977FB6
P 640 2840
F 0 "#PWR01" H 640 2590 50  0001 C CNN
F 1 "GNDD" H 644 2685 50  0000 C CNN
F 2 "" H 640 2840 50  0001 C CNN
F 3 "" H 640 2840 50  0001 C CNN
	1    640  2840
	1    0    0    -1  
$EndComp
Wire Wire Line
	1240 2590 1040 2590
Wire Wire Line
	1040 2490 1240 2490
Wire Wire Line
	1240 2390 1040 2390
Wire Wire Line
	1040 2290 1240 2290
Wire Wire Line
	1040 2190 1240 2190
Text Label 1040 2790 2    50   ~ 0
PWM3H
Text Label 1040 2890 2    50   ~ 0
PWM3L
Text Label 1040 2990 2    50   ~ 0
PWM2H
Text Label 1040 3090 2    50   ~ 0
PWM2L
Text Label 1040 3190 2    50   ~ 0
PWM1H
Text Label 1040 3290 2    50   ~ 0
PWM1L
Wire Wire Line
	1040 2790 1240 2790
Wire Wire Line
	1240 2890 1040 2890
Wire Wire Line
	1040 2990 1240 2990
Wire Wire Line
	1040 3090 1240 3090
Wire Wire Line
	1040 3190 1240 3190
Wire Wire Line
	1240 3290 1040 3290
Wire Wire Line
	640  2840 640  2690
Wire Wire Line
	640  2690 1240 2690
Wire Wire Line
	1740 1590 1840 1590
Wire Wire Line
	1840 1590 1840 1690
Wire Wire Line
	1840 1690 1740 1690
Wire Wire Line
	1740 1790 1840 1790
Wire Wire Line
	1840 1790 1840 1690
Connection ~ 1840 1690
Wire Wire Line
	1740 1890 1840 1890
Wire Wire Line
	1840 1890 1840 1790
Connection ~ 1840 1790
Wire Wire Line
	1740 1990 1840 1990
Wire Wire Line
	1840 1990 1840 1890
Connection ~ 1840 1890
Wire Wire Line
	1840 1990 2390 1990
Wire Wire Line
	2390 1990 2390 2090
Connection ~ 1840 1990
$Comp
L power:GNDD #PWR04
U 1 1 5B97BA1D
P 2390 2090
F 0 "#PWR04" H 2390 1840 50  0001 C CNN
F 1 "GNDD" H 2394 1935 50  0000 C CNN
F 2 "" H 2390 2090 50  0001 C CNN
F 3 "" H 2390 2090 50  0001 C CNN
	1    2390 2090
	1    0    0    -1  
$EndComp
Text Label 2040 2090 0    50   ~ 0
AN5
Text Label 2040 2190 0    50   ~ 0
AN4
Text Label 2040 2290 0    50   ~ 0
AN3
Text Label 2040 2390 0    50   ~ 0
AN2
Text Label 2040 2490 0    50   ~ 0
AN1
Text Label 2040 2590 0    50   ~ 0
AN0
Wire Wire Line
	1740 2090 2040 2090
Wire Wire Line
	2040 2190 1740 2190
Wire Wire Line
	1740 2290 2040 2290
Wire Wire Line
	2040 2390 1740 2390
Wire Wire Line
	1740 2490 2040 2490
Wire Wire Line
	1740 2590 2040 2590
Wire Wire Line
	1740 2690 1840 2690
Wire Wire Line
	1840 2690 1840 2790
Wire Wire Line
	1840 2990 1740 2990
Wire Wire Line
	1740 2890 1840 2890
Connection ~ 1840 2890
Wire Wire Line
	1840 2890 1840 2990
Wire Wire Line
	1740 2790 1840 2790
Connection ~ 1840 2790
Wire Wire Line
	1840 2790 1840 2890
Connection ~ 1840 2990
$Comp
L power:GNDD #PWR05
U 1 1 5B9808CE
P 1840 3340
F 0 "#PWR05" H 1840 3090 50  0001 C CNN
F 1 "GNDD" H 1844 3185 50  0000 C CNN
F 2 "" H 1840 3340 50  0001 C CNN
F 3 "" H 1840 3340 50  0001 C CNN
	1    1840 3340
	1    0    0    -1  
$EndComp
Wire Wire Line
	1740 3090 1840 3090
Wire Wire Line
	1740 3190 1840 3190
Wire Wire Line
	1740 3290 1840 3290
$Comp
L Slave_board-rescue:DSPIC33EP256MC202-I_SP-Slave_board_lib U2
U 1 1 5B985307
P 4200 5450
F 0 "U2" H 4200 6725 50  0000 C CNN
F 1 "DSPIC33EP256MC202-I_SP" H 4200 6634 50  0000 C CNN
F 2 "Housings_SOIC:SOIC-28W_7.5x18.7mm_Pitch1.27mm" H 4200 5450 50  0001 C CNN
F 3 "" H 4200 5450 50  0001 C CNN
	1    4200 5450
	1    0    0    -1  
$EndComp
Text Label 1650 4400 0    50   ~ 0
AN0
Text Label 1650 4500 0    50   ~ 0
AN1
Wire Wire Line
	1900 4500 1650 4500
Text Label 1650 4600 0    50   ~ 0
RA2
Text Label 1650 4700 0    50   ~ 0
RA3
Text Label 1650 4800 0    50   ~ 0
MISO
Wire Wire Line
	1650 4600 1900 4600
Wire Wire Line
	1650 4800 1900 4800
Text Label 6700 4400 0    50   ~ 0
AN2
Text Label 6700 4500 0    50   ~ 0
AN3
Wire Wire Line
	6500 4400 6700 4400
Wire Wire Line
	6700 4500 6500 4500
Text Label 6700 4600 0    50   ~ 0
AN4_SS1
Text Label 6700 4700 0    50   ~ 0
AN5_SS
Text Label 6700 4800 0    50   ~ 0
MOSI
Text Label 6700 4900 0    50   ~ 0
PGED1
Text Label 6700 5000 0    50   ~ 0
PGEC1
Text Label 6700 5100 0    50   ~ 0
CLK
Text Label 8270 2970 1    50   ~ 0
TXD_LED
Text Label 6960 5400 0    50   ~ 0
PWM3H
Text Label 6960 5500 0    50   ~ 0
PWM3L
Text Label 6960 5600 0    50   ~ 0
PWM2H
Text Label 6960 5700 0    50   ~ 0
PWM2L
Text Label 6960 5800 0    50   ~ 0
PWM1H
Text Label 6960 5900 0    50   ~ 0
PWM1L
Wire Wire Line
	6500 4800 6700 4800
Wire Wire Line
	6700 4900 6500 4900
Wire Wire Line
	6500 5000 6700 5000
Wire Wire Line
	6700 5100 6500 5100
$Comp
L device:C C7
U 1 1 5B99E41E
P 6800 6350
F 0 "C7" H 6915 6396 50  0000 L CNN
F 1 "10uF MLCC" H 6915 6305 50  0000 L CNN
F 2 "Capacitor_SMD:C_1210_3225Metric_Pad1.42x2.65mm_HandSolder" H 6838 6200 50  0001 C CNN
F 3 "~" H 6800 6350 50  0001 C CNN
	1    6800 6350
	1    0    0    -1  
$EndComp
$Comp
L power:GNDD #PWR012
U 1 1 5B99E4AE
P 6700 6600
F 0 "#PWR012" H 6700 6350 50  0001 C CNN
F 1 "GNDD" H 6704 6445 50  0000 C CNN
F 2 "" H 6700 6600 50  0001 C CNN
F 3 "" H 6700 6600 50  0001 C CNN
	1    6700 6600
	1    0    0    -1  
$EndComp
Wire Wire Line
	6800 6550 6800 6500
Wire Wire Line
	6500 6300 6600 6300
Wire Wire Line
	6600 6300 6600 6400
Wire Wire Line
	6600 6500 6500 6500
Wire Wire Line
	6500 6400 6600 6400
Connection ~ 6600 6400
Wire Wire Line
	6600 6400 6600 6500
Wire Wire Line
	6500 6100 6800 6100
Wire Wire Line
	6800 6100 6800 6200
Wire Wire Line
	6800 6550 6700 6550
Wire Wire Line
	6600 6550 6600 6500
Connection ~ 6600 6500
Wire Wire Line
	6700 6600 6700 6550
Connection ~ 6700 6550
Wire Wire Line
	6700 6550 6600 6550
Text Label 1850 6500 3    50   ~ 0
VCC_3V_AN
Wire Wire Line
	1630 6250 1630 6300
Connection ~ 1630 6250
$Comp
L device:C C2
U 1 1 5B9B28E8
P 1630 6450
F 0 "C2" H 1440 6540 50  0000 L CNN
F 1 "0.1u" V 1470 6300 50  0000 L CNN
F 2 "Capacitor_SMD:C_0805_2012Metric_Pad1.15x1.40mm_HandSolder" H 1668 6300 50  0001 C CNN
F 3 "~" H 1630 6450 50  0001 C CNN
	1    1630 6450
	1    0    0    -1  
$EndComp
Wire Wire Line
	1850 6500 1900 6500
Wire Wire Line
	1630 6600 1630 6650
$Comp
L power:GNDD #PWR03
U 1 1 5B9B6CD3
P 1630 6650
F 0 "#PWR03" H 1630 6400 50  0001 C CNN
F 1 "GNDD" H 1634 6495 50  0000 C CNN
F 2 "" H 1630 6650 50  0001 C CNN
F 3 "" H 1630 6650 50  0001 C CNN
	1    1630 6650
	1    0    0    -1  
$EndComp
Text Label 1040 5600 2    50   ~ 0
VCC_3V3
$Comp
L Connector_Generic:Conn_01x04 J2
U 1 1 5B9BD894
P 3230 2360
F 0 "J2" H 3330 2560 50  0000 L CNN
F 1 "Header_4H" V 3370 2070 50  0000 L CNN
F 2 "Slave_board:HDR1X4H" H 3230 2360 50  0001 C CNN
F 3 "~" H 3230 2360 50  0001 C CNN
	1    3230 2360
	1    0    0    -1  
$EndComp
Text Label 2880 2260 2    50   ~ 0
A
Text Label 2880 2360 2    50   ~ 0
DIR
Text Label 2880 2460 2    50   ~ 0
B
$Comp
L power:GNDD #PWR07
U 1 1 5B9BD987
P 2980 2610
F 0 "#PWR07" H 2980 2360 50  0001 C CNN
F 1 "GNDD" H 2984 2455 50  0000 C CNN
F 2 "" H 2980 2610 50  0001 C CNN
F 3 "" H 2980 2610 50  0001 C CNN
	1    2980 2610
	1    0    0    -1  
$EndComp
Wire Wire Line
	2880 2260 3030 2260
Wire Wire Line
	3030 2360 2880 2360
Wire Wire Line
	2880 2460 3030 2460
Wire Wire Line
	2980 2610 2980 2560
Wire Wire Line
	2980 2560 3030 2560
$Comp
L Connector_Generic:Conn_01x06 J3
U 1 1 5B9C6CAF
P 3700 1580
F 0 "J3" H 3780 1572 50  0000 L CNN
F 1 "HEADER_6" H 3780 1481 50  0000 L CNN
F 2 "Slave_board:HDR1X6" H 3700 1580 50  0001 C CNN
F 3 "~" H 3700 1580 50  0001 C CNN
	1    3700 1580
	1    0    0    -1  
$EndComp
Text Label 3400 1380 2    50   ~ 0
VPP_MCLR
Text Label 3400 1480 2    50   ~ 0
VCC_3V3
$Comp
L power:GNDD #PWR08
U 1 1 5B9C6D3F
P 2950 1730
F 0 "#PWR08" H 2950 1480 50  0001 C CNN
F 1 "GNDD" H 2954 1575 50  0000 C CNN
F 2 "" H 2950 1730 50  0001 C CNN
F 3 "" H 2950 1730 50  0001 C CNN
	1    2950 1730
	1    0    0    -1  
$EndComp
NoConn ~ 3500 1880
Text Label 3400 1680 2    50   ~ 0
PGED1
Text Label 3400 1780 2    50   ~ 0
PGEC1
Wire Wire Line
	2950 1730 2950 1580
Wire Wire Line
	2950 1580 3500 1580
Wire Wire Line
	3400 1380 3500 1380
Wire Wire Line
	3500 1480 3400 1480
Wire Wire Line
	3400 1680 3500 1680
Wire Wire Line
	3400 1780 3500 1780
$Comp
L device:R R2
U 1 1 5B9DED84
P 1700 6000
F 0 "R2" V 1493 6000 50  0000 C CNN
F 1 "10" V 1584 6000 50  0000 C CNN
F 2 "Resistor_SMD:R_0805_2012Metric_Pad1.15x1.40mm_HandSolder" V 1630 6000 50  0001 C CNN
F 3 "~" H 1700 6000 50  0001 C CNN
	1    1700 6000
	0    1    1    0   
$EndComp
$Comp
L device:R R1
U 1 1 5B9DEE34
P 1090 5800
F 0 "R1" H 1160 5846 50  0000 L CNN
F 1 "10k" H 1160 5755 50  0000 L CNN
F 2 "Resistor_SMD:R_0805_2012Metric_Pad1.15x1.40mm_HandSolder" V 1020 5800 50  0001 C CNN
F 3 "~" H 1090 5800 50  0001 C CNN
	1    1090 5800
	1    0    0    -1  
$EndComp
Wire Wire Line
	1900 6000 1850 6000
Wire Wire Line
	1090 6000 1090 5950
Wire Wire Line
	1090 6000 1090 6050
Connection ~ 1090 6000
$Comp
L device:C C1
U 1 1 5B9E7D10
P 1090 6200
F 0 "C1" H 870 6270 50  0000 L CNN
F 1 "0.1u" H 820 6170 50  0000 L CNN
F 2 "Capacitor_SMD:C_0805_2012Metric_Pad1.15x1.40mm_HandSolder" H 1128 6050 50  0001 C CNN
F 3 "~" H 1090 6200 50  0001 C CNN
	1    1090 6200
	1    0    0    -1  
$EndComp
$Comp
L device:Jumper JP1
U 1 1 5B9E7DA4
P 8530 3580
F 0 "JP1" H 8530 3430 50  0000 C CNN
F 1 "Jumper" H 8530 3510 50  0000 C CNN
F 2 "Slave_board:jumper_THT" H 8530 3580 50  0001 C CNN
F 3 "~" H 8530 3580 50  0001 C CNN
	1    8530 3580
	1    0    0    -1  
$EndComp
$Comp
L Slave_board-rescue:SW_Push-switches TS-1143S-WP1
U 1 1 5B9E7F14
P 1090 6600
F 0 "TS-1143S-WP1" H 1410 6530 50  0000 R CNN
F 1 "On/Off" H 1210 6440 50  0000 R CNN
F 2 "Slave_board:Reset" H 1090 6800 50  0001 C CNN
F 3 "" H 1090 6800 50  0001 C CNN
	1    1090 6600
	0    -1   -1   0   
$EndComp
Text Label 1490 6250 0    50   ~ 0
VCC_3V3
Wire Wire Line
	1090 6400 1090 6350
Wire Wire Line
	1090 6000 1410 6000
Wire Wire Line
	1040 5600 1090 5600
Wire Wire Line
	1090 5600 1090 5650
$Comp
L power:GNDD #PWR02
U 1 1 5B9F4793
P 1090 6850
F 0 "#PWR02" H 1090 6600 50  0001 C CNN
F 1 "GNDD" H 1094 6695 50  0000 C CNN
F 2 "" H 1090 6850 50  0001 C CNN
F 3 "" H 1090 6850 50  0001 C CNN
	1    1090 6850
	1    0    0    -1  
$EndComp
Wire Wire Line
	1090 6850 1090 6800
Text Notes 2650 1140 0    50   ~ 0
6 PIN PROGRAMMING CONNECTOR
$Comp
L Slave_board-rescue:MAX485-Slave_board_lib U3
U 1 1 5B9FB7DC
P 9330 3530
F 0 "U3" H 9330 3905 50  0000 C CNN
F 1 "MAX485" H 9330 3814 50  0000 C CNN
F 2 "Housings_SOIC:SO-8_5.3x6.2mm_Pitch1.27mm" H 9330 3530 50  0001 C CNN
F 3 "" H 9330 3530 50  0001 C CNN
	1    9330 3530
	1    0    0    -1  
$EndComp
$Comp
L device:R R8
U 1 1 5BA0214E
P 8880 3180
F 0 "R8" H 8950 3226 50  0000 L CNN
F 1 "4.7k" H 8950 3135 50  0000 L CNN
F 2 "Resistor_SMD:R_0805_2012Metric_Pad1.15x1.40mm_HandSolder" V 8810 3180 50  0001 C CNN
F 3 "~" H 8880 3180 50  0001 C CNN
	1    8880 3180
	1    0    0    -1  
$EndComp
Wire Wire Line
	8880 3380 8880 3330
Wire Wire Line
	8880 3380 8980 3380
$Comp
L device:R R6
U 1 1 5BA08C82
P 8480 4380
F 0 "R6" V 8410 4380 50  0000 C CNN
F 1 "4.7k" V 8480 4380 50  0000 C CNN
F 2 "Resistor_SMD:R_0805_2012Metric_Pad1.15x1.40mm_HandSolder" V 8410 4380 50  0001 C CNN
F 3 "~" H 8480 4380 50  0001 C CNN
	1    8480 4380
	0    1    1    0   
$EndComp
Text Label 8730 4380 0    50   ~ 0
TXD
$Comp
L device:D D2
U 1 1 5BA0FAEE
P 8580 3080
F 0 "D2" V 8534 3159 50  0000 L CNN
F 1 "D" V 8625 3159 50  0000 L CNN
F 2 "Diode_SMD:D_1206_3216Metric_Pad1.42x1.75mm_HandSolder" H 8580 3080 50  0001 C CNN
F 3 "~" H 8580 3080 50  0001 C CNN
	1    8580 3080
	0    1    1    0   
$EndComp
Wire Wire Line
	8580 3280 8580 3230
Wire Wire Line
	8880 3030 8880 2880
Wire Wire Line
	8880 2880 8730 2880
Wire Wire Line
	8580 2880 8580 2930
Connection ~ 8730 2880
Wire Wire Line
	8730 2880 8580 2880
Text Label 8730 2580 2    50   ~ 0
VCC_3V3
Wire Wire Line
	8980 3680 9030 3680
Wire Wire Line
	8630 4380 8980 4380
Wire Wire Line
	9030 3580 8880 3580
$Comp
L device:R R9
U 1 1 5BA2E0A1
P 8880 3880
F 0 "R9" V 8800 3900 50  0000 L CNN
F 1 "4.7k" V 8880 3810 50  0000 L CNN
F 2 "Resistor_SMD:R_0805_2012Metric_Pad1.15x1.40mm_HandSolder" V 8810 3880 50  0001 C CNN
F 3 "~" H 8880 3880 50  0001 C CNN
	1    8880 3880
	1    0    0    -1  
$EndComp
$Comp
L device:R R5
U 1 1 5BA2E0F7
P 8180 3780
F 0 "R5" V 8100 3870 50  0000 L CNN
F 1 "4.7k" V 8180 3700 50  0000 L CNN
F 2 "Resistor_SMD:R_0805_2012Metric_Pad1.15x1.40mm_HandSolder" V 8110 3780 50  0001 C CNN
F 3 "~" H 8180 3780 50  0001 C CNN
	1    8180 3780
	1    0    0    -1  
$EndComp
Wire Wire Line
	8180 3480 8180 3580
Wire Wire Line
	8180 3930 8180 3980
Wire Wire Line
	8980 3680 8980 4380
Wire Wire Line
	7980 3280 7980 4380
Wire Wire Line
	7980 3280 8380 3280
Wire Wire Line
	8180 3480 9030 3480
Wire Wire Line
	8230 3580 8180 3580
Connection ~ 8180 3580
Wire Wire Line
	8180 3580 8180 3630
Wire Wire Line
	8830 3580 8880 3580
Connection ~ 8880 3580
$Comp
L power:GNDD #PWR014
U 1 1 5BA706D2
P 8180 3980
F 0 "#PWR014" H 8180 3730 50  0001 C CNN
F 1 "GNDD" H 8184 3825 50  0000 C CNN
F 2 "" H 8180 3980 50  0001 C CNN
F 3 "" H 8180 3980 50  0001 C CNN
	1    8180 3980
	1    0    0    -1  
$EndComp
$Comp
L power:GNDD #PWR016
U 1 1 5BA7073D
P 8880 4080
F 0 "#PWR016" H 8880 3830 50  0001 C CNN
F 1 "GNDD" H 8884 3925 50  0000 C CNN
F 2 "" H 8880 4080 50  0001 C CNN
F 3 "" H 8880 4080 50  0001 C CNN
	1    8880 4080
	1    0    0    -1  
$EndComp
Wire Wire Line
	9630 3680 9680 3680
Wire Wire Line
	9680 3680 9680 3730
$Comp
L power:GNDD #PWR019
U 1 1 5BA74F35
P 9680 3730
F 0 "#PWR019" H 9680 3480 50  0001 C CNN
F 1 "GNDD" H 9684 3575 50  0000 C CNN
F 2 "" H 9680 3730 50  0001 C CNN
F 3 "" H 9680 3730 50  0001 C CNN
	1    9680 3730
	1    0    0    -1  
$EndComp
Wire Wire Line
	9630 3580 9730 3580
Wire Wire Line
	9630 3480 9830 3480
$Comp
L device:R R12
U 1 1 5BA82BA3
P 9830 3680
F 0 "R12" H 9900 3726 50  0000 L CNN
F 1 "4.7k" H 9900 3635 50  0000 L CNN
F 2 "Resistor_SMD:R_0805_2012Metric_Pad1.15x1.40mm_HandSolder" V 9760 3680 50  0001 C CNN
F 3 "~" H 9830 3680 50  0001 C CNN
	1    9830 3680
	1    0    0    -1  
$EndComp
Wire Wire Line
	9830 3530 9830 3480
$Comp
L power:GNDD #PWR020
U 1 1 5BA87700
P 9830 3880
F 0 "#PWR020" H 9830 3630 50  0001 C CNN
F 1 "GNDD" H 9834 3725 50  0000 C CNN
F 2 "" H 9830 3880 50  0001 C CNN
F 3 "" H 9830 3880 50  0001 C CNN
	1    9830 3880
	1    0    0    -1  
$EndComp
Wire Wire Line
	9830 3880 9830 3830
Connection ~ 9830 3480
Text Label 10930 3480 0    50   ~ 0
B
$Comp
L device:R R14
U 1 1 5BA91149
P 10430 3480
F 0 "R14" V 10340 3480 50  0000 C CNN
F 1 "47" V 10430 3470 50  0000 C CNN
F 2 "Resistor_SMD:R_0805_2012Metric_Pad1.15x1.40mm_HandSolder" V 10360 3480 50  0001 C CNN
F 3 "~" H 10430 3480 50  0001 C CNN
	1    10430 3480
	0    1    1    0   
$EndComp
Wire Wire Line
	10580 3480 10630 3480
$Comp
L device:R R11
U 1 1 5BA9AA5F
P 9880 2210
F 0 "R11" V 9970 2150 50  0000 L CNN
F 1 "4.7k" V 9880 2140 50  0000 L CNN
F 2 "Resistor_SMD:R_0805_2012Metric_Pad1.15x1.40mm_HandSolder" V 9810 2210 50  0001 C CNN
F 3 "~" H 9880 2210 50  0001 C CNN
	1    9880 2210
	0    1    1    0   
$EndComp
Text Label 9930 2110 2    50   ~ 0
5V
Wire Wire Line
	10030 2110 9930 2110
Wire Wire Line
	10030 2110 10030 2210
$Comp
L device:R R13
U 1 1 5BAA4A6A
P 10430 2380
F 0 "R13" V 10330 2370 50  0000 C CNN
F 1 "47" V 10430 2360 50  0000 C CNN
F 2 "Resistor_SMD:R_0805_2012Metric_Pad1.15x1.40mm_HandSolder" V 10360 2380 50  0001 C CNN
F 3 "~" H 10430 2380 50  0001 C CNN
	1    10430 2380
	0    1    1    0   
$EndComp
Text Label 10930 2380 0    50   ~ 0
A
$Comp
L device:C Cio1
U 1 1 5BAB9AB1
P 10080 2630
F 0 "Cio1" H 9880 2730 50  0000 L CNN
F 1 "0.022u" H 9830 2530 50  0000 L CNN
F 2 "Capacitor_SMD:C_0805_2012Metric_Pad1.15x1.40mm_HandSolder" H 10118 2480 50  0001 C CNN
F 3 "~" H 10080 2630 50  0001 C CNN
	1    10080 2630
	1    0    0    -1  
$EndComp
Wire Wire Line
	9830 3480 10080 3480
Wire Wire Line
	9730 2380 10080 2380
Wire Wire Line
	10080 2380 10280 2380
Connection ~ 10080 2380
$Comp
L device:C Cio2
U 1 1 5BAD939B
P 10080 3230
F 0 "Cio2" H 9880 3330 50  0000 L CNN
F 1 "0.022u" H 9830 3130 50  0000 L CNN
F 2 "Capacitor_SMD:C_0805_2012Metric_Pad1.15x1.40mm_HandSolder" H 10118 3080 50  0001 C CNN
F 3 "~" H 10080 3230 50  0001 C CNN
	1    10080 3230
	1    0    0    -1  
$EndComp
Connection ~ 10080 3480
Wire Wire Line
	10080 3480 10280 3480
Connection ~ 9730 2380
Wire Wire Line
	10230 2930 10230 2980
$Comp
L power:GNDD #PWR021
U 1 1 5BAEEFE7
P 10230 2980
F 0 "#PWR021" H 10230 2730 50  0001 C CNN
F 1 "GNDD" H 10234 2825 50  0000 C CNN
F 2 "" H 10230 2980 50  0001 C CNN
F 3 "" H 10230 2980 50  0001 C CNN
	1    10230 2980
	1    0    0    -1  
$EndComp
$Comp
L device:R R15
U 1 1 5BAEF191
P 10630 2580
F 0 "R15" H 10700 2626 50  0000 L CNN
F 1 "120" H 10700 2535 50  0000 L CNN
F 2 "Resistor_SMD:R_0805_2012Metric_Pad1.15x1.40mm_HandSolder" V 10560 2580 50  0001 C CNN
F 3 "~" H 10630 2580 50  0001 C CNN
	1    10630 2580
	1    0    0    -1  
$EndComp
$Comp
L device:Jumper JP6
U 1 1 5BAEF219
P 10630 3130
F 0 "JP6" H 10630 3394 50  0000 C CNN
F 1 "Jumper" H 10630 3303 50  0000 C CNN
F 2 "Slave_board:jumper_THT" H 10630 3130 50  0001 C CNN
F 3 "~" H 10630 3130 50  0001 C CNN
	1    10630 3130
	0    1    1    0   
$EndComp
Wire Wire Line
	9730 2380 9730 3580
Wire Wire Line
	10080 3380 10080 3480
Wire Wire Line
	10080 2380 10080 2480
Wire Wire Line
	10080 2780 10080 2930
Wire Wire Line
	10080 2930 10230 2930
Connection ~ 10080 2930
Wire Wire Line
	10080 2930 10080 3080
Wire Wire Line
	10580 2380 10630 2380
Wire Wire Line
	10630 2430 10630 2380
Connection ~ 10630 2380
Wire Wire Line
	10630 2380 10930 2380
Wire Wire Line
	10630 2730 10630 2830
Wire Wire Line
	10630 3430 10630 3480
Wire Wire Line
	10930 3480 10630 3480
Connection ~ 10630 3480
Wire Wire Line
	9630 3380 9680 3380
$Comp
L device:C C8
U 1 1 5BB3E455
P 9380 2680
F 0 "C8" H 9495 2726 50  0000 L CNN
F 1 "0.1u" H 9495 2635 50  0000 L CNN
F 2 "Capacitor_SMD:C_0805_2012Metric_Pad1.15x1.40mm_HandSolder" H 9418 2530 50  0001 C CNN
F 3 "~" H 9380 2680 50  0001 C CNN
	1    9380 2680
	1    0    0    -1  
$EndComp
Wire Wire Line
	9380 2830 9380 2880
$Comp
L power:GNDD #PWR018
U 1 1 5BB3E45D
P 9380 2880
F 0 "#PWR018" H 9380 2630 50  0001 C CNN
F 1 "GNDD" H 9384 2725 50  0000 C CNN
F 2 "" H 9380 2880 50  0001 C CNN
F 3 "" H 9380 2880 50  0001 C CNN
	1    9380 2880
	1    0    0    -1  
$EndComp
Wire Wire Line
	9280 2480 9380 2480
Wire Wire Line
	9680 2480 9680 3380
Wire Wire Line
	9380 2530 9380 2480
Connection ~ 9380 2480
Wire Wire Line
	9380 2480 9680 2480
$Comp
L Slave_board-rescue:LM2937-Slave_board_lib U1
U 1 1 5B98A042
P 6680 1120
F 0 "U1" H 6680 1385 50  0000 C CNN
F 1 "LM2937" H 6680 1294 50  0000 C CNN
F 2 "TO_SOT_Packages_SMD:SOT-223" H 6680 1120 50  0001 C CNN
F 3 "" H 6680 1120 50  0001 C CNN
	1    6680 1120
	1    0    0    -1  
$EndComp
Text Label 5730 1070 2    50   ~ 0
5V
Text Label 7680 1070 0    50   ~ 0
VCC_3V3
$Comp
L device:C C4
U 1 1 5B9976F5
P 6330 1270
F 0 "C4" H 6445 1316 50  0000 L CNN
F 1 "0.1u" H 6445 1225 50  0000 L CNN
F 2 "Capacitor_SMD:C_0805_2012Metric_Pad1.15x1.40mm_HandSolder" H 6368 1120 50  0001 C CNN
F 3 "~" H 6330 1270 50  0001 C CNN
	1    6330 1270
	1    0    0    -1  
$EndComp
Wire Wire Line
	6330 1120 6330 1070
Wire Wire Line
	6330 1070 6480 1070
$Comp
L device:C C3
U 1 1 5B9A4CA9
P 5780 1270
F 0 "C3" H 5895 1316 50  0000 L CNN
F 1 "22u" H 5895 1225 50  0000 L CNN
F 2 "Capacitors_THT:CP_Radial_D5.0mm_P2.50mm" H 5818 1120 50  0001 C CNN
F 3 "~" H 5780 1270 50  0001 C CNN
	1    5780 1270
	1    0    0    -1  
$EndComp
$Comp
L power:GNDD #PWR06
U 1 1 5B9A4D70
P 5780 1470
F 0 "#PWR06" H 5780 1220 50  0001 C CNN
F 1 "GNDD" H 5784 1315 50  0000 C CNN
F 2 "" H 5780 1470 50  0001 C CNN
F 3 "" H 5780 1470 50  0001 C CNN
	1    5780 1470
	1    0    0    -1  
$EndComp
Wire Wire Line
	5780 1470 5780 1420
Wire Wire Line
	5780 1070 5780 1120
Connection ~ 6330 1070
Wire Wire Line
	5780 1070 5730 1070
Connection ~ 5780 1070
$Comp
L device:C C5
U 1 1 5B9C0AEB
P 7030 1270
F 0 "C5" H 7145 1316 50  0000 L CNN
F 1 "0.1u" H 7145 1225 50  0000 L CNN
F 2 "Capacitor_SMD:C_0805_2012Metric_Pad1.15x1.40mm_HandSolder" H 7068 1120 50  0001 C CNN
F 3 "~" H 7030 1270 50  0001 C CNN
	1    7030 1270
	1    0    0    -1  
$EndComp
$Comp
L power:GNDD #PWR09
U 1 1 5B9C0B51
P 7030 1620
F 0 "#PWR09" H 7030 1370 50  0001 C CNN
F 1 "GNDD" H 7034 1465 50  0000 C CNN
F 2 "" H 7030 1620 50  0001 C CNN
F 3 "" H 7030 1620 50  0001 C CNN
	1    7030 1620
	1    0    0    -1  
$EndComp
Wire Wire Line
	6880 1070 7030 1070
Wire Wire Line
	7030 1070 7030 1120
$Comp
L device:D_Zener D1
U 1 1 5B9CF973
P 7380 1270
F 0 "D1" V 7334 1349 50  0000 L CNN
F 1 "D_Zener" V 7425 1349 50  0000 L CNN
F 2 "Diode_SMD:D_1206_3216Metric_Pad1.42x1.75mm_HandSolder" H 7380 1270 50  0001 C CNN
F 3 "~" H 7380 1270 50  0001 C CNN
	1    7380 1270
	0    1    1    0   
$EndComp
Wire Wire Line
	6330 1520 6680 1520
Wire Wire Line
	7380 1520 7380 1420
Wire Wire Line
	6330 1420 6330 1520
Wire Wire Line
	7030 1070 7380 1070
Wire Wire Line
	7380 1070 7380 1120
Connection ~ 7030 1070
Wire Wire Line
	7030 1420 7030 1520
Connection ~ 7030 1520
Wire Wire Line
	7030 1520 7380 1520
Wire Wire Line
	7030 1620 7030 1520
Wire Wire Line
	6680 1270 6680 1520
Connection ~ 6680 1520
Wire Wire Line
	6680 1520 7030 1520
Wire Wire Line
	7380 1070 7580 1070
Connection ~ 7380 1070
Wire Wire Line
	7580 1070 7580 1270
Wire Wire Line
	7580 1270 7680 1270
Connection ~ 7580 1070
Wire Wire Line
	7580 1070 7680 1070
$Comp
L device:L L1
U 1 1 5BA0868B
P 7830 1270
F 0 "L1" V 7730 1270 50  0000 C CNN
F 1 "10uH" V 7929 1270 50  0000 C CNN
F 2 "Slave_board:HDR1X2" H 7830 1270 50  0001 C CNN
F 3 "~" H 7830 1270 50  0001 C CNN
	1    7830 1270
	0    -1   -1   0   
$EndComp
Text Label 8280 1270 0    50   ~ 0
VCC_3V_AN
Wire Wire Line
	7980 1270 8130 1270
Wire Wire Line
	8130 1270 8130 1320
Wire Wire Line
	8280 1270 8130 1270
Connection ~ 8130 1270
Wire Wire Line
	8130 1620 8130 1670
$Comp
L power:GNDD #PWR010
U 1 1 5BA23364
P 8130 1670
F 0 "#PWR010" H 8130 1420 50  0001 C CNN
F 1 "GNDD" H 8134 1515 50  0000 C CNN
F 2 "" H 8130 1670 50  0001 C CNN
F 3 "" H 8130 1670 50  0001 C CNN
	1    8130 1670
	1    0    0    -1  
$EndComp
$Comp
L device:Jumper JP2
U 1 1 5BA494AF
P 6260 2630
F 0 "JP2" H 6260 2894 50  0000 C CNN
F 1 "Jumper" H 6260 2803 50  0000 C CNN
F 2 "Slave_board:CMS-0603" H 6260 2630 50  0001 C CNN
F 3 "~" H 6260 2630 50  0001 C CNN
	1    6260 2630
	1    0    0    -1  
$EndComp
$Comp
L device:Jumper JP3
U 1 1 5BA49657
P 6260 2980
F 0 "JP3" H 6260 3244 50  0000 C CNN
F 1 "Jumper" H 6260 3153 50  0000 C CNN
F 2 "Slave_board:CMS-0603" H 6260 2980 50  0001 C CNN
F 3 "~" H 6260 2980 50  0001 C CNN
	1    6260 2980
	1    0    0    -1  
$EndComp
$Comp
L device:Jumper JP4
U 1 1 5BA5311B
P 6260 3380
F 0 "JP4" H 6260 3644 50  0000 C CNN
F 1 "Jumper" H 6260 3553 50  0000 C CNN
F 2 "Slave_board:CMS-0603" H 6260 3380 50  0001 C CNN
F 3 "~" H 6260 3380 50  0001 C CNN
	1    6260 3380
	1    0    0    -1  
$EndComp
$Comp
L device:Jumper JP5
U 1 1 5BA53122
P 6260 3730
F 0 "JP5" H 6260 3994 50  0000 C CNN
F 1 "Jumper" H 6260 3903 50  0000 C CNN
F 2 "Slave_board:CMS-0603" H 6260 3730 50  0001 C CNN
F 3 "~" H 6260 3730 50  0001 C CNN
	1    6260 3730
	1    0    0    -1  
$EndComp
Wire Wire Line
	5960 3380 5810 3380
Wire Wire Line
	5960 3730 5810 3730
Wire Wire Line
	6560 2630 6610 2630
Wire Wire Line
	6560 2980 6610 2980
Wire Wire Line
	6560 3380 6610 3380
Wire Wire Line
	6560 3730 6610 3730
Text Label 6610 2630 0    50   ~ 0
AN4
Text Label 6610 2980 0    50   ~ 0
SS1
Text Label 6610 3380 0    50   ~ 0
AN5
Text Label 6610 3730 0    50   ~ 0
SS
$Comp
L device:C C6
U 1 1 5BA9A925
P 8130 1470
F 0 "C6" H 8245 1516 50  0000 L CNN
F 1 "0.1u" H 8245 1425 50  0000 L CNN
F 2 "Capacitor_SMD:C_0805_2012Metric_Pad1.15x1.40mm_HandSolder" H 8168 1320 50  0001 C CNN
F 3 "~" H 8130 1470 50  0001 C CNN
	1    8130 1470
	1    0    0    -1  
$EndComp
Wire Wire Line
	5810 3730 5810 3590
Wire Wire Line
	5660 2630 5960 2630
Wire Wire Line
	5660 2980 5960 2980
Wire Wire Line
	5660 2980 5660 2830
Wire Wire Line
	1350 4700 1900 4700
Text Label 1350 4700 2    50   ~ 0
DIR
Text Label 9500 890  2    50   ~ 0
VCC_3V3
Text Label 9950 890  2    50   ~ 0
RA2
Text Label 10850 890  2    50   ~ 0
TXD_LED
Text Label 9030 3030 0    50   ~ 0
RXD
Text Label 10400 890  2    50   ~ 0
RXD
$Comp
L device:R R3
U 1 1 5BAFACAE
P 9500 1090
F 0 "R3" H 9570 1136 50  0000 L CNN
F 1 "470" H 9570 1045 50  0000 L CNN
F 2 "Resistor_SMD:R_0805_2012Metric_Pad1.15x1.40mm_HandSolder" V 9430 1090 50  0001 C CNN
F 3 "~" H 9500 1090 50  0001 C CNN
	1    9500 1090
	1    0    0    -1  
$EndComp
$Comp
L device:R R4
U 1 1 5BAFAD9D
P 9950 1090
F 0 "R4" H 10020 1136 50  0000 L CNN
F 1 "220" H 10020 1045 50  0000 L CNN
F 2 "Resistor_SMD:R_0805_2012Metric_Pad1.15x1.40mm_HandSolder" V 9880 1090 50  0001 C CNN
F 3 "~" H 9950 1090 50  0001 C CNN
	1    9950 1090
	1    0    0    -1  
$EndComp
$Comp
L device:R R7
U 1 1 5BAFAE8F
P 10400 1090
F 0 "R7" H 10470 1136 50  0000 L CNN
F 1 "220" H 10470 1045 50  0000 L CNN
F 2 "Resistor_SMD:R_0805_2012Metric_Pad1.15x1.40mm_HandSolder" V 10330 1090 50  0001 C CNN
F 3 "~" H 10400 1090 50  0001 C CNN
	1    10400 1090
	1    0    0    -1  
$EndComp
$Comp
L device:R R10
U 1 1 5BAFAEFD
P 10850 1090
F 0 "R10" H 10920 1136 50  0000 L CNN
F 1 "220" H 10920 1045 50  0000 L CNN
F 2 "Resistor_SMD:R_0805_2012Metric_Pad1.15x1.40mm_HandSolder" V 10780 1090 50  0001 C CNN
F 3 "~" H 10850 1090 50  0001 C CNN
	1    10850 1090
	1    0    0    -1  
$EndComp
$Comp
L device:LED LED1
U 1 1 5BAFAF96
P 9500 1440
F 0 "LED1" V 9538 1323 50  0000 R CNN
F 1 "Green" V 9447 1323 50  0000 R CNN
F 2 "Diode_SMD:D_0805_2012Metric_Pad1.15x1.40mm_HandSolder" H 9500 1440 50  0001 C CNN
F 3 "~" H 9500 1440 50  0001 C CNN
	1    9500 1440
	0    -1   -1   0   
$EndComp
$Comp
L device:LED RA2
U 1 1 5BAFB0AF
P 9950 1440
F 0 "RA2" V 9988 1323 50  0000 R CNN
F 1 "Green" V 9897 1323 50  0000 R CNN
F 2 "Diode_SMD:D_0805_2012Metric_Pad1.15x1.40mm_HandSolder" H 9950 1440 50  0001 C CNN
F 3 "~" H 9950 1440 50  0001 C CNN
	1    9950 1440
	0    -1   -1   0   
$EndComp
$Comp
L device:LED A1
U 1 1 5BAFB127
P 10400 1440
F 0 "A1" V 10438 1323 50  0000 R CNN
F 1 "Green" V 10347 1323 50  0000 R CNN
F 2 "Diode_SMD:D_0805_2012Metric_Pad1.15x1.40mm_HandSolder" H 10400 1440 50  0001 C CNN
F 3 "~" H 10400 1440 50  0001 C CNN
	1    10400 1440
	0    -1   -1   0   
$EndComp
$Comp
L device:LED B1
U 1 1 5BAFB1A1
P 10850 1440
F 0 "B1" V 10888 1323 50  0000 R CNN
F 1 "Green" V 10797 1323 50  0000 R CNN
F 2 "Diode_SMD:D_0805_2012Metric_Pad1.15x1.40mm_HandSolder" H 10850 1440 50  0001 C CNN
F 3 "~" H 10850 1440 50  0001 C CNN
	1    10850 1440
	0    -1   -1   0   
$EndComp
Wire Wire Line
	9500 940  9500 890 
Wire Wire Line
	9950 890  9950 940 
Wire Wire Line
	10400 890  10400 940 
Wire Wire Line
	10850 890  10850 940 
Wire Wire Line
	10850 1240 10850 1290
Wire Wire Line
	10400 1290 10400 1240
Wire Wire Line
	9950 1240 9950 1290
Wire Wire Line
	9500 1290 9500 1240
Wire Wire Line
	9500 1590 9500 1640
Wire Wire Line
	9950 1590 9950 1640
Wire Wire Line
	10400 1590 10400 1640
Wire Wire Line
	10850 1590 10850 1640
$Comp
L power:GNDD #PWR011
U 1 1 5BB7EA9A
P 9500 1640
F 0 "#PWR011" H 9500 1390 50  0001 C CNN
F 1 "GNDD" H 9504 1485 50  0000 C CNN
F 2 "" H 9500 1640 50  0001 C CNN
F 3 "" H 9500 1640 50  0001 C CNN
	1    9500 1640
	1    0    0    -1  
$EndComp
$Comp
L power:GNDD #PWR013
U 1 1 5BB7EAFF
P 9950 1640
F 0 "#PWR013" H 9950 1390 50  0001 C CNN
F 1 "GNDD" H 9954 1485 50  0000 C CNN
F 2 "" H 9950 1640 50  0001 C CNN
F 3 "" H 9950 1640 50  0001 C CNN
	1    9950 1640
	1    0    0    -1  
$EndComp
$Comp
L power:GNDD #PWR015
U 1 1 5BB7ED26
P 10400 1640
F 0 "#PWR015" H 10400 1390 50  0001 C CNN
F 1 "GNDD" H 10404 1485 50  0000 C CNN
F 2 "" H 10400 1640 50  0001 C CNN
F 3 "" H 10400 1640 50  0001 C CNN
	1    10400 1640
	1    0    0    -1  
$EndComp
$Comp
L power:GNDD #PWR017
U 1 1 5BB7ED8B
P 10850 1640
F 0 "#PWR017" H 10850 1390 50  0001 C CNN
F 1 "GNDD" H 10854 1485 50  0000 C CNN
F 2 "" H 10850 1640 50  0001 C CNN
F 3 "" H 10850 1640 50  0001 C CNN
	1    10850 1640
	1    0    0    -1  
$EndComp
$Comp
L power:PWR_FLAG #FLG0101
U 1 1 5B98A18A
P 1140 1540
F 0 "#FLG0101" H 1140 1615 50  0001 C CNN
F 1 "PWR_FLAG" H 1140 1714 50  0000 C CNN
F 2 "" H 1140 1540 50  0001 C CNN
F 3 "~" H 1140 1540 50  0001 C CNN
	1    1140 1540
	1    0    0    -1  
$EndComp
$Comp
L power:PWR_FLAG #FLG0102
U 1 1 5B98A1F6
P 1840 1540
F 0 "#FLG0102" H 1840 1615 50  0001 C CNN
F 1 "PWR_FLAG" H 1840 1714 50  0000 C CNN
F 2 "" H 1840 1540 50  0001 C CNN
F 3 "~" H 1840 1540 50  0001 C CNN
	1    1840 1540
	1    0    0    -1  
$EndComp
Wire Wire Line
	1840 1540 1840 1590
Connection ~ 1840 1590
Wire Wire Line
	1140 1540 1140 1590
Wire Wire Line
	1090 6000 990  6000
Text Label 990  6000 2    50   ~ 0
VPP_MCLR
$Comp
L device:R R16
U 1 1 5BA1534F
P 6760 5400
F 0 "R16" V 6760 5400 50  0000 C CNN
F 1 "47" V 6810 5250 50  0000 C CNN
F 2 "Resistor_SMD:R_0805_2012Metric_Pad1.15x1.40mm_HandSolder" V 6690 5400 50  0001 C CNN
F 3 "~" H 6760 5400 50  0001 C CNN
	1    6760 5400
	0    1    1    0   
$EndComp
$Comp
L device:R R17
U 1 1 5BA154CF
P 6760 5500
F 0 "R17" V 6760 5500 50  0000 C CNN
F 1 "47" V 6810 5350 50  0000 C CNN
F 2 "Resistor_SMD:R_0805_2012Metric_Pad1.15x1.40mm_HandSolder" V 6690 5500 50  0001 C CNN
F 3 "~" H 6760 5500 50  0001 C CNN
	1    6760 5500
	0    1    1    0   
$EndComp
$Comp
L device:R R18
U 1 1 5BA1553D
P 6760 5600
F 0 "R18" V 6760 5600 50  0000 C CNN
F 1 "47" V 6810 5450 50  0000 C CNN
F 2 "Resistor_SMD:R_0805_2012Metric_Pad1.15x1.40mm_HandSolder" V 6690 5600 50  0001 C CNN
F 3 "~" H 6760 5600 50  0001 C CNN
	1    6760 5600
	0    1    1    0   
$EndComp
$Comp
L device:R R19
U 1 1 5BA155B1
P 6760 5700
F 0 "R19" V 6760 5700 50  0000 C CNN
F 1 "47" V 6810 5550 50  0000 C CNN
F 2 "Resistor_SMD:R_0805_2012Metric_Pad1.15x1.40mm_HandSolder" V 6690 5700 50  0001 C CNN
F 3 "~" H 6760 5700 50  0001 C CNN
	1    6760 5700
	0    1    1    0   
$EndComp
$Comp
L device:R R20
U 1 1 5BA15623
P 6760 5800
F 0 "R20" V 6760 5800 50  0000 C CNN
F 1 "47" V 6810 5650 50  0000 C CNN
F 2 "Resistor_SMD:R_0805_2012Metric_Pad1.15x1.40mm_HandSolder" V 6690 5800 50  0001 C CNN
F 3 "~" H 6760 5800 50  0001 C CNN
	1    6760 5800
	0    1    1    0   
$EndComp
$Comp
L device:R R21
U 1 1 5BA15697
P 6760 5900
F 0 "R21" V 6760 5900 50  0000 C CNN
F 1 "47" V 6810 5750 50  0000 C CNN
F 2 "Resistor_SMD:R_0805_2012Metric_Pad1.15x1.40mm_HandSolder" V 6690 5900 50  0001 C CNN
F 3 "~" H 6760 5900 50  0001 C CNN
	1    6760 5900
	0    1    1    0   
$EndComp
Wire Wire Line
	6960 5400 6910 5400
Wire Wire Line
	6910 5500 6960 5500
Wire Wire Line
	6960 5600 6910 5600
Wire Wire Line
	6910 5700 6960 5700
Wire Wire Line
	6960 5800 6910 5800
Wire Wire Line
	6910 5900 6960 5900
Wire Wire Line
	1840 2990 1840 3090
Connection ~ 1840 3090
Wire Wire Line
	1840 3090 1840 3190
Connection ~ 1840 3190
Wire Wire Line
	1840 3190 1840 3290
Wire Wire Line
	1840 3290 1840 3340
Connection ~ 1840 3290
Wire Wire Line
	4130 2350 3980 2350
Text Label 3980 2350 2    50   ~ 0
A
$Comp
L Connector_Generic:Conn_02x03_Odd_Even J4
U 1 1 5BAA8E66
P 4330 2450
F 0 "J4" H 4380 2200 50  0000 C CNN
F 1 "RJ_11" H 4380 2676 50  0000 C CNN
F 2 "Slave_board:RJ-11" H 4330 2450 50  0001 C CNN
F 3 "~" H 4330 2450 50  0001 C CNN
	1    4330 2450
	1    0    0    -1  
$EndComp
$Comp
L power:GNDD #PWR022
U 1 1 5BAA91A4
P 4080 2600
F 0 "#PWR022" H 4080 2350 50  0001 C CNN
F 1 "GNDD" H 4084 2445 50  0000 C CNN
F 2 "" H 4080 2600 50  0001 C CNN
F 3 "" H 4080 2600 50  0001 C CNN
	1    4080 2600
	1    0    0    -1  
$EndComp
Wire Wire Line
	4080 2600 4080 2550
Wire Wire Line
	4080 2550 4130 2550
Wire Wire Line
	4630 2550 4730 2550
Wire Wire Line
	4630 2350 4730 2350
Text Label 4730 2550 0    50   ~ 0
B
Text Label 4730 2350 0    50   ~ 0
DIR
NoConn ~ 4630 2450
NoConn ~ 4130 2450
$Comp
L power:GNDD #PWR023
U 1 1 5BB0A66F
P 3730 3240
F 0 "#PWR023" H 3730 2990 50  0001 C CNN
F 1 "GNDD" H 3734 3085 50  0000 C CNN
F 2 "" H 3730 3240 50  0001 C CNN
F 3 "" H 3730 3240 50  0001 C CNN
	1    3730 3240
	1    0    0    -1  
$EndComp
Text Label 9280 2480 2    50   ~ 0
5V
Wire Wire Line
	5780 1070 6330 1070
Text Label 3830 3590 2    50   ~ 0
TXD_LED
Text Label 4380 3240 2    50   ~ 0
RXD
$Comp
L Connector_Generic:Conn_01x06 J5
U 1 1 5BB59B82
P 4630 3240
F 0 "J5" V 4620 3540 50  0000 L CNN
F 1 "USB_UART_Convertor" V 4770 2820 50  0000 L CNN
F 2 "Slave_board:HDR1X6" H 4630 3240 50  0001 C CNN
F 3 "~" H 4630 3240 50  0001 C CNN
	1    4630 3240
	1    0    0    -1  
$EndComp
Text Label 4380 3040 2    50   ~ 0
5V_USB
Wire Wire Line
	3730 3140 3730 3240
Wire Wire Line
	4430 3240 4380 3240
Wire Wire Line
	4430 3440 4380 3440
Text Label 4380 3440 2    50   ~ 0
DTR
Text Label 4380 3540 2    50   ~ 0
3V3_USB
Wire Wire Line
	4380 3540 4430 3540
Wire Wire Line
	8880 4030 8880 4080
Wire Wire Line
	8880 3580 8880 3680
Wire Wire Line
	8880 3680 8830 3680
Connection ~ 8880 3680
Wire Wire Line
	8880 3680 8880 3730
Text Label 8830 3680 2    50   ~ 0
DIR
Text Label 1360 5550 2    50   ~ 0
DTR
$Comp
L device:C C9
U 1 1 5BB5B4DE
P 1410 5800
F 0 "C9" H 1525 5846 50  0000 L CNN
F 1 "0.1u" H 1525 5755 50  0000 L CNN
F 2 "Capacitor_SMD:C_0805_2012Metric_Pad1.15x1.40mm_HandSolder" H 1448 5650 50  0001 C CNN
F 3 "~" H 1410 5800 50  0001 C CNN
	1    1410 5800
	1    0    0    -1  
$EndComp
Wire Wire Line
	1360 5550 1410 5550
Wire Wire Line
	1410 5550 1410 5650
Wire Wire Line
	1410 5950 1410 6000
Wire Wire Line
	9030 3030 8980 3030
Wire Wire Line
	8980 3030 8980 3380
Connection ~ 8980 3380
Wire Wire Line
	8980 3380 9030 3380
Text Label 3430 3040 2    50   ~ 0
5V
$Comp
L device:D D3
U 1 1 5BD41753
P 3680 3040
F 0 "D3" V 3634 3119 50  0000 L CNN
F 1 "D" V 3725 3119 50  0000 L CNN
F 2 "Diode_SMD:D_1206_3216Metric_Pad1.42x1.75mm_HandSolder" H 3680 3040 50  0001 C CNN
F 3 "~" H 3680 3040 50  0001 C CNN
	1    3680 3040
	1    0    0    -1  
$EndComp
Wire Wire Line
	3530 3040 3430 3040
NoConn ~ 4380 3590
Wire Wire Line
	4380 3590 4380 3540
Wire Wire Line
	3730 3140 4430 3140
Wire Wire Line
	3830 3040 4430 3040
$Comp
L device:D D4
U 1 1 5BD75570
P 4080 3340
F 0 "D4" V 4034 3419 50  0000 L CNN
F 1 "D" V 4125 3419 50  0000 L CNN
F 2 "Diode_SMD:D_1206_3216Metric_Pad1.42x1.75mm_HandSolder" H 4080 3340 50  0001 C CNN
F 3 "~" H 4080 3340 50  0001 C CNN
	1    4080 3340
	-1   0    0    1   
$EndComp
Wire Wire Line
	4230 3340 4430 3340
Wire Wire Line
	3880 3590 3880 3340
Wire Wire Line
	3880 3340 3930 3340
Wire Wire Line
	3880 3590 3830 3590
$Comp
L device:D D5
U 1 1 5BDA5EA2
P 8130 4380
F 0 "D5" V 8084 4459 50  0000 L CNN
F 1 "D" V 8175 4459 50  0000 L CNN
F 2 "Diode_SMD:D_1206_3216Metric_Pad1.42x1.75mm_HandSolder" H 8130 4380 50  0001 C CNN
F 3 "~" H 8130 4380 50  0001 C CNN
	1    8130 4380
	-1   0    0    1   
$EndComp
Wire Wire Line
	8280 4380 8330 4380
$Comp
L device:R R22
U 1 1 5BDB72A9
P 8380 2830
F 0 "R22" H 8450 2876 50  0000 L CNN
F 1 "10k" H 8450 2785 50  0000 L CNN
F 2 "Resistor_SMD:R_0805_2012Metric_Pad1.15x1.40mm_HandSolder" V 8310 2830 50  0001 C CNN
F 3 "~" H 8380 2830 50  0001 C CNN
	1    8380 2830
	1    0    0    -1  
$EndComp
Wire Wire Line
	8380 2680 8380 2630
Wire Wire Line
	8380 2630 8730 2630
Wire Wire Line
	8730 2630 8730 2880
Wire Wire Line
	8730 2630 8730 2580
Connection ~ 8730 2630
Text Label 1010 4000 2    50   ~ 0
VCC_3V3
$Comp
L device:R R23
U 1 1 5BD6C39D
P 1060 4200
F 0 "R23" H 1130 4246 50  0000 L CNN
F 1 "10k" H 1130 4155 50  0000 L CNN
F 2 "Resistor_SMD:R_0805_2012Metric_Pad1.15x1.40mm_HandSolder" V 990 4200 50  0001 C CNN
F 3 "~" H 1060 4200 50  0001 C CNN
	1    1060 4200
	1    0    0    -1  
$EndComp
Wire Wire Line
	1060 4400 1060 4350
Wire Wire Line
	1060 4400 1060 4450
Connection ~ 1060 4400
$Comp
L device:C C10
U 1 1 5BD6C3A7
P 1060 4600
F 0 "C10" H 1175 4646 50  0000 L CNN
F 1 "0.1u" H 1175 4555 50  0000 L CNN
F 2 "Capacitor_SMD:C_0805_2012Metric_Pad1.15x1.40mm_HandSolder" H 1098 4450 50  0001 C CNN
F 3 "~" H 1060 4600 50  0001 C CNN
	1    1060 4600
	1    0    0    -1  
$EndComp
$Comp
L Slave_board-rescue:SW_Push-switches TS-1143S-WP2
U 1 1 5BD6C3AE
P 1060 5000
F 0 "TS-1143S-WP2" H 1320 4840 50  0000 R CNN
F 1 "On/Off" H 1190 4740 50  0000 R CNN
F 2 "Slave_board:Reset" H 1060 5200 50  0001 C CNN
F 3 "" H 1060 5200 50  0001 C CNN
	1    1060 5000
	0    -1   -1   0   
$EndComp
Wire Wire Line
	1060 4800 1060 4750
Wire Wire Line
	1010 4000 1060 4000
Wire Wire Line
	1060 4000 1060 4050
$Comp
L power:GNDD #PWR024
U 1 1 5BD6C3B9
P 1060 5250
F 0 "#PWR024" H 1060 5000 50  0001 C CNN
F 1 "GNDD" H 1064 5095 50  0000 C CNN
F 2 "" H 1060 5250 50  0001 C CNN
F 3 "" H 1060 5250 50  0001 C CNN
	1    1060 5250
	1    0    0    -1  
$EndComp
Wire Wire Line
	1060 5250 1060 5200
Wire Wire Line
	1060 4400 1900 4400
Text Notes 700  830  0    157  ~ 31
SLAVE BOARD - OWNWALL PROJECT
Wire Notes Line
	470  1000 5050 1000
Wire Notes Line
	5050 1000 5050 550 
Text Notes 9210 650  0    79   ~ 0
LEDs
Wire Notes Line
	9070 550  9070 1930
Wire Notes Line
	9070 1930 11160 1930
Text Notes 580  1240 0    79   ~ 0
36 PIN BOARD CONNECTOR
Wire Notes Line
	500  3670 5060 3670
Wire Notes Line
	5060 3670 5060 1080
Wire Notes Line
	2540 1080 2540 3640
Wire Notes Line
	2540 3640 2560 3640
Wire Notes Line
	2580 2020 4970 2020
Wire Notes Line
	2570 2810 5000 2810
Wire Notes Line
	3780 2070 3780 2750
Wire Notes Line
	3780 2750 3790 2750
Text Notes 2620 2120 0    50   ~ 0
4 PIN MAX485 CONNECTOR\n
Text Notes 3860 2130 0    50   ~ 0
RJ11 MAX485 CONNECTOR
Text Notes 2580 3030 0    50   ~ 0
6 PIN USB UART\nCONNECTOR
Text Notes 5320 730  0    79   ~ 0
POWER SUPPLY
Wire Notes Line
	5140 1940 8990 1940
Text Notes 1480 3880 0    79   ~ 0
MICROCHIP MICROCONTROLLER
Text Notes 830  7190 0    79   ~ 0
BUTTONS
Text Notes 830  5220 1    79   ~ 0
BOOTLOADER\nBUTTON
Text Notes 760  6920 1    79   ~ 0
RESET BUTTON
Text Notes 5200 2180 0    79   ~ 0
MULTI-PURPOSE I/O
Text Label 7860 3280 2    79   ~ 0
TX
Text Label 7860 3380 2    79   ~ 0
RX
Wire Wire Line
	9730 2210 9730 2380
Wire Wire Line
	8380 2980 8380 3020
Connection ~ 8380 3280
Wire Wire Line
	8380 3280 8580 3280
Wire Wire Line
	8380 3020 8270 3020
Wire Wire Line
	8270 3020 8270 2970
Connection ~ 8380 3020
Wire Wire Line
	8380 3020 8380 3280
Wire Wire Line
	8880 3380 7860 3380
Connection ~ 8880 3380
Wire Wire Line
	7980 3280 7860 3280
Connection ~ 7980 3280
Wire Notes Line
	7340 2020 7340 4720
Wire Notes Line
	7340 4720 11120 4720
Text Notes 7520 2170 0    79   ~ 0
MAX485 MODULE
Connection ~ 1410 6000
Wire Wire Line
	1410 6000 1550 6000
Wire Wire Line
	1900 6250 1630 6250
Wire Wire Line
	1490 6250 1630 6250
Connection ~ 5660 2830
Wire Wire Line
	5660 2830 5660 2630
Connection ~ 5810 3590
Wire Wire Line
	5810 3590 5810 3380
Wire Wire Line
	6500 4600 6700 4600
Wire Wire Line
	6700 4700 6500 4700
Text Label 5290 2820 0    50   ~ 0
AN4_SS1
Text Label 5500 3570 0    50   ~ 0
AN5_SS
Wire Wire Line
	5290 2830 5290 2820
Wire Wire Line
	5290 2830 5660 2830
Wire Wire Line
	5500 3590 5500 3570
Wire Wire Line
	5500 3590 5810 3590
Wire Notes Line
	5060 3740 5060 4030
Wire Notes Line
	5060 4030 7230 4030
Wire Wire Line
	6500 5400 6610 5400
Wire Wire Line
	6500 5500 6610 5500
Wire Wire Line
	6500 5600 6610 5600
Wire Wire Line
	6500 5700 6610 5700
Wire Wire Line
	6500 5800 6610 5800
Wire Wire Line
	6500 5900 6610 5900
Text Label 6940 5200 2    79   ~ 0
TX
Text Label 6950 5300 2    79   ~ 0
RX
Wire Wire Line
	6940 5200 6500 5200
Wire Wire Line
	6500 5300 6950 5300
$EndSCHEMATC
