(module laas_LOGO (layer F.Cu) (tedit 0)
  (fp_text reference G*** (at 0 0) (layer F.SilkS) hide
    (effects (font (size 1.524 1.524) (thickness 0.3)))
  )
  (fp_text value laas_LOGO (at 0.75 0) (layer F.SilkS) hide
    (effects (font (size 1.524 1.524) (thickness 0.3)))
  )
  (fp_poly (pts (xy 5.73077 -1.553977) (xy 5.715 -1.524) (xy 5.635225 -1.443143) (xy 5.620339 -1.439333)
    (xy 5.614563 -1.494024) (xy 5.630333 -1.524) (xy 5.710107 -1.604857) (xy 5.724993 -1.608667)
    (xy 5.73077 -1.553977)) (layer F.SilkS) (width 0.01))
  (fp_poly (pts (xy 5.561429 -1.310179) (xy 5.514133 -1.248833) (xy 5.390552 -1.117204) (xy 5.33539 -1.117776)
    (xy 5.334 -1.132633) (xy 5.391859 -1.203308) (xy 5.482166 -1.2808) (xy 5.582453 -1.354024)
    (xy 5.561429 -1.310179)) (layer F.SilkS) (width 0.01))
  (fp_poly (pts (xy 1.23372 -2.536124) (xy 1.392887 -2.486725) (xy 1.439333 -2.413) (xy 1.373895 -2.318324)
    (xy 1.166242 -2.286109) (xy 1.147996 -2.286) (xy 0.897716 -2.251376) (xy 0.789033 -2.15486)
    (xy 0.832915 -2.00749) (xy 0.849744 -1.985958) (xy 1.018913 -1.900667) (xy 1.346195 -1.864226)
    (xy 1.455266 -1.862667) (xy 1.757396 -1.848293) (xy 2.009469 -1.811205) (xy 2.122232 -1.775021)
    (xy 2.243369 -1.632729) (xy 2.290795 -1.421035) (xy 2.262989 -1.209863) (xy 2.158425 -1.069136)
    (xy 2.137833 -1.05914) (xy 1.969333 -1.01979) (xy 1.702249 -0.986435) (xy 1.38478 -0.96156)
    (xy 1.065127 -0.947652) (xy 0.791489 -0.947197) (xy 0.612065 -0.96268) (xy 0.5715 -0.978353)
    (xy 0.512666 -1.075651) (xy 0.571153 -1.138921) (xy 0.763309 -1.17391) (xy 1.105482 -1.186362)
    (xy 1.164166 -1.18663) (xy 1.587898 -1.200599) (xy 1.860147 -1.244175) (xy 1.997037 -1.322854)
    (xy 2.014695 -1.442132) (xy 2.004661 -1.473122) (xy 1.925551 -1.555646) (xy 1.745767 -1.598294)
    (xy 1.463157 -1.609915) (xy 1.152682 -1.62899) (xy 0.881307 -1.676626) (xy 0.762 -1.71771)
    (xy 0.584324 -1.886755) (xy 0.522408 -2.117126) (xy 0.588256 -2.343346) (xy 0.63645 -2.402356)
    (xy 0.797761 -2.493174) (xy 1.016098 -2.538019) (xy 1.23372 -2.536124)) (layer F.SilkS) (width 0.01))
  (fp_poly (pts (xy -0.595976 -2.471409) (xy -0.434596 -2.297603) (xy -0.23537 -2.052167) (xy -0.02464 -1.770839)
    (xy 0.171252 -1.489352) (xy 0.325962 -1.243443) (xy 0.413148 -1.068847) (xy 0.423333 -1.023256)
    (xy 0.375645 -0.935614) (xy 0.256129 -0.967138) (xy 0.100108 -1.105873) (xy 0.06954 -1.143)
    (xy -0.035777 -1.25496) (xy -0.162821 -1.318761) (xy -0.359635 -1.347594) (xy -0.674261 -1.354648)
    (xy -0.701465 -1.354667) (xy -1.024497 -1.349005) (xy -1.227269 -1.322631) (xy -1.358722 -1.261461)
    (xy -1.467801 -1.151414) (xy -1.485964 -1.128936) (xy -1.630581 -0.988882) (xy -1.720632 -0.992067)
    (xy -1.723619 -0.996506) (xy -1.707783 -1.110111) (xy -1.610069 -1.31897) (xy -1.45491 -1.586535)
    (xy -1.440536 -1.608667) (xy -1.117296 -1.608667) (xy -0.252444 -1.608667) (xy -0.443722 -1.903865)
    (xy -0.576949 -2.082146) (xy -0.680858 -2.174046) (xy -0.702841 -2.177585) (xy -0.788352 -2.098033)
    (xy -0.9141 -1.92839) (xy -0.943989 -1.882387) (xy -1.117296 -1.608667) (xy -1.440536 -1.608667)
    (xy -1.266741 -1.876259) (xy -1.069994 -2.151593) (xy -0.889104 -2.37599) (xy -0.748503 -2.512903)
    (xy -0.693166 -2.537851) (xy -0.595976 -2.471409)) (layer F.SilkS) (width 0.01))
  (fp_poly (pts (xy -2.881976 -2.471409) (xy -2.720596 -2.297603) (xy -2.52137 -2.052167) (xy -2.31064 -1.770839)
    (xy -2.114748 -1.489352) (xy -1.960038 -1.243443) (xy -1.872852 -1.068847) (xy -1.862667 -1.023256)
    (xy -1.910355 -0.935614) (xy -2.029871 -0.967138) (xy -2.185892 -1.105873) (xy -2.21646 -1.143)
    (xy -2.321777 -1.25496) (xy -2.448821 -1.318761) (xy -2.645635 -1.347594) (xy -2.960261 -1.354648)
    (xy -2.987465 -1.354667) (xy -3.310497 -1.349005) (xy -3.513269 -1.322631) (xy -3.644722 -1.261461)
    (xy -3.753801 -1.151414) (xy -3.771964 -1.128936) (xy -3.916581 -0.988882) (xy -4.006632 -0.992067)
    (xy -4.009619 -0.996506) (xy -3.993783 -1.110111) (xy -3.896069 -1.31897) (xy -3.74091 -1.586535)
    (xy -3.726536 -1.608667) (xy -3.403296 -1.608667) (xy -2.538444 -1.608667) (xy -2.729722 -1.903865)
    (xy -2.862949 -2.082146) (xy -2.966858 -2.174046) (xy -2.988841 -2.177585) (xy -3.074352 -2.098033)
    (xy -3.2001 -1.92839) (xy -3.229989 -1.882387) (xy -3.403296 -1.608667) (xy -3.726536 -1.608667)
    (xy -3.552741 -1.876259) (xy -3.355994 -2.151593) (xy -3.175104 -2.37599) (xy -3.034503 -2.512903)
    (xy -2.979166 -2.537851) (xy -2.881976 -2.471409)) (layer F.SilkS) (width 0.01))
  (fp_poly (pts (xy -5.744753 -2.51972) (xy -5.700048 -2.448647) (xy -5.678711 -2.278286) (xy -5.672734 -1.975997)
    (xy -5.672667 -1.920267) (xy -5.667955 -1.587838) (xy -5.633294 -1.374694) (xy -5.537894 -1.254326)
    (xy -5.350968 -1.200224) (xy -5.041726 -1.18588) (xy -4.819076 -1.185333) (xy -4.499222 -1.177714)
    (xy -4.316979 -1.150344) (xy -4.241126 -1.096452) (xy -4.233334 -1.058333) (xy -4.271354 -0.984407)
    (xy -4.407364 -0.947706) (xy -4.674291 -0.940298) (xy -4.720167 -0.94107) (xy -5.060499 -0.958259)
    (xy -5.389418 -0.991326) (xy -5.533319 -1.013842) (xy -5.763242 -1.082984) (xy -5.918902 -1.174216)
    (xy -5.936093 -1.194606) (xy -5.971557 -1.334545) (xy -5.991219 -1.588602) (xy -5.990853 -1.901956)
    (xy -5.990774 -1.904102) (xy -5.971618 -2.225196) (xy -5.937071 -2.412615) (xy -5.877385 -2.501924)
    (xy -5.820834 -2.524144) (xy -5.744753 -2.51972)) (layer F.SilkS) (width 0.01))
  (fp_poly (pts (xy 5.334 -0.211667) (xy 5.291666 -0.169333) (xy 5.249333 -0.211667) (xy 5.291666 -0.254)
    (xy 5.334 -0.211667)) (layer F.SilkS) (width 0.01))
  (fp_poly (pts (xy 5.08 -0.042333) (xy 5.037666 0) (xy 4.995333 -0.042333) (xy 5.037666 -0.084667)
    (xy 5.08 -0.042333)) (layer F.SilkS) (width 0.01))
  (fp_poly (pts (xy 4.884103 0.05469) (xy 4.868333 0.084667) (xy 4.788559 0.165523) (xy 4.773673 0.169333)
    (xy 4.767896 0.114643) (xy 4.783666 0.084667) (xy 4.86344 0.00381) (xy 4.878326 0)
    (xy 4.884103 0.05469)) (layer F.SilkS) (width 0.01))
  (fp_poly (pts (xy 4.656666 0.211667) (xy 4.614333 0.254) (xy 4.572 0.211667) (xy 4.614333 0.169333)
    (xy 4.656666 0.211667)) (layer F.SilkS) (width 0.01))
  (fp_poly (pts (xy 4.46077 0.30869) (xy 4.445 0.338667) (xy 4.365225 0.419523) (xy 4.350339 0.423333)
    (xy 4.344563 0.368643) (xy 4.360333 0.338667) (xy 4.440107 0.25781) (xy 4.454993 0.254)
    (xy 4.46077 0.30869)) (layer F.SilkS) (width 0.01))
  (fp_poly (pts (xy 4.233333 0.465667) (xy 4.191 0.508) (xy 4.148666 0.465667) (xy 4.191 0.423333)
    (xy 4.233333 0.465667)) (layer F.SilkS) (width 0.01))
  (fp_poly (pts (xy 4.064 0.550333) (xy 4.021666 0.592667) (xy 3.979333 0.550333) (xy 4.021666 0.508)
    (xy 4.064 0.550333)) (layer F.SilkS) (width 0.01))
  (fp_poly (pts (xy 1.611684 -0.236759) (xy 1.69269 -0.176962) (xy 1.693333 -0.169333) (xy 1.621032 -0.105135)
    (xy 1.486663 -0.084667) (xy 1.301718 -0.045465) (xy 1.200894 0.046686) (xy 1.225769 0.153325)
    (xy 1.335693 0.191688) (xy 1.559295 0.230607) (xy 1.763414 0.253525) (xy 2.035474 0.28305)
    (xy 2.181752 0.326789) (xy 2.245378 0.410906) (xy 2.269372 0.560438) (xy 2.263192 0.756988)
    (xy 2.171426 0.852532) (xy 2.100039 0.876782) (xy 1.882889 0.912836) (xy 1.614974 0.928293)
    (xy 1.347788 0.924392) (xy 1.132825 0.902372) (xy 1.02158 0.863471) (xy 1.016 0.850707)
    (xy 1.093096 0.80522) (xy 1.294139 0.766485) (xy 1.544316 0.744873) (xy 1.846983 0.720994)
    (xy 2.017063 0.678131) (xy 2.091132 0.60489) (xy 2.100857 0.5715) (xy 2.091317 0.479999)
    (xy 1.991813 0.435729) (xy 1.764725 0.423399) (xy 1.736308 0.423333) (xy 1.460847 0.404802)
    (xy 1.235186 0.358245) (xy 1.179767 0.335688) (xy 1.039911 0.181054) (xy 1.034868 -0.019336)
    (xy 1.1176 -0.1524) (xy 1.255415 -0.222457) (xy 1.443017 -0.25125) (xy 1.611684 -0.236759)) (layer F.SilkS) (width 0.01))
  (fp_poly (pts (xy 0.484544 -0.23018) (xy 0.768594 -0.156203) (xy 0.910309 -0.0283) (xy 0.931333 0.070712)
    (xy 0.859991 0.282182) (xy 0.649104 0.401624) (xy 0.427566 0.428585) (xy 0.127 0.433838)
    (xy 0.486833 0.614599) (xy 0.698049 0.733735) (xy 0.827481 0.831855) (xy 0.846666 0.863347)
    (xy 0.819603 0.918756) (xy 0.720524 0.915844) (xy 0.522593 0.848458) (xy 0.219787 0.719667)
    (xy -0.037111 0.608692) (xy -0.22593 0.532054) (xy -0.298748 0.508) (xy -0.32879 0.58066)
    (xy -0.338667 0.719667) (xy -0.36765 0.878781) (xy -0.423334 0.931333) (xy -0.466766 0.853023)
    (xy -0.496777 0.643138) (xy -0.508 0.339242) (xy -0.508 0.084667) (xy -0.338667 0.084667)
    (xy -0.320131 0.179243) (xy -0.238707 0.230347) (xy -0.05567 0.250887) (xy 0.169333 0.254)
    (xy 0.453061 0.247821) (xy 0.606373 0.22068) (xy 0.667994 0.159667) (xy 0.677333 0.084667)
    (xy 0.658797 -0.00991) (xy 0.577373 -0.061014) (xy 0.394335 -0.081554) (xy 0.169333 -0.084667)
    (xy -0.114395 -0.078488) (xy -0.267707 -0.051347) (xy -0.329328 0.009666) (xy -0.338667 0.084667)
    (xy -0.508 0.084667) (xy -0.508 -0.254) (xy 0.047899 -0.254) (xy 0.484544 -0.23018)) (layer F.SilkS) (width 0.01))
  (fp_poly (pts (xy -0.739035 -0.215872) (xy -0.699456 -0.054895) (xy -0.678449 0.238606) (xy -0.677334 0.338667)
    (xy -0.685636 0.63065) (xy -0.707484 0.842059) (xy -0.738292 0.930139) (xy -0.740834 0.930581)
    (xy -0.830812 0.878708) (xy -1.012539 0.741811) (xy -1.250726 0.546825) (xy -1.312334 0.494409)
    (xy -1.820334 0.058989) (xy -1.845925 0.495161) (xy -1.882004 0.76604) (xy -1.943839 0.91347)
    (xy -2.019415 0.921137) (xy -2.0818 0.815408) (xy -2.108958 0.646977) (xy -2.108836 0.402029)
    (xy -2.08683 0.138059) (xy -2.048334 -0.087436) (xy -1.998744 -0.216958) (xy -1.983879 -0.228108)
    (xy -1.881785 -0.18996) (xy -1.692167 -0.062121) (xy -1.451712 0.130008) (xy -1.391212 0.182251)
    (xy -0.889 0.62236) (xy -0.863409 0.18418) (xy -0.831592 -0.105119) (xy -0.786608 -0.235541)
    (xy -0.739035 -0.215872)) (layer F.SilkS) (width 0.01))
  (fp_poly (pts (xy -2.579171 -0.247425) (xy -2.377887 -0.222183) (xy -2.287033 -0.175841) (xy -2.286 -0.169333)
    (xy -2.363195 -0.124331) (xy -2.565187 -0.093787) (xy -2.798639 -0.084667) (xy -3.311278 -0.084667)
    (xy -3.285473 0.3175) (xy -3.259667 0.719667) (xy -2.72804 0.744937) (xy -2.448592 0.770054)
    (xy -2.279361 0.809954) (xy -2.246204 0.85077) (xy -2.356844 0.897932) (xy -2.578501 0.922559)
    (xy -2.854433 0.925184) (xy -3.127902 0.90634) (xy -3.342168 0.866557) (xy -3.407834 0.839885)
    (xy -3.499465 0.703709) (xy -3.550415 0.468395) (xy -3.557587 0.199915) (xy -3.517887 -0.035759)
    (xy -3.4544 -0.1524) (xy -3.3285 -0.204057) (xy -3.106188 -0.237613) (xy -2.839175 -0.252319)
    (xy -2.579171 -0.247425)) (layer F.SilkS) (width 0.01))
  (fp_poly (pts (xy 4.929722 -0.600145) (xy 4.731824 -0.402981) (xy 4.447848 -0.122497) (xy 4.157775 0.169246)
    (xy 3.931185 0.408425) (xy 3.785243 0.575963) (xy 3.737112 0.652786) (xy 3.749348 0.653745)
    (xy 3.870032 0.627159) (xy 3.894666 0.642341) (xy 3.824101 0.697907) (xy 3.640478 0.798034)
    (xy 3.422656 0.902795) (xy 3.090492 1.06693) (xy 2.709583 1.272618) (xy 2.427823 1.436289)
    (xy 1.437174 1.957511) (xy 0.313942 2.402949) (xy -0.919549 2.76521) (xy -2.240975 3.036899)
    (xy -2.550866 3.085193) (xy -2.880035 3.123378) (xy -3.294961 3.156369) (xy -3.764864 3.183412)
    (xy -4.258962 3.203758) (xy -4.746473 3.216655) (xy -5.196617 3.221352) (xy -5.57861 3.217098)
    (xy -5.861672 3.203141) (xy -6.015021 3.178731) (xy -6.030348 3.170097) (xy -6.052091 3.058516)
    (xy -6.038969 2.9752) (xy -6.001404 2.900335) (xy -5.91382 2.864754) (xy -5.738587 2.864031)
    (xy -5.438075 2.893739) (xy -5.392011 2.899115) (xy -4.757888 2.939355) (xy -4.006443 2.9309)
    (xy -3.181202 2.877992) (xy -2.325689 2.784873) (xy -1.483428 2.655787) (xy -0.697945 2.494974)
    (xy -0.355565 2.408225) (xy -0.010178 2.307467) (xy 0.373005 2.185016) (xy 0.76244 2.052359)
    (xy 1.126584 1.920987) (xy 1.433894 1.802389) (xy 1.652825 1.708053) (xy 1.751835 1.64947)
    (xy 1.753077 1.640188) (xy 1.665424 1.649758) (xy 1.460652 1.699955) (xy 1.182962 1.779935)
    (xy 1.180956 1.780547) (xy 0.221006 2.024679) (xy -0.863232 2.214421) (xy -2.034438 2.345932)
    (xy -3.255288 2.415374) (xy -4.488461 2.418906) (xy -4.8895 2.405053) (xy -5.384472 2.381536)
    (xy -5.734762 2.359194) (xy -5.964942 2.334001) (xy -6.099584 2.301932) (xy -6.163261 2.258962)
    (xy -6.180543 2.201064) (xy -6.180667 2.193523) (xy -6.177626 2.145926) (xy -6.156374 2.109516)
    (xy -6.098723 2.084018) (xy -5.98648 2.069155) (xy -5.801456 2.06465) (xy -5.52546 2.070226)
    (xy -5.140301 2.085607) (xy -4.627788 2.110516) (xy -3.969733 2.144676) (xy -3.745185 2.156478)
    (xy -3.16965 2.166581) (xy -2.483964 2.146839) (xy -1.743876 2.101342) (xy -1.005132 2.034182)
    (xy -0.32348 1.949449) (xy 0.148608 1.870727) (xy 0.901182 1.700498) (xy 1.366506 1.566333)
    (xy 1.862666 1.566333) (xy 1.905 1.608667) (xy 1.947333 1.566333) (xy 1.905 1.524)
    (xy 1.862666 1.566333) (xy 1.366506 1.566333) (xy 1.632407 1.489667) (xy 2.305254 1.251333)
    (xy 2.88269 0.998594) (xy 3.322352 0.748179) (xy 3.360977 0.719667) (xy 3.556 0.719667)
    (xy 3.598333 0.762) (xy 3.640666 0.719667) (xy 3.598333 0.677333) (xy 3.556 0.719667)
    (xy 3.360977 0.719667) (xy 3.608871 0.536679) (xy 3.963778 0.250011) (xy 4.334541 -0.068449)
    (xy 4.568849 -0.280974) (xy 4.827942 -0.521709) (xy 4.975784 -0.656893) (xy 5.010376 -0.68391)
    (xy 4.929722 -0.600145)) (layer F.SilkS) (width 0.01))
)
