(module open_hardware_logo (layer F.Cu) (tedit 0)
  (fp_text reference G*** (at 0 0) (layer F.SilkS) hide
    (effects (font (size 1.524 1.524) (thickness 0.3)))
  )
  (fp_text value open_hardware_logo (at 0.75 0) (layer F.SilkS) hide
    (effects (font (size 1.524 1.524) (thickness 0.3)))
  )
  (fp_poly (pts (xy 0.054164 -3.387625) (xy 0.118174 -3.387026) (xy 0.178072 -3.385956) (xy 0.23152 -3.384413)
    (xy 0.276181 -3.382398) (xy 0.309716 -3.37991) (xy 0.329788 -3.376951) (xy 0.333962 -3.375358)
    (xy 0.338691 -3.369197) (xy 0.343982 -3.356431) (xy 0.350156 -3.335642) (xy 0.357534 -3.305411)
    (xy 0.366438 -3.26432) (xy 0.377191 -3.210951) (xy 0.390114 -3.143885) (xy 0.405528 -3.061704)
    (xy 0.407422 -3.051508) (xy 0.420667 -2.980267) (xy 0.433087 -2.913723) (xy 0.444311 -2.853844)
    (xy 0.453969 -2.802601) (xy 0.461688 -2.761962) (xy 0.467099 -2.733897) (xy 0.469828 -2.720374)
    (xy 0.46991 -2.720019) (xy 0.480641 -2.703416) (xy 0.501826 -2.687508) (xy 0.506019 -2.685288)
    (xy 0.52905 -2.674554) (xy 0.563016 -2.659726) (xy 0.605413 -2.641807) (xy 0.65374 -2.621799)
    (xy 0.705493 -2.600704) (xy 0.75817 -2.579523) (xy 0.809269 -2.55926) (xy 0.856286 -2.540915)
    (xy 0.896721 -2.525492) (xy 0.92807 -2.513992) (xy 0.94783 -2.507416) (xy 0.953128 -2.506252)
    (xy 0.96354 -2.510945) (xy 0.986235 -2.524271) (xy 1.0196 -2.545186) (xy 1.062025 -2.572643)
    (xy 1.111897 -2.605597) (xy 1.167604 -2.643003) (xy 1.227536 -2.683813) (xy 1.240217 -2.692519)
    (xy 1.300856 -2.733906) (xy 1.357645 -2.772096) (xy 1.408966 -2.806041) (xy 1.4532 -2.834697)
    (xy 1.488729 -2.857017) (xy 1.513934 -2.871956) (xy 1.527198 -2.878467) (xy 1.528289 -2.878667)
    (xy 1.537529 -2.872873) (xy 1.556977 -2.85655) (xy 1.585023 -2.831282) (xy 1.620059 -2.798655)
    (xy 1.660475 -2.760253) (xy 1.704662 -2.717662) (xy 1.751012 -2.672466) (xy 1.797916 -2.626252)
    (xy 1.843765 -2.580605) (xy 1.88695 -2.537108) (xy 1.925862 -2.497348) (xy 1.958891 -2.46291)
    (xy 1.98443 -2.435379) (xy 2.000869 -2.41634) (xy 2.0066 -2.407423) (xy 2.001963 -2.398605)
    (xy 1.988757 -2.377449) (xy 1.968036 -2.345549) (xy 1.940858 -2.304498) (xy 1.908277 -2.255889)
    (xy 1.871349 -2.201317) (xy 1.831131 -2.142375) (xy 1.82734 -2.136844) (xy 1.786464 -2.076973)
    (xy 1.748435 -2.020796) (xy 1.714373 -1.970004) (xy 1.685397 -1.926287) (xy 1.662628 -1.891336)
    (xy 1.647185 -1.866841) (xy 1.64019 -1.854492) (xy 1.640073 -1.8542) (xy 1.638635 -1.845958)
    (xy 1.639897 -1.833775) (xy 1.644466 -1.815956) (xy 1.65295 -1.790807) (xy 1.665954 -1.756636)
    (xy 1.684086 -1.711747) (xy 1.707953 -1.654448) (xy 1.732188 -1.597109) (xy 1.760944 -1.529598)
    (xy 1.784094 -1.476027) (xy 1.802503 -1.434687) (xy 1.817042 -1.403871) (xy 1.828577 -1.381873)
    (xy 1.837978 -1.366985) (xy 1.846111 -1.357499) (xy 1.853846 -1.351709) (xy 1.858072 -1.34956)
    (xy 1.872214 -1.345356) (xy 1.900945 -1.338587) (xy 1.942187 -1.329679) (xy 1.993861 -1.319061)
    (xy 2.05389 -1.30716) (xy 2.120197 -1.294404) (xy 2.183929 -1.282471) (xy 2.253355 -1.269448)
    (xy 2.317715 -1.257006) (xy 2.375055 -1.245552) (xy 2.423426 -1.23549) (xy 2.460875 -1.227227)
    (xy 2.48545 -1.221167) (xy 2.495079 -1.217834) (xy 2.498019 -1.212094) (xy 2.500422 -1.199304)
    (xy 2.502334 -1.178077) (xy 2.503801 -1.147029) (xy 2.504868 -1.104776) (xy 2.505581 -1.049932)
    (xy 2.505987 -0.981113) (xy 2.506131 -0.896933) (xy 2.506133 -0.884335) (xy 2.506064 -0.800502)
    (xy 2.505814 -0.732005) (xy 2.505321 -0.677246) (xy 2.504522 -0.634625) (xy 2.503353 -0.602546)
    (xy 2.501752 -0.579411) (xy 2.499656 -0.563622) (xy 2.497001 -0.553581) (xy 2.493725 -0.54769)
    (xy 2.492828 -0.546705) (xy 2.48039 -0.536115) (xy 2.474862 -0.5334) (xy 2.464587 -0.531877)
    (xy 2.440031 -0.527604) (xy 2.403544 -0.521023) (xy 2.357474 -0.512575) (xy 2.304171 -0.502703)
    (xy 2.245983 -0.491849) (xy 2.185259 -0.480453) (xy 2.124349 -0.468959) (xy 2.065601 -0.457809)
    (xy 2.011365 -0.447443) (xy 1.963989 -0.438306) (xy 1.925823 -0.430837) (xy 1.899215 -0.425479)
    (xy 1.886878 -0.422773) (xy 1.860173 -0.410386) (xy 1.843255 -0.387458) (xy 1.843168 -0.387274)
    (xy 1.83348 -0.365384) (xy 1.819542 -0.332177) (xy 1.802286 -0.290028) (xy 1.782643 -0.241309)
    (xy 1.761547 -0.188395) (xy 1.739928 -0.133661) (xy 1.71872 -0.079481) (xy 1.698853 -0.028228)
    (xy 1.68126 0.017722) (xy 1.666873 0.055995) (xy 1.656624 0.084218) (xy 1.651445 0.100015)
    (xy 1.651 0.10226) (xy 1.655647 0.112225) (xy 1.668857 0.134411) (xy 1.689535 0.16713)
    (xy 1.716584 0.208695) (xy 1.748908 0.257419) (xy 1.785411 0.311615) (xy 1.819069 0.360963)
    (xy 1.866757 0.430496) (xy 1.90571 0.487419) (xy 1.936753 0.533097) (xy 1.960713 0.568893)
    (xy 1.978415 0.596174) (xy 1.990686 0.616304) (xy 1.998351 0.630647) (xy 2.002238 0.640569)
    (xy 2.003171 0.647435) (xy 2.001977 0.652609) (xy 1.999483 0.657456) (xy 1.999023 0.658283)
    (xy 1.989807 0.670068) (xy 1.970382 0.691419) (xy 1.942374 0.720748) (xy 1.90741 0.756465)
    (xy 1.867115 0.796982) (xy 1.823115 0.84071) (xy 1.777036 0.886061) (xy 1.730505 0.931446)
    (xy 1.685147 0.975275) (xy 1.642588 1.01596) (xy 1.604455 1.051913) (xy 1.572372 1.081544)
    (xy 1.547967 1.103265) (xy 1.532865 1.115487) (xy 1.528945 1.1176) (xy 1.518505 1.112943)
    (xy 1.495905 1.099715) (xy 1.462871 1.079031) (xy 1.421134 1.052007) (xy 1.37242 1.019758)
    (xy 1.318458 0.983399) (xy 1.275312 0.953919) (xy 1.218171 0.914734) (xy 1.164749 0.878271)
    (xy 1.116832 0.845734) (xy 1.076202 0.818328) (xy 1.044643 0.797256) (xy 1.023939 0.783724)
    (xy 1.016716 0.779305) (xy 1.008045 0.775853) (xy 0.997825 0.775425) (xy 0.983596 0.77893)
    (xy 0.962899 0.78728) (xy 0.933277 0.801386) (xy 0.89227 0.822159) (xy 0.869797 0.833744)
    (xy 0.818851 0.859356) (xy 0.778989 0.87786) (xy 0.751279 0.888801) (xy 0.736794 0.891722)
    (xy 0.735278 0.891065) (xy 0.730264 0.881566) (xy 0.719589 0.858041) (xy 0.703889 0.82203)
    (xy 0.683797 0.775076) (xy 0.659948 0.718718) (xy 0.632976 0.654498) (xy 0.603516 0.583955)
    (xy 0.572202 0.508632) (xy 0.539669 0.430069) (xy 0.506551 0.349807) (xy 0.473483 0.269386)
    (xy 0.441098 0.190347) (xy 0.410032 0.114232) (xy 0.380918 0.042581) (xy 0.354392 -0.023065)
    (xy 0.331087 -0.081165) (xy 0.311637 -0.130179) (xy 0.296679 -0.168565) (xy 0.286845 -0.194783)
    (xy 0.28277 -0.207292) (xy 0.282719 -0.208081) (xy 0.290667 -0.216335) (xy 0.309645 -0.23192)
    (xy 0.336751 -0.25255) (xy 0.366752 -0.274289) (xy 0.451517 -0.339492) (xy 0.521327 -0.405171)
    (xy 0.578028 -0.473896) (xy 0.623468 -0.548237) (xy 0.659495 -0.630765) (xy 0.686832 -0.719666)
    (xy 0.696211 -0.770325) (xy 0.701789 -0.831092) (xy 0.703396 -0.895537) (xy 0.700861 -0.957229)
    (xy 0.694444 -1.007533) (xy 0.666484 -1.111151) (xy 0.624182 -1.207236) (xy 0.568853 -1.2947)
    (xy 0.501812 -1.372454) (xy 0.424376 -1.439412) (xy 0.33786 -1.494483) (xy 0.24358 -1.536582)
    (xy 0.142853 -1.564619) (xy 0.036993 -1.577507) (xy 0.004233 -1.578257) (xy -0.103509 -1.570092)
    (xy -0.206884 -1.546204) (xy -0.304421 -1.507502) (xy -0.39465 -1.454896) (xy -0.476099 -1.389295)
    (xy -0.547298 -1.311609) (xy -0.606776 -1.222746) (xy -0.624357 -1.189566) (xy -0.664716 -1.089725)
    (xy -0.688693 -0.986256) (xy -0.696263 -0.879913) (xy -0.6874 -0.771447) (xy -0.662079 -0.661613)
    (xy -0.643778 -0.607845) (xy -0.604939 -0.527512) (xy -0.549771 -0.448918) (xy -0.478843 -0.372729)
    (xy -0.392727 -0.299612) (xy -0.358286 -0.274289) (xy -0.326224 -0.25102) (xy -0.299583 -0.230663)
    (xy -0.281269 -0.215508) (xy -0.274253 -0.208081) (xy -0.27686 -0.199068) (xy -0.285379 -0.175979)
    (xy -0.299173 -0.140354) (xy -0.317609 -0.093735) (xy -0.340052 -0.037661) (xy -0.365868 0.026325)
    (xy -0.394422 0.096684) (xy -0.425081 0.171875) (xy -0.457209 0.250356) (xy -0.490172 0.330587)
    (xy -0.523336 0.411027) (xy -0.556066 0.490136) (xy -0.587728 0.566371) (xy -0.617687 0.638193)
    (xy -0.64531 0.704061) (xy -0.669961 0.762434) (xy -0.691006 0.81177) (xy -0.707812 0.85053)
    (xy -0.719742 0.877172) (xy -0.726164 0.890156) (xy -0.726812 0.891065) (xy -0.737499 0.890414)
    (xy -0.761703 0.881618) (xy -0.798353 0.865134) (xy -0.846379 0.841418) (xy -0.861331 0.833744)
    (xy -0.908174 0.809722) (xy -0.942542 0.792772) (xy -0.966894 0.781981) (xy -0.983688 0.77644)
    (xy -0.995383 0.775236) (xy -1.004438 0.777459) (xy -1.00825 0.779305) (xy -1.019936 0.786595)
    (xy -1.043775 0.802301) (xy -1.077981 0.825218) (xy -1.120774 0.854141) (xy -1.170367 0.887867)
    (xy -1.224979 0.925191) (xy -1.266846 0.953919) (xy -1.323624 0.99264) (xy -1.376458 1.028094)
    (xy -1.42362 1.059164) (xy -1.463382 1.084736) (xy -1.494016 1.103693) (xy -1.513793 1.114922)
    (xy -1.520478 1.1176) (xy -1.530131 1.111737) (xy -1.550421 1.094896) (xy -1.580142 1.068201)
    (xy -1.618087 1.032776) (xy -1.663049 0.989744) (xy -1.713822 0.94023) (xy -1.759174 0.89535)
    (xy -1.810085 0.844483) (xy -1.857354 0.79692) (xy -1.899592 0.754083) (xy -1.93541 0.717395)
    (xy -1.963419 0.688279) (xy -1.98223 0.668158) (xy -1.990455 0.658457) (xy -1.990557 0.658283)
    (xy -1.993182 0.653363) (xy -1.994636 0.648331) (xy -1.994095 0.641824) (xy -1.990731 0.632477)
    (xy -1.983718 0.618924) (xy -1.972231 0.599801) (xy -1.955444 0.573744) (xy -1.93253 0.539386)
    (xy -1.902663 0.495363) (xy -1.865017 0.440311) (xy -1.818767 0.372865) (xy -1.810603 0.360963)
    (xy -1.771399 0.303429) (xy -1.735438 0.249927) (xy -1.703815 0.202142) (xy -1.677628 0.161763)
    (xy -1.657972 0.130476) (xy -1.645943 0.109969) (xy -1.642533 0.10226) (xy -1.645555 0.091773)
    (xy -1.653999 0.067964) (xy -1.666932 0.033207) (xy -1.683424 -0.010122) (xy -1.702542 -0.059651)
    (xy -1.723353 -0.113004) (xy -1.744926 -0.167808) (xy -1.76633 -0.221688) (xy -1.786631 -0.27227)
    (xy -1.804898 -0.317181) (xy -1.820198 -0.354044) (xy -1.831601 -0.380487) (xy -1.834701 -0.387274)
    (xy -1.851579 -0.410282) (xy -1.878205 -0.422718) (xy -1.878412 -0.422773) (xy -1.892105 -0.42576)
    (xy -1.91955 -0.431271) (xy -1.958398 -0.438863) (xy -2.006301 -0.448096) (xy -2.060908 -0.458527)
    (xy -2.119872 -0.469714) (xy -2.180842 -0.481215) (xy -2.24147 -0.492588) (xy -2.299408 -0.503392)
    (xy -2.352305 -0.513183) (xy -2.397814 -0.521521) (xy -2.433584 -0.527963) (xy -2.457267 -0.532068)
    (xy -2.466395 -0.5334) (xy -2.47538 -0.538674) (xy -2.484362 -0.546705) (xy -2.487798 -0.551828)
    (xy -2.490598 -0.560714) (xy -2.492824 -0.574959) (xy -2.49454 -0.596162) (xy -2.495808 -0.625921)
    (xy -2.496691 -0.665832) (xy -2.497253 -0.717495) (xy -2.497556 -0.782506) (xy -2.497663 -0.862465)
    (xy -2.497667 -0.884335) (xy -2.497554 -0.970691) (xy -2.497186 -1.0415) (xy -2.496517 -1.098148)
    (xy -2.4955 -1.142017) (xy -2.49409 -1.174495) (xy -2.492241 -1.196965) (xy -2.489907 -1.210812)
    (xy -2.487042 -1.217421) (xy -2.486613 -1.217834) (xy -2.475978 -1.221442) (xy -2.450628 -1.227636)
    (xy -2.412514 -1.236011) (xy -2.363588 -1.246162) (xy -2.305801 -1.257682) (xy -2.241105 -1.270167)
    (xy -2.175463 -1.282471) (xy -2.105265 -1.295632) (xy -2.039462 -1.308325) (xy -1.980132 -1.320124)
    (xy -1.929352 -1.330599) (xy -1.889202 -1.339323) (xy -1.861758 -1.345869) (xy -1.849606 -1.34956)
    (xy -1.84173 -1.354085) (xy -1.833916 -1.361403) (xy -1.825293 -1.373221) (xy -1.814995 -1.391246)
    (xy -1.802153 -1.417186) (xy -1.785899 -1.452747) (xy -1.765365 -1.499637) (xy -1.739682 -1.559563)
    (xy -1.723721 -1.597109) (xy -1.694708 -1.665831) (xy -1.671925 -1.720755) (xy -1.654768 -1.763575)
    (xy -1.642628 -1.795985) (xy -1.634899 -1.81968) (xy -1.630974 -1.836352) (xy -1.630246 -1.847695)
    (xy -1.631606 -1.8542) (xy -1.638107 -1.865833) (xy -1.653115 -1.889706) (xy -1.675511 -1.924128)
    (xy -1.704176 -1.967408) (xy -1.737989 -2.017856) (xy -1.775829 -2.073782) (xy -1.816578 -2.133494)
    (xy -1.818874 -2.136844) (xy -1.85934 -2.196105) (xy -1.896611 -2.251141) (xy -1.929631 -2.300359)
    (xy -1.957346 -2.342164) (xy -1.978698 -2.374964) (xy -1.992633 -2.397165) (xy -1.998094 -2.407172)
    (xy -1.998133 -2.407423) (xy -1.992253 -2.416528) (xy -1.975685 -2.43569) (xy -1.950038 -2.463323)
    (xy -1.91692 -2.497841) (xy -1.877942 -2.537661) (xy -1.834711 -2.581196) (xy -1.788837 -2.626861)
    (xy -1.741929 -2.673072) (xy -1.695596 -2.718244) (xy -1.651446 -2.76079) (xy -1.611089 -2.799126)
    (xy -1.576134 -2.831667) (xy -1.548189 -2.856827) (xy -1.528864 -2.873022) (xy -1.519813 -2.878666)
    (xy -1.509149 -2.873997) (xy -1.486232 -2.86069) (xy -1.452694 -2.839802) (xy -1.410168 -2.812387)
    (xy -1.360288 -2.779499) (xy -1.304685 -2.742194) (xy -1.244994 -2.701525) (xy -1.235975 -2.695328)
    (xy -1.175721 -2.654111) (xy -1.119267 -2.615931) (xy -1.068259 -2.581867) (xy -1.024341 -2.553)
    (xy -0.989159 -2.530409) (xy -0.96436 -2.515176) (xy -0.951589 -2.508381) (xy -0.950859 -2.508165)
    (xy -0.937225 -2.510211) (xy -0.909697 -2.518497) (xy -0.869881 -2.53245) (xy -0.819384 -2.551494)
    (xy -0.759813 -2.575055) (xy -0.730726 -2.586876) (xy -0.659348 -2.616172) (xy -0.602077 -2.639919)
    (xy -0.55732 -2.658906) (xy -0.52348 -2.67392) (xy -0.498963 -2.68575) (xy -0.482174 -2.695184)
    (xy -0.471519 -2.703011) (xy -0.465401 -2.71002) (xy -0.462227 -2.716999) (xy -0.46141 -2.720019)
    (xy -0.458876 -2.732438) (xy -0.453636 -2.759539) (xy -0.446059 -2.799352) (xy -0.436519 -2.84991)
    (xy -0.425387 -2.909243) (xy -0.413033 -2.975382) (xy -0.39983 -3.046358) (xy -0.398867 -3.051548)
    (xy -0.383133 -3.135593) (xy -0.369926 -3.204357) (xy -0.358927 -3.259252) (xy -0.349815 -3.301689)
    (xy -0.342269 -3.333079) (xy -0.335971 -3.354835) (xy -0.3306 -3.368368) (xy -0.325836 -3.375089)
    (xy -0.325441 -3.375398) (xy -0.312688 -3.378583) (xy -0.285347 -3.381294) (xy -0.245754 -3.383531)
    (xy -0.196247 -3.385296) (xy -0.139164 -3.386588) (xy -0.076843 -3.387406) (xy -0.011621 -3.387752)
    (xy 0.054164 -3.387625)) (layer F.SilkS) (width 0.01))
  (fp_poly (pts (xy 2.044518 1.658713) (xy 2.055283 1.663393) (xy 2.079198 1.675357) (xy 2.095335 1.685019)
    (xy 2.099733 1.689336) (xy 2.094619 1.697782) (xy 2.081014 1.715649) (xy 2.061521 1.739563)
    (xy 2.054594 1.747791) (xy 2.009454 1.800999) (xy 1.976957 1.784327) (xy 1.934215 1.771147)
    (xy 1.891123 1.773923) (xy 1.850245 1.791929) (xy 1.814147 1.82444) (xy 1.808156 1.832042)
    (xy 1.802919 1.839904) (xy 1.798808 1.849206) (xy 1.79566 1.862032) (xy 1.793308 1.880469)
    (xy 1.791586 1.906599) (xy 1.790329 1.94251) (xy 1.789372 1.990286) (xy 1.788549 2.052012)
    (xy 1.788194 2.083402) (xy 1.785689 2.3114) (xy 1.659467 2.3114) (xy 1.659467 1.651)
    (xy 1.786467 1.651) (xy 1.786467 1.684867) (xy 1.787577 1.706083) (xy 1.790352 1.717875)
    (xy 1.791471 1.718734) (xy 1.800224 1.713678) (xy 1.817148 1.700743) (xy 1.829506 1.69046)
    (xy 1.877232 1.660272) (xy 1.931052 1.64467) (xy 1.987851 1.644026) (xy 2.044518 1.658713)) (layer F.SilkS) (width 0.01))
  (fp_poly (pts (xy -0.910451 1.644529) (xy -0.852978 1.661469) (xy -0.850017 1.662822) (xy -0.803563 1.690452)
    (xy -0.768085 1.726482) (xy -0.740056 1.773767) (xy -0.734237 1.786395) (xy -0.729657 1.798536)
    (xy -0.726165 1.812317) (xy -0.723614 1.829862) (xy -0.721854 1.853295) (xy -0.720738 1.884743)
    (xy -0.720115 1.92633) (xy -0.719837 1.980182) (xy -0.719755 2.048423) (xy -0.71975 2.06375)
    (xy -0.719667 2.3114) (xy -0.846667 2.3114) (xy -0.846667 2.097294) (xy -0.84673 2.031277)
    (xy -0.847035 1.979891) (xy -0.847757 1.940832) (xy -0.84907 1.911798) (xy -0.851148 1.890486)
    (xy -0.854167 1.874594) (xy -0.8583 1.861818) (xy -0.863723 1.849856) (xy -0.865717 1.845906)
    (xy -0.889703 1.808687) (xy -0.917993 1.785975) (xy -0.954495 1.775349) (xy -0.982133 1.773767)
    (xy -1.024152 1.777985) (xy -1.057116 1.792459) (xy -1.086359 1.81992) (xy -1.09591 1.832042)
    (xy -1.101148 1.839904) (xy -1.105258 1.849206) (xy -1.108407 1.862032) (xy -1.110759 1.880469)
    (xy -1.112481 1.906599) (xy -1.113737 1.94251) (xy -1.114694 1.990286) (xy -1.115518 2.052012)
    (xy -1.115872 2.083402) (xy -1.118378 2.3114) (xy -1.2446 2.3114) (xy -1.2446 1.651)
    (xy -1.1176 1.651) (xy -1.1176 1.718622) (xy -1.079301 1.689387) (xy -1.026245 1.658793)
    (xy -0.969085 1.643739) (xy -0.910451 1.644529)) (layer F.SilkS) (width 0.01))
  (fp_poly (pts (xy 3.009594 1.649905) (xy 3.067987 1.670214) (xy 3.121781 1.703838) (xy 3.149303 1.728924)
    (xy 3.178266 1.765676) (xy 3.199282 1.808706) (xy 3.213415 1.861115) (xy 3.221728 1.926005)
    (xy 3.222973 1.943737) (xy 3.228373 2.032) (xy 2.800582 2.032) (xy 2.806464 2.063356)
    (xy 2.823379 2.114839) (xy 2.851391 2.154931) (xy 2.888453 2.182911) (xy 2.932514 2.198059)
    (xy 2.981525 2.199654) (xy 3.033437 2.186976) (xy 3.083867 2.160863) (xy 3.115501 2.13997)
    (xy 3.161351 2.177002) (xy 3.207202 2.214034) (xy 3.181678 2.240823) (xy 3.137721 2.27534)
    (xy 3.08206 2.300202) (xy 3.017608 2.314309) (xy 2.980267 2.317063) (xy 2.943564 2.317155)
    (xy 2.910396 2.315748) (xy 2.8867 2.313133) (xy 2.8829 2.312311) (xy 2.822151 2.288083)
    (xy 2.770015 2.25007) (xy 2.728769 2.200157) (xy 2.713116 2.1717) (xy 2.692276 2.11211)
    (xy 2.68071 2.044521) (xy 2.678156 1.973017) (xy 2.68259 1.921934) (xy 2.801699 1.921934)
    (xy 3.092563 1.921934) (xy 3.088052 1.888305) (xy 3.074743 1.843198) (xy 3.049393 1.805484)
    (xy 3.014767 1.779131) (xy 3.010708 1.777186) (xy 2.962142 1.763045) (xy 2.916506 1.764649)
    (xy 2.8759 1.780831) (xy 2.842422 1.810425) (xy 2.818173 1.852263) (xy 2.807448 1.890184)
    (xy 2.801699 1.921934) (xy 2.68259 1.921934) (xy 2.684348 1.901683) (xy 2.699023 1.834605)
    (xy 2.721917 1.775868) (xy 2.740733 1.744577) (xy 2.782655 1.699817) (xy 2.833133 1.667868)
    (xy 2.889536 1.648833) (xy 2.949234 1.642812) (xy 3.009594 1.649905)) (layer F.SilkS) (width 0.01))
  (fp_poly (pts (xy 2.442753 1.646523) (xy 2.504484 1.66282) (xy 2.561934 1.694311) (xy 2.604499 1.729121)
    (xy 2.630898 1.753755) (xy 2.539626 1.840077) (xy 2.51653 1.817954) (xy 2.475112 1.78846)
    (xy 2.429384 1.772812) (xy 2.38234 1.770307) (xy 2.336973 1.780245) (xy 2.296277 1.801925)
    (xy 2.263248 1.834644) (xy 2.240878 1.877702) (xy 2.239234 1.882912) (xy 2.229017 1.934144)
    (xy 2.226715 1.98834) (xy 2.231758 2.041361) (xy 2.243576 2.089067) (xy 2.261598 2.127321)
    (xy 2.275217 2.144076) (xy 2.317743 2.173891) (xy 2.365911 2.189536) (xy 2.416177 2.191005)
    (xy 2.464994 2.178292) (xy 2.508817 2.151394) (xy 2.51653 2.144446) (xy 2.539626 2.122324)
    (xy 2.585236 2.16546) (xy 2.630847 2.208596) (xy 2.60024 2.23826) (xy 2.549442 2.27791)
    (xy 2.492388 2.303466) (xy 2.426458 2.31599) (xy 2.404533 2.317365) (xy 2.361339 2.317743)
    (xy 2.32889 2.314603) (xy 2.301233 2.307235) (xy 2.292885 2.304057) (xy 2.229817 2.272348)
    (xy 2.180012 2.232846) (xy 2.142733 2.184309) (xy 2.117241 2.125494) (xy 2.102798 2.055156)
    (xy 2.098637 1.976967) (xy 2.105255 1.895031) (xy 2.124248 1.823418) (xy 2.155054 1.762804)
    (xy 2.197115 1.713866) (xy 2.249868 1.677281) (xy 2.312753 1.653727) (xy 2.374063 1.644436)
    (xy 2.442753 1.646523)) (layer F.SilkS) (width 0.01))
  (fp_poly (pts (xy 1.102271 1.87325) (xy 1.103158 1.941045) (xy 1.104138 1.994073) (xy 1.105378 2.034503)
    (xy 1.107048 2.0645) (xy 1.109316 2.086233) (xy 1.112353 2.101868) (xy 1.116325 2.113573)
    (xy 1.121403 2.123513) (xy 1.121833 2.124248) (xy 1.152434 2.161475) (xy 1.190805 2.184169)
    (xy 1.235043 2.191699) (xy 1.283249 2.183433) (xy 1.291304 2.180564) (xy 1.322333 2.164061)
    (xy 1.344878 2.139057) (xy 1.350502 2.130013) (xy 1.356872 2.118798) (xy 1.36181 2.108059)
    (xy 1.365499 2.095572) (xy 1.368121 2.079113) (xy 1.369858 2.056459) (xy 1.370892 2.025386)
    (xy 1.371405 1.983671) (xy 1.371581 1.929088) (xy 1.3716 1.872506) (xy 1.3716 1.651)
    (xy 1.507067 1.651) (xy 1.507067 2.3114) (xy 1.3716 2.3114) (xy 1.3716 2.240499)
    (xy 1.348317 2.26275) (xy 1.303499 2.29443) (xy 1.250734 2.313611) (xy 1.194156 2.319664)
    (xy 1.137898 2.311956) (xy 1.1049 2.299946) (xy 1.073106 2.28104) (xy 1.04203 2.256266)
    (xy 1.031294 2.2455) (xy 1.015737 2.227007) (xy 1.003237 2.208311) (xy 0.993466 2.18736)
    (xy 0.986093 2.1621) (xy 0.980789 2.130479) (xy 0.977224 2.090443) (xy 0.975069 2.039939)
    (xy 0.973995 1.976914) (xy 0.973671 1.899315) (xy 0.973666 1.88653) (xy 0.973666 1.651)
    (xy 1.099641 1.651) (xy 1.102271 1.87325)) (layer F.SilkS) (width 0.01))
  (fp_poly (pts (xy 0.666352 1.655506) (xy 0.720484 1.679116) (xy 0.767846 1.714142) (xy 0.805861 1.760183)
    (xy 0.822189 1.790815) (xy 0.834112 1.829294) (xy 0.842468 1.879808) (xy 0.847215 1.937829)
    (xy 0.848312 1.99883) (xy 0.845717 2.058282) (xy 0.839388 2.111658) (xy 0.829282 2.154431)
    (xy 0.825644 2.164195) (xy 0.795987 2.215126) (xy 0.754141 2.259262) (xy 0.705672 2.291238)
    (xy 0.654276 2.308998) (xy 0.595158 2.317719) (xy 0.535173 2.316972) (xy 0.481179 2.306332)
    (xy 0.478366 2.305399) (xy 0.437846 2.285055) (xy 0.395288 2.250374) (xy 0.388706 2.243958)
    (xy 0.361114 2.214251) (xy 0.34057 2.185456) (xy 0.326093 2.154337) (xy 0.316702 2.117657)
    (xy 0.311415 2.072181) (xy 0.309251 2.014671) (xy 0.309033 1.9812) (xy 0.309506 1.95164)
    (xy 0.432568 1.95164) (xy 0.432861 1.996719) (xy 0.435953 2.041144) (xy 0.441458 2.07995)
    (xy 0.448987 2.108173) (xy 0.451272 2.11325) (xy 0.480245 2.152566) (xy 0.51784 2.178977)
    (xy 0.560988 2.19154) (xy 0.60662 2.189311) (xy 0.6477 2.173643) (xy 0.675593 2.153958)
    (xy 0.695725 2.129041) (xy 0.709097 2.096211) (xy 0.716713 2.052785) (xy 0.719575 1.996082)
    (xy 0.719666 1.9812) (xy 0.717884 1.921745) (xy 0.711822 1.876195) (xy 0.700406 1.841829)
    (xy 0.682562 1.815923) (xy 0.657216 1.795758) (xy 0.643466 1.78803) (xy 0.597214 1.772413)
    (xy 0.552695 1.772397) (xy 0.51215 1.78666) (xy 0.477822 1.813877) (xy 0.451951 1.852724)
    (xy 0.43678 1.901879) (xy 0.435462 1.910872) (xy 0.432568 1.95164) (xy 0.309506 1.95164)
    (xy 0.310069 1.916525) (xy 0.313801 1.865467) (xy 0.321167 1.824804) (xy 0.333106 1.791311)
    (xy 0.350555 1.761764) (xy 0.374452 1.732941) (xy 0.384243 1.722702) (xy 0.433607 1.683228)
    (xy 0.489075 1.657172) (xy 0.548072 1.644133) (xy 0.608022 1.643711) (xy 0.666352 1.655506)) (layer F.SilkS) (width 0.01))
  (fp_poly (pts (xy 0.011755 1.647072) (xy 0.086798 1.6644) (xy 0.155797 1.69682) (xy 0.1636 1.701653)
    (xy 0.204434 1.72761) (xy 0.169183 1.769713) (xy 0.149984 1.792079) (xy 0.134691 1.80887)
    (xy 0.127164 1.815999) (xy 0.116485 1.814623) (xy 0.096739 1.806479) (xy 0.083481 1.799579)
    (xy 0.036128 1.778405) (xy -0.011646 1.766306) (xy -0.057314 1.762887) (xy -0.098347 1.767755)
    (xy -0.132219 1.780513) (xy -0.156401 1.800769) (xy -0.168368 1.828128) (xy -0.169204 1.838999)
    (xy -0.167071 1.861555) (xy -0.15947 1.878762) (xy -0.144238 1.891708) (xy -0.119214 1.901484)
    (xy -0.082235 1.909177) (xy -0.03114 1.915878) (xy -0.012703 1.917861) (xy 0.054123 1.927228)
    (xy 0.106425 1.940606) (xy 0.146393 1.959272) (xy 0.176214 1.984504) (xy 0.198078 2.017577)
    (xy 0.210497 2.04808) (xy 0.221117 2.103978) (xy 0.215694 2.157346) (xy 0.195107 2.206342)
    (xy 0.160232 2.249122) (xy 0.111946 2.283844) (xy 0.093954 2.292885) (xy 0.04868 2.307551)
    (xy -0.006444 2.316291) (xy -0.065306 2.318836) (xy -0.121798 2.314919) (xy -0.169333 2.304431)
    (xy -0.243209 2.274256) (xy -0.304223 2.237091) (xy -0.314877 2.228903) (xy -0.346121 2.203988)
    (xy -0.301136 2.159563) (xy -0.256151 2.115137) (xy -0.216634 2.145301) (xy -0.174049 2.172226)
    (xy -0.128566 2.188619) (xy -0.075032 2.196044) (xy -0.046567 2.196876) (xy 0.002234 2.193744)
    (xy 0.038752 2.183049) (xy 0.066444 2.163479) (xy 0.078451 2.149431) (xy 0.089681 2.121746)
    (xy 0.087205 2.092481) (xy 0.072018 2.067642) (xy 0.063809 2.061058) (xy 0.04724 2.054857)
    (xy 0.01731 2.048132) (xy -0.022451 2.04157) (xy -0.061466 2.036621) (xy -0.124672 2.028077)
    (xy -0.171557 2.01828) (xy -0.200896 2.007775) (xy -0.24496 1.97693) (xy -0.276377 1.937643)
    (xy -0.295246 1.892622) (xy -0.301663 1.844577) (xy -0.295728 1.796216) (xy -0.277537 1.750246)
    (xy -0.247189 1.709377) (xy -0.204781 1.676316) (xy -0.188615 1.667798) (xy -0.156749 1.656032)
    (xy -0.117892 1.648529) (xy -0.070774 1.644485) (xy 0.011755 1.647072)) (layer F.SilkS) (width 0.01))
  (fp_poly (pts (xy -1.592304 1.647482) (xy -1.532423 1.665141) (xy -1.477383 1.698362) (xy -1.457826 1.714706)
    (xy -1.425723 1.747828) (xy -1.402598 1.782988) (xy -1.387066 1.823828) (xy -1.377739 1.873986)
    (xy -1.373244 1.93675) (xy -1.369773 2.032) (xy -1.786467 2.032) (xy -1.786281 2.055284)
    (xy -1.782621 2.07778) (xy -1.773727 2.105282) (xy -1.770411 2.113099) (xy -1.743705 2.153674)
    (xy -1.70748 2.181669) (xy -1.663843 2.196813) (xy -1.614901 2.198838) (xy -1.562761 2.187475)
    (xy -1.509531 2.162454) (xy -1.489082 2.149043) (xy -1.479265 2.145573) (xy -1.466476 2.149782)
    (xy -1.447192 2.16332) (xy -1.431932 2.175857) (xy -1.409965 2.195304) (xy -1.394355 2.210888)
    (xy -1.388534 2.219126) (xy -1.395476 2.229126) (xy -1.413727 2.244184) (xy -1.439423 2.261842)
    (xy -1.468698 2.27964) (xy -1.497689 2.295119) (xy -1.52253 2.305821) (xy -1.527109 2.307306)
    (xy -1.577777 2.316915) (xy -1.63473 2.319097) (xy -1.690483 2.313995) (xy -1.733399 2.303312)
    (xy -1.792 2.275002) (xy -1.838654 2.236218) (xy -1.873722 2.186324) (xy -1.897565 2.124685)
    (xy -1.910544 2.050665) (xy -1.913366 1.986658) (xy -1.907718 1.899662) (xy -1.90732 1.897865)
    (xy -1.786467 1.897865) (xy -1.786467 1.921934) (xy -1.642533 1.921934) (xy -1.587034 1.921627)
    (xy -1.546682 1.92062) (xy -1.519701 1.918781) (xy -1.504314 1.915981) (xy -1.498746 1.912088)
    (xy -1.498647 1.91135) (xy -1.503844 1.881062) (xy -1.516976 1.846527) (xy -1.534694 1.816127)
    (xy -1.538747 1.810979) (xy -1.574899 1.779886) (xy -1.616883 1.76405) (xy -1.662392 1.763881)
    (xy -1.709117 1.779785) (xy -1.710605 1.780563) (xy -1.742329 1.804812) (xy -1.767812 1.838218)
    (xy -1.783389 1.875114) (xy -1.786467 1.897865) (xy -1.90732 1.897865) (xy -1.891129 1.824893)
    (xy -1.863804 1.762629) (xy -1.825949 1.713146) (xy -1.777768 1.676722) (xy -1.719469 1.653632)
    (xy -1.659467 1.644536) (xy -1.592304 1.647482)) (layer F.SilkS) (width 0.01))
  (fp_poly (pts (xy -2.884294 1.648315) (xy -2.826566 1.666931) (xy -2.773504 1.698683) (xy -2.746443 1.722702)
    (xy -2.720133 1.752016) (xy -2.70059 1.780954) (xy -2.686878 1.812738) (xy -2.678058 1.850594)
    (xy -2.673192 1.897745) (xy -2.671342 1.957415) (xy -2.671233 1.9812) (xy -2.672269 2.045876)
    (xy -2.676001 2.096933) (xy -2.683367 2.137597) (xy -2.695306 2.17109) (xy -2.712755 2.200636)
    (xy -2.736652 2.229459) (xy -2.746443 2.239698) (xy -2.797531 2.280102) (xy -2.85667 2.306991)
    (xy -2.920797 2.319627) (xy -2.986849 2.317271) (xy -3.028322 2.307679) (xy -3.08743 2.280823)
    (xy -3.137075 2.241047) (xy -3.175036 2.190348) (xy -3.187875 2.164122) (xy -3.199635 2.12361)
    (xy -3.207306 2.071309) (xy -3.210934 2.011835) (xy -3.21069 1.970714) (xy -3.082671 1.970714)
    (xy -3.081756 2.020522) (xy -3.077462 2.066165) (xy -3.06978 2.102472) (xy -3.065734 2.113271)
    (xy -3.0402 2.150859) (xy -3.003891 2.179774) (xy -2.988734 2.187213) (xy -2.964701 2.191322)
    (xy -2.932277 2.189969) (xy -2.898727 2.184141) (xy -2.871318 2.174826) (xy -2.863499 2.170196)
    (xy -2.830368 2.13773) (xy -2.809037 2.096888) (xy -2.797912 2.044592) (xy -2.797766 2.043253)
    (xy -2.795107 1.99725) (xy -2.796127 1.949251) (xy -2.800397 1.904193) (xy -2.807485 1.867014)
    (xy -2.814982 1.84609) (xy -2.841991 1.809904) (xy -2.877258 1.785541) (xy -2.917466 1.772976)
    (xy -2.959298 1.772182) (xy -2.999436 1.783135) (xy -3.034563 1.805808) (xy -3.061363 1.840176)
    (xy -3.06524 1.848025) (xy -3.074403 1.879294) (xy -3.080217 1.921914) (xy -3.082671 1.970714)
    (xy -3.21069 1.970714) (xy -3.210565 1.949803) (xy -3.206245 1.889831) (xy -3.198022 1.836533)
    (xy -3.185941 1.794527) (xy -3.184113 1.790189) (xy -3.152591 1.738347) (xy -3.110249 1.697252)
    (xy -3.059667 1.667304) (xy -3.003426 1.6489) (xy -2.944108 1.642437) (xy -2.884294 1.648315)) (layer F.SilkS) (width 0.01))
  (fp_poly (pts (xy 1.826958 2.703791) (xy 1.853591 2.711251) (xy 1.882221 2.721283) (xy 1.907439 2.731919)
    (xy 1.923835 2.741194) (xy 1.926731 2.744114) (xy 1.926446 2.752995) (xy 1.917695 2.769055)
    (xy 1.899418 2.793863) (xy 1.870554 2.828991) (xy 1.865045 2.835484) (xy 1.84054 2.864269)
    (xy 1.816738 2.848673) (xy 1.780399 2.834288) (xy 1.739805 2.833202) (xy 1.699457 2.844222)
    (xy 1.663857 2.866154) (xy 1.638599 2.8959) (xy 1.633393 2.905795) (xy 1.629305 2.917092)
    (xy 1.62617 2.931941) (xy 1.623821 2.952488) (xy 1.622091 2.980884) (xy 1.620812 3.019276)
    (xy 1.61982 3.069812) (xy 1.618946 3.134641) (xy 1.618745 3.151717) (xy 1.616123 3.3782)
    (xy 1.490133 3.3782) (xy 1.490133 2.709334) (xy 1.617133 2.709334) (xy 1.617133 2.7432)
    (xy 1.618057 2.764418) (xy 1.620364 2.776209) (xy 1.621293 2.777067) (xy 1.629754 2.772344)
    (xy 1.64723 2.760158) (xy 1.66325 2.748216) (xy 1.705248 2.724137) (xy 1.755338 2.707467)
    (xy 1.805353 2.700883) (xy 1.807732 2.700867) (xy 1.826958 2.703791)) (layer F.SilkS) (width 0.01))
  (fp_poly (pts (xy -0.090337 2.711121) (xy -0.021457 2.713567) (xy 0.041394 2.944284) (xy 0.057795 3.003814)
    (xy 0.072978 3.057646) (xy 0.086335 3.10372) (xy 0.097255 3.139972) (xy 0.105128 3.16434)
    (xy 0.109344 3.174763) (xy 0.109654 3.175) (xy 0.113533 3.167266) (xy 0.121844 3.145406)
    (xy 0.133893 3.11143) (xy 0.148981 3.067349) (xy 0.166414 3.015174) (xy 0.185495 2.956917)
    (xy 0.19027 2.942167) (xy 0.265476 2.709334) (xy 0.361386 2.709334) (xy 0.371898 2.745317)
    (xy 0.382658 2.781061) (xy 0.396321 2.8248) (xy 0.412071 2.874088) (xy 0.429093 2.926482)
    (xy 0.446571 2.979536) (xy 0.46369 3.030806) (xy 0.479634 3.077847) (xy 0.493588 3.118214)
    (xy 0.504735 3.149462) (xy 0.512262 3.169148) (xy 0.515228 3.174966) (xy 0.518752 3.167115)
    (xy 0.526009 3.14495) (xy 0.536395 3.110526) (xy 0.549307 3.065898) (xy 0.564142 3.01312)
    (xy 0.580297 2.954249) (xy 0.583577 2.942132) (xy 0.646454 2.709334) (xy 0.712694 2.709334)
    (xy 0.743801 2.710081) (xy 0.767131 2.712063) (xy 0.778615 2.714893) (xy 0.779158 2.715684)
    (xy 0.776729 2.724879) (xy 0.769701 2.748471) (xy 0.758612 2.784721) (xy 0.744003 2.831893)
    (xy 0.726411 2.888246) (xy 0.706378 2.952045) (xy 0.684441 3.02155) (xy 0.675442 3.049971)
    (xy 0.5715 3.377908) (xy 0.514713 3.378054) (xy 0.457927 3.3782) (xy 0.432683 3.29565)
    (xy 0.42156 3.259018) (xy 0.407089 3.210978) (xy 0.39072 3.156361) (xy 0.3739 3.1)
    (xy 0.363477 3.064934) (xy 0.34916 3.017339) (xy 0.33617 2.975392) (xy 0.325372 2.941787)
    (xy 0.317631 2.91922) (xy 0.31392 2.910486) (xy 0.311006 2.913631) (xy 0.305327 2.9272)
    (xy 0.296644 2.951961) (xy 0.284715 2.988682) (xy 0.2693 3.038133) (xy 0.250158 3.10108)
    (xy 0.227047 3.178294) (xy 0.199727 3.270541) (xy 0.179875 3.337983) (xy 0.168059 3.3782)
    (xy 0.054057 3.3782) (xy -0.01129 3.172883) (xy -0.032119 3.107453) (xy -0.054 3.038741)
    (xy -0.075537 2.971124) (xy -0.095338 2.908981) (xy -0.112006 2.856691) (xy -0.117928 2.838121)
    (xy -0.159218 2.708675) (xy -0.090337 2.711121)) (layer F.SilkS) (width 0.01))
  (fp_poly (pts (xy -0.869586 2.708467) (xy -0.823383 2.724527) (xy -0.802299 2.737438) (xy -0.789349 2.748776)
    (xy -0.7874 2.752806) (xy -0.792617 2.763234) (xy -0.806428 2.782445) (xy -0.826071 2.806659)
    (xy -0.830442 2.811751) (xy -0.873484 2.861435) (xy -0.900292 2.84742) (xy -0.934771 2.836692)
    (xy -0.974979 2.834739) (xy -1.013038 2.841444) (xy -1.031267 2.849396) (xy -1.052202 2.866897)
    (xy -1.071415 2.890921) (xy -1.074469 2.89599) (xy -1.079811 2.906337) (xy -1.083959 2.917516)
    (xy -1.087063 2.931704) (xy -1.089275 2.951078) (xy -1.090743 2.977814) (xy -1.091619 3.014089)
    (xy -1.092051 3.06208) (xy -1.092192 3.123964) (xy -1.0922 3.15287) (xy -1.0922 3.3782)
    (xy -1.227667 3.3782) (xy -1.227667 2.709334) (xy -1.0922 2.709334) (xy -1.0922 2.780019)
    (xy -1.07315 2.762393) (xy -1.029423 2.732098) (xy -0.977886 2.712551) (xy -0.92309 2.704445)
    (xy -0.869586 2.708467)) (layer F.SilkS) (width 0.01))
  (fp_poly (pts (xy -2.180741 1.65023) (xy -2.145829 1.662631) (xy -2.104783 1.688596) (xy -2.068184 1.724249)
    (xy -2.040621 1.76454) (xy -2.029896 1.790251) (xy -2.025706 1.813778) (xy -2.022575 1.850546)
    (xy -2.020495 1.896893) (xy -2.019458 1.949161) (xy -2.019456 2.003688) (xy -2.020484 2.056815)
    (xy -2.022532 2.104882) (xy -2.025595 2.144229) (xy -2.029664 2.171196) (xy -2.030668 2.175019)
    (xy -2.046984 2.208698) (xy -2.07411 2.243889) (xy -2.107394 2.275906) (xy -2.142183 2.30006)
    (xy -2.164216 2.30957) (xy -2.223647 2.31905) (xy -2.283545 2.313897) (xy -2.339882 2.295007)
    (xy -2.388635 2.263273) (xy -2.39395 2.258491) (xy -2.413 2.240715) (xy -2.413 2.780019)
    (xy -2.39395 2.762393) (xy -2.350732 2.732431) (xy -2.299665 2.712896) (xy -2.245343 2.704499)
    (xy -2.192358 2.707948) (xy -2.145314 2.72395) (xy -2.098785 2.753197) (xy -2.064785 2.786338)
    (xy -2.04029 2.82487) (xy -2.034341 2.8369) (xy -2.029615 2.848459) (xy -2.025948 2.861615)
    (xy -2.023175 2.878437) (xy -2.021132 2.900991) (xy -2.019654 2.931345) (xy -2.018577 2.971568)
    (xy -2.017735 3.023726) (xy -2.016964 3.089887) (xy -2.016625 3.122083) (xy -2.01395 3.3782)
    (xy -2.140838 3.3782) (xy -2.143569 3.151717) (xy -2.144452 3.083614) (xy -2.145382 3.030293)
    (xy -2.146537 2.989603) (xy -2.148094 2.959392) (xy -2.150233 2.937509) (xy -2.15313 2.921803)
    (xy -2.156964 2.910123) (xy -2.161914 2.900317) (xy -2.164765 2.8956) (xy -2.195196 2.86062)
    (xy -2.234262 2.84) (xy -2.282664 2.833377) (xy -2.284542 2.833395) (xy -2.325065 2.838615)
    (xy -2.357512 2.854799) (xy -2.386903 2.884623) (xy -2.39131 2.890375) (xy -2.396504 2.898163)
    (xy -2.40059 2.907372) (xy -2.403728 2.920064) (xy -2.406079 2.938302) (xy -2.407806 2.964148)
    (xy -2.409068 2.999664) (xy -2.410027 3.046912) (xy -2.410843 3.107955) (xy -2.411266 3.145969)
    (xy -2.413766 3.3782) (xy -2.548467 3.3782) (xy -2.548467 1.985434) (xy -2.408767 1.985434)
    (xy -2.408572 2.033167) (xy -2.407683 2.067384) (xy -2.40564 2.091499) (xy -2.401983 2.108926)
    (xy -2.396256 2.12308) (xy -2.388443 2.136661) (xy -2.369718 2.159953) (xy -2.347936 2.177962)
    (xy -2.341876 2.181249) (xy -2.309983 2.189317) (xy -2.271732 2.190057) (xy -2.234353 2.184032)
    (xy -2.205079 2.171806) (xy -2.203099 2.170428) (xy -2.180966 2.150597) (xy -2.165104 2.126512)
    (xy -2.154641 2.095257) (xy -2.1487 2.053921) (xy -2.146407 1.99959) (xy -2.1463 1.9812)
    (xy -2.147713 1.922553) (xy -2.152532 1.877747) (xy -2.161622 1.843879) (xy -2.175853 1.818048)
    (xy -2.196092 1.797353) (xy -2.202819 1.792181) (xy -2.237077 1.776418) (xy -2.27833 1.771066)
    (xy -2.319964 1.776459) (xy -2.342609 1.785111) (xy -2.366095 1.799457) (xy -2.383435 1.816855)
    (xy -2.395497 1.83994) (xy -2.403151 1.871346) (xy -2.407269 1.913708) (xy -2.408719 1.969661)
    (xy -2.408767 1.985434) (xy -2.548467 1.985434) (xy -2.548467 1.651) (xy -2.413 1.651)
    (xy -2.413 1.721902) (xy -2.389717 1.699695) (xy -2.34549 1.668608) (xy -2.293044 1.649565)
    (xy -2.23669 1.643221) (xy -2.180741 1.65023)) (layer F.SilkS) (width 0.01))
  (fp_poly (pts (xy 2.264256 2.707564) (xy 2.274407 2.70949) (xy 2.319434 2.721019) (xy 2.354823 2.736476)
    (xy 2.387868 2.759496) (xy 2.405697 2.774892) (xy 2.44017 2.814083) (xy 2.465974 2.86236)
    (xy 2.48368 2.921474) (xy 2.493859 2.993179) (xy 2.496864 3.05435) (xy 2.497545 3.090334)
    (xy 2.285939 3.090334) (xy 2.219022 3.090265) (xy 2.167266 3.090417) (xy 2.128898 3.09133)
    (xy 2.102149 3.09354) (xy 2.085248 3.097587) (xy 2.076425 3.104009) (xy 2.073908 3.113345)
    (xy 2.075928 3.126132) (xy 2.080713 3.142909) (xy 2.083309 3.151948) (xy 2.100233 3.188901)
    (xy 2.127173 3.221956) (xy 2.159303 3.245749) (xy 2.17302 3.251636) (xy 2.220941 3.259559)
    (xy 2.27317 3.25506) (xy 2.323521 3.239007) (xy 2.345253 3.227424) (xy 2.388705 3.200413)
    (xy 2.430482 3.23639) (xy 2.451884 3.25563) (xy 2.466952 3.270718) (xy 2.472262 3.278057)
    (xy 2.466347 3.286266) (xy 2.451112 3.301374) (xy 2.436955 3.313973) (xy 2.383365 3.348995)
    (xy 2.320301 3.371464) (xy 2.25031 3.380749) (xy 2.181749 3.377073) (xy 2.117795 3.360427)
    (xy 2.063202 3.33008) (xy 2.01849 3.286769) (xy 1.984182 3.231236) (xy 1.960795 3.16422)
    (xy 1.948851 3.086461) (xy 1.947333 3.043767) (xy 1.951488 2.988734) (xy 2.072169 2.988734)
    (xy 2.3622 2.988734) (xy 2.3622 2.965127) (xy 2.356642 2.936735) (xy 2.342394 2.903659)
    (xy 2.323095 2.872826) (xy 2.302383 2.85116) (xy 2.302278 2.851084) (xy 2.262456 2.831815)
    (xy 2.217461 2.825558) (xy 2.172682 2.832302) (xy 2.134255 2.851473) (xy 2.103204 2.884893)
    (xy 2.083032 2.929694) (xy 2.077916 2.952793) (xy 2.072169 2.988734) (xy 1.951488 2.988734)
    (xy 1.953443 2.962848) (xy 1.971112 2.891012) (xy 1.999346 2.829274) (xy 2.037152 2.778649)
    (xy 2.08354 2.740151) (xy 2.137515 2.714794) (xy 2.198084 2.703594) (xy 2.264256 2.707564)) (layer F.SilkS) (width 0.01))
  (fp_poly (pts (xy 1.134078 2.706962) (xy 1.200518 2.723192) (xy 1.253305 2.749305) (xy 1.292675 2.785498)
    (xy 1.318863 2.831966) (xy 1.329207 2.869239) (xy 1.331487 2.889904) (xy 1.333537 2.924728)
    (xy 1.335272 2.970938) (xy 1.336607 3.025761) (xy 1.337455 3.086424) (xy 1.337733 3.146522)
    (xy 1.337733 3.3782) (xy 1.210733 3.3782) (xy 1.210733 3.348567) (xy 1.208774 3.3268)
    (xy 1.201811 3.320347) (xy 1.188215 3.328784) (xy 1.177097 3.339854) (xy 1.146859 3.361015)
    (xy 1.104412 3.375129) (xy 1.053244 3.381499) (xy 0.996847 3.379424) (xy 0.986188 3.378069)
    (xy 0.930243 3.363118) (xy 0.881307 3.336269) (xy 0.842259 3.299705) (xy 0.815978 3.25561)
    (xy 0.812635 3.246468) (xy 0.806944 3.216192) (xy 0.805666 3.177384) (xy 0.806412 3.163405)
    (xy 0.925085 3.163405) (xy 0.928021 3.194239) (xy 0.944744 3.223171) (xy 0.964335 3.240332)
    (xy 0.993161 3.252401) (xy 1.032331 3.259373) (xy 1.076016 3.261173) (xy 1.118388 3.257724)
    (xy 1.153619 3.248951) (xy 1.166056 3.242964) (xy 1.183172 3.230208) (xy 1.194132 3.214446)
    (xy 1.200499 3.191552) (xy 1.203836 3.157399) (xy 1.204614 3.141133) (xy 1.2065 3.094567)
    (xy 1.112721 3.092187) (xy 1.054012 3.092272) (xy 1.00936 3.096317) (xy 0.976222 3.104937)
    (xy 0.952055 3.118744) (xy 0.936959 3.134622) (xy 0.925085 3.163405) (xy 0.806412 3.163405)
    (xy 0.806551 3.160817) (xy 0.817227 3.106759) (xy 0.840492 3.063204) (xy 0.877653 3.028023)
    (xy 0.89516 3.016718) (xy 0.911197 3.007755) (xy 0.926177 3.001264) (xy 0.943331 2.996731)
    (xy 0.965892 2.99364) (xy 0.99709 2.991479) (xy 1.040155 2.989733) (xy 1.071033 2.988734)
    (xy 1.2065 2.9845) (xy 1.209094 2.953312) (xy 1.207529 2.906409) (xy 1.194669 2.869818)
    (xy 1.171128 2.845054) (xy 1.163356 2.84075) (xy 1.131687 2.830644) (xy 1.093618 2.825815)
    (xy 1.053099 2.825848) (xy 1.014083 2.830324) (xy 0.98052 2.838827) (xy 0.956363 2.85094)
    (xy 0.946204 2.863672) (xy 0.939355 2.866605) (xy 0.923225 2.859748) (xy 0.896797 2.84252)
    (xy 0.859054 2.814341) (xy 0.85716 2.812873) (xy 0.844328 2.800959) (xy 0.844214 2.79041)
    (xy 0.8512 2.779207) (xy 0.879352 2.752141) (xy 0.920522 2.730079) (xy 0.971308 2.713893)
    (xy 1.028308 2.70445) (xy 1.08812 2.702619) (xy 1.134078 2.706962)) (layer F.SilkS) (width 0.01))
  (fp_poly (pts (xy -0.237067 3.3782) (xy -0.364067 3.3782) (xy -0.364067 3.344333) (xy -0.365023 3.323116)
    (xy -0.367411 3.311324) (xy -0.368373 3.310467) (xy -0.377127 3.315017) (xy -0.394724 3.326636)
    (xy -0.407142 3.335431) (xy -0.462544 3.366012) (xy -0.521706 3.380093) (xy -0.584999 3.377761)
    (xy -0.585022 3.377757) (xy -0.6305 3.366131) (xy -0.668143 3.34549) (xy -0.703891 3.312439)
    (xy -0.708611 3.307165) (xy -0.728219 3.282614) (xy -0.742684 3.257806) (xy -0.752951 3.229339)
    (xy -0.759967 3.193814) (xy -0.764676 3.14783) (xy -0.767729 3.094567) (xy -0.768888 3.039783)
    (xy -0.637195 3.039783) (xy -0.636052 3.096795) (xy -0.632144 3.140017) (xy -0.624754 3.17247)
    (xy -0.613165 3.197173) (xy -0.596659 3.217147) (xy -0.594588 3.219114) (xy -0.575496 3.235397)
    (xy -0.558071 3.244748) (xy -0.536799 3.248735) (xy -0.506172 3.248929) (xy -0.491792 3.248371)
    (xy -0.461366 3.246317) (xy -0.441776 3.241777) (xy -0.426925 3.232196) (xy -0.410715 3.215019)
    (xy -0.409871 3.214044) (xy -0.394075 3.19272) (xy -0.382921 3.169011) (xy -0.375738 3.139658)
    (xy -0.371853 3.101401) (xy -0.370593 3.050982) (xy -0.370695 3.024191) (xy -0.374712 2.959584)
    (xy -0.385872 2.909585) (xy -0.404921 2.873123) (xy -0.432603 2.849128) (xy -0.469663 2.83653)
    (xy -0.503086 2.833914) (xy -0.546568 2.837936) (xy -0.580394 2.850916) (xy -0.605457 2.874227)
    (xy -0.622651 2.90924) (xy -0.632869 2.957328) (xy -0.637005 3.019862) (xy -0.637195 3.039783)
    (xy -0.768888 3.039783) (xy -0.769572 3.007505) (xy -0.766091 2.934991) (xy -0.756784 2.875338)
    (xy -0.741152 2.826864) (xy -0.718694 2.787883) (xy -0.688909 2.75671) (xy -0.661677 2.737571)
    (xy -0.605 2.712747) (xy -0.546465 2.704365) (xy -0.487845 2.712329) (xy -0.430912 2.736541)
    (xy -0.40805 2.751445) (xy -0.387214 2.765984) (xy -0.372438 2.775268) (xy -0.368373 2.777067)
    (xy -0.367065 2.769023) (xy -0.365916 2.74658) (xy -0.364992 2.712274) (xy -0.364357 2.668638)
    (xy -0.364075 2.618207) (xy -0.364067 2.607734) (xy -0.364067 2.4384) (xy -0.237067 2.4384)
    (xy -0.237067 3.3782)) (layer F.SilkS) (width 0.01))
  (fp_poly (pts (xy -1.611567 2.703982) (xy -1.541087 2.715473) (xy -1.482776 2.737055) (xy -1.437286 2.768302)
    (xy -1.405271 2.808787) (xy -1.389414 2.849045) (xy -1.38651 2.869659) (xy -1.384082 2.905651)
    (xy -1.38218 2.955468) (xy -1.380857 3.017559) (xy -1.380162 3.090373) (xy -1.380067 3.132183)
    (xy -1.380067 3.3782) (xy -1.507067 3.3782) (xy -1.507067 3.348567) (xy -1.509899 3.326573)
    (xy -1.517384 3.319568) (xy -1.528003 3.328366) (xy -1.532072 3.33513) (xy -1.549653 3.352172)
    (xy -1.580149 3.365989) (xy -1.619717 3.375786) (xy -1.664513 3.380768) (xy -1.710696 3.38014)
    (xy -1.735212 3.37713) (xy -1.779635 3.364978) (xy -1.822311 3.345157) (xy -1.856654 3.320928)
    (xy -1.86447 3.313152) (xy -1.89038 3.273591) (xy -1.906867 3.225509) (xy -1.911771 3.175679)
    (xy -1.91171 3.174684) (xy -1.788776 3.174684) (xy -1.783911 3.208095) (xy -1.767491 3.231587)
    (xy -1.739903 3.247933) (xy -1.716097 3.254042) (xy -1.682021 3.25771) (xy -1.643294 3.258907)
    (xy -1.605536 3.257607) (xy -1.574366 3.253781) (xy -1.557867 3.248841) (xy -1.534215 3.228218)
    (xy -1.517015 3.195232) (xy -1.508005 3.153784) (xy -1.50708 3.134783) (xy -1.507067 3.090334)
    (xy -1.602317 3.090381) (xy -1.665196 3.091919) (xy -1.713071 3.096978) (xy -1.747647 3.106328)
    (xy -1.770629 3.12074) (xy -1.78372 3.140984) (xy -1.788626 3.167832) (xy -1.788776 3.174684)
    (xy -1.91171 3.174684) (xy -1.911204 3.166444) (xy -1.902293 3.117046) (xy -1.884029 3.077348)
    (xy -1.857279 3.044921) (xy -1.837922 3.026835) (xy -1.819218 3.013445) (xy -1.798092 3.003934)
    (xy -1.77147 2.997483) (xy -1.736276 2.993275) (xy -1.689438 2.990492) (xy -1.646767 2.98891)
    (xy -1.5113 2.9845) (xy -1.508669 2.943046) (xy -1.51058 2.900662) (xy -1.521381 2.867089)
    (xy -1.539969 2.845508) (xy -1.543177 2.843599) (xy -1.575487 2.832314) (xy -1.616 2.826697)
    (xy -1.659692 2.826502) (xy -1.701539 2.831485) (xy -1.736516 2.8414) (xy -1.757686 2.854068)
    (xy -1.777234 2.872432) (xy -1.82852 2.834321) (xy -1.879805 2.79621) (xy -1.853097 2.770098)
    (xy -1.806945 2.736544) (xy -1.749302 2.714117) (xy -1.681824 2.70327) (xy -1.611567 2.703982)) (layer F.SilkS) (width 0.01))
)
