(module PCI36pos (layer F.Cu) (tedit 4289BEAB)
  (attr smd)
  (fp_text reference U*1 (at 0 0) (layer F.SilkS) hide
    (effects (font (size 1.524 1.524) (thickness 0.05)))
  )
  (fp_text value "" (at 0 0) (layer F.SilkS)
    (effects (font (size 1.524 1.524) (thickness 0.05)))
  )
  (pad 1 smd rect (at -11.5 -3.5 90) (size 4.2 0.7) (layers F.Cu F.Paste F.Mask))
  (pad 2 smd rect (at -10.5 -3.5 90) (size 4.2 0.7) (layers F.Cu F.Paste F.Mask))
  (pad 3 smd rect (at -9.5 -3.5 90) (size 4.2 0.7) (layers F.Cu F.Paste F.Mask))
  (pad 4 smd rect (at -8.5 -3.5 90) (size 4.2 0.7) (layers F.Cu F.Paste F.Mask))
  (pad 5 smd rect (at -7.5 -3.5 90) (size 4.2 0.7) (layers F.Cu F.Paste F.Mask))
  (pad 6 smd rect (at -6.5 -3.5 90) (size 4.2 0.7) (layers F.Cu F.Paste F.Mask))
  (pad 7 smd rect (at -5.5 -3.5 90) (size 4.2 0.7) (layers F.Cu F.Paste F.Mask))
  (pad 8 smd rect (at -4.5 -3.5 90) (size 4.2 0.7) (layers F.Cu F.Paste F.Mask))
  (pad 9 smd rect (at -3.5 -3.5 90) (size 4.2 0.7) (layers F.Cu F.Paste F.Mask))
  (pad 10 smd rect (at -2.5 -3.5 90) (size 4.2 0.7) (layers F.Cu F.Paste F.Mask))
  (pad 11 smd rect (at -1.5 -3.5 90) (size 4.2 0.7) (layers F.Cu F.Paste F.Mask))
  (pad 12 smd rect (at 1.5 -3.5 90) (size 4.2 0.7) (layers F.Cu F.Paste F.Mask))
  (pad 13 smd rect (at 2.5 -3.5 90) (size 4.2 0.7) (layers F.Cu F.Paste F.Mask))
  (pad 14 smd rect (at 3.5 -3.5 90) (size 4.2 0.7) (layers F.Cu F.Paste F.Mask))
  (pad 15 smd rect (at 4.5 -3.5 90) (size 4.2 0.7) (layers F.Cu F.Paste F.Mask))
  (pad 16 smd rect (at 5.5 -3.5 90) (size 4.2 0.7) (layers F.Cu F.Paste F.Mask))
  (pad 17 smd rect (at 6.5 -3.5 90) (size 4.2 0.7) (layers F.Cu F.Paste F.Mask))
  (pad 18 smd rect (at 7.5 -3.5 90) (size 4.2 0.7) (layers F.Cu F.Paste F.Mask))
  (pad 19 smd rect (at -11.5 -3.5 90) (size 4.2 0.7) (layers B.Cu B.Paste B.Mask))
  (pad 20 smd rect (at -10.5 -3.5 90) (size 4.2 0.7) (layers B.Cu B.Paste B.Mask))
  (pad 21 smd rect (at -9.5 -3.5 90) (size 4.2 0.7) (layers B.Cu B.Paste B.Mask))
  (pad 22 smd rect (at -8.5 -3.5 90) (size 4.2 0.7) (layers B.Cu B.Paste B.Mask))
  (pad 23 smd rect (at -7.5 -3.5 90) (size 4.2 0.7) (layers B.Cu B.Paste B.Mask))
  (pad 24 smd rect (at -6.5 -3.5 90) (size 4.2 0.7) (layers B.Cu B.Paste B.Mask))
  (pad 25 smd rect (at -5.5 -3.5 90) (size 4.2 0.7) (layers B.Cu B.Paste B.Mask))
  (pad 26 smd rect (at -4.5 -3.5 90) (size 4.2 0.7) (layers B.Cu B.Paste B.Mask))
  (pad 27 smd rect (at -3.5 -3.5 90) (size 4.2 0.7) (layers B.Cu B.Paste B.Mask))
  (pad 28 smd rect (at -2.5 -3.5 90) (size 4.2 0.7) (layers B.Cu B.Paste B.Mask))
  (pad 29 smd rect (at -1.5 -3.5 90) (size 4.2 0.7) (layers B.Cu B.Paste B.Mask))
  (pad 30 smd rect (at 1.5 -3.5 90) (size 4.2 0.7) (layers B.Cu B.Paste B.Mask))
  (pad 31 smd rect (at 2.5 -3.5 90) (size 4.2 0.7) (layers B.Cu B.Paste B.Mask))
  (pad 32 smd rect (at 3.5 -3.5 90) (size 4.2 0.7) (layers B.Cu B.Paste B.Mask))
  (pad 33 smd rect (at 4.5 -3.5 90) (size 4.2 0.7) (layers B.Cu B.Paste B.Mask))
  (pad 34 smd rect (at 5.5 -3.5 90) (size 4.2 0.7) (layers B.Cu B.Paste B.Mask))
  (pad 35 smd rect (at 6.5 -3.5 90) (size 4.2 0.7) (layers B.Cu B.Paste B.Mask))
  (pad 36 smd rect (at 7.5 -3.5 90) (size 4.2 0.7) (layers B.Cu B.Paste B.Mask))
)
