(module L_Toroid_Vertical_RS_1048448 (layer F.Cu) (tedit 5B9F81BD)
  (descr "L_Toroid, Vertical series, Radial, pin pitch=20.10mm, , length*width=54*23.8mm^2, Bourns, 5700, http://www.bourns.com/docs/Product-Datasheets/5700_series.pdf")
  (tags "L_Toroid Vertical series Radial pin pitch 20.10mm  length 54mm width 23.8mm Bourns 5700")
  (fp_text reference REF** (at 0 -3.1) (layer F.SilkS)
    (effects (font (size 1 1) (thickness 0.15)))
  )
  (fp_text value L_Toroid_Vertical_RS_1048448 (at 0 26) (layer F.Fab)
    (effects (font (size 1 1) (thickness 0.15)))
  )
  (fp_text user %R (at 10.05 0) (layer F.Fab)
    (effects (font (size 1 1) (thickness 0.15)))
  )
  (fp_line (start 25 22) (end 25 -1) (layer F.SilkS) (width 0.15))
  (fp_line (start -25 22) (end 25 22) (layer F.SilkS) (width 0.15))
  (fp_line (start -25 -1) (end -25 22) (layer F.SilkS) (width 0.15))
  (fp_line (start 25 -1) (end -25 -1) (layer F.SilkS) (width 0.15))
  (pad 1 thru_hole circle (at 0 0) (size 3.6 3.6) (drill 1.8) (layers *.Cu *.Mask))
  (pad 2 thru_hole circle (at 0 21) (size 3.6 3.6) (drill 1.8) (layers *.Cu *.Mask))
  (model ${KISYS3DMOD}/Inductor_THT.3dshapes/L_Toroid_Vertical_L54.0mm_W23.8mm_P20.10mm_Bourns_5700.wrl
    (at (xyz 0 0 0))
    (scale (xyz 1 1 1))
    (rotate (xyz 0 0 0))
  )
)
