EESchema Schematic File Version 4
LIBS:Wind_module-cache
EELAYER 26 0
EELAYER END
$Descr A4 11693 8268
encoding utf-8
Sheet 3 6
Title ""
Date ""
Rev ""
Comp ""
Comment1 ""
Comment2 ""
Comment3 ""
Comment4 ""
$EndDescr
$Comp
L Wind_module_lib:LM2917 U5
U 1 1 5BD13678
P 9400 2630
F 0 "U5" H 9400 2420 50  0000 C CNN
F 1 "LM2907" H 9390 2300 50  0000 C CNN
F 2 "Housings_SOIC:SOIC-8_3.9x4.9mm_Pitch1.27mm" H 9400 2630 50  0001 C CNN
F 3 "" H 9400 2630 50  0001 C CNN
	1    9400 2630
	-1   0    0    1   
$EndComp
Wire Wire Line
	9550 2530 9600 2530
$Comp
L device:C C21
U 1 1 5BD150A3
P 9900 2780
F 0 "C21" H 9920 2860 50  0000 L CNN
F 1 "22n" H 9930 2680 50  0000 L CNN
F 2 "Capacitor_SMD:C_0805_2012Metric_Pad1.15x1.40mm_HandSolder" H 9938 2630 50  0001 C CNN
F 3 "~" H 9900 2780 50  0001 C CNN
	1    9900 2780
	1    0    0    -1  
$EndComp
Wire Wire Line
	9550 2480 9900 2480
Wire Wire Line
	9550 2430 10200 2430
Wire Wire Line
	10200 2430 10500 2430
Connection ~ 10200 2430
$Comp
L device:C C22
U 1 1 5BD15551
P 10500 2780
F 0 "C22" H 10350 2870 50  0000 L CNN
F 1 "1u" H 10390 2680 50  0000 L CNN
F 2 "Capacitor_SMD:C_0805_2012Metric_Pad1.15x1.40mm_HandSolder" H 10538 2630 50  0001 C CNN
F 3 "~" H 10500 2780 50  0001 C CNN
	1    10500 2780
	1    0    0    -1  
$EndComp
$Comp
L device:R R34
U 1 1 5BD15583
P 10200 2780
F 0 "R34" V 10120 2710 50  0000 L CNN
F 1 "100k" V 10200 2690 50  0000 L CNN
F 2 "Resistor_SMD:R_0805_2012Metric_Pad1.15x1.40mm_HandSolder" V 10130 2780 50  0001 C CNN
F 3 "~" H 10200 2780 50  0001 C CNN
	1    10200 2780
	1    0    0    -1  
$EndComp
Wire Wire Line
	9550 2380 9600 2380
Connection ~ 9600 2380
Wire Wire Line
	8900 2380 8900 2430
Wire Wire Line
	8900 2380 8850 2380
Text Label 8850 2380 2    50   ~ 0
5V_N
Wire Wire Line
	8600 2480 9250 2480
Text Label 2740 3910 2    50   ~ 0
I_S
Text Label 1090 3840 2    50   ~ 0
I_R
$Comp
L device:Opamp_Quad_Generic U6
U 1 1 5BD69069
P 5100 2700
F 0 "U6" H 5100 3067 50  0000 C CNN
F 1 "TL074IDT" H 5100 2976 50  0000 C CNN
F 2 "Housings_SOIC:SOIC-14_3.9x8.7mm_Pitch1.27mm" H 5100 2700 50  0001 C CNN
F 3 "~" H 5100 2700 50  0001 C CNN
	1    5100 2700
	1    0    0    -1  
$EndComp
$Comp
L device:Opamp_Quad_Generic U6
U 2 1 5BD69184
P 10270 1630
F 0 "U6" H 10310 1800 50  0000 C CNN
F 1 "TL074IDT" H 10360 1410 50  0001 C CNN
F 2 "Housings_SOIC:SOIC-14_3.9x8.7mm_Pitch1.27mm" H 10270 1630 50  0001 C CNN
F 3 "~" H 10270 1630 50  0001 C CNN
	2    10270 1630
	1    0    0    -1  
$EndComp
$Comp
L device:Opamp_Quad_Generic U6
U 5 1 5BD691F5
P 10270 1630
F 0 "U6" H 10470 1540 50  0000 C CNN
F 1 "TL074IDT" H 10350 1420 50  0000 C CNN
F 2 "Housings_SOIC:SOIC-14_3.9x8.7mm_Pitch1.27mm" H 10270 1630 50  0001 C CNN
F 3 "~" H 10270 1630 50  0001 C CNN
	5    10270 1630
	1    0    0    -1  
$EndComp
$Comp
L device:Opamp_Quad_Generic U6
U 3 1 5BD69331
P 1640 2720
F 0 "U6" H 1540 3070 50  0000 L CNN
F 1 "TL074IDT" H 1490 2970 50  0000 L CNN
F 2 "Housings_SOIC:SOIC-14_3.9x8.7mm_Pitch1.27mm" H 1640 2720 50  0001 C CNN
F 3 "~" H 1640 2720 50  0001 C CNN
	3    1640 2720
	1    0    0    -1  
$EndComp
$Comp
L device:R R22
U 1 1 5BD72D88
P 4500 2400
F 0 "R22" H 4570 2446 50  0000 L CNN
F 1 "10k" H 4570 2355 50  0000 L CNN
F 2 "Resistor_SMD:R_0805_2012Metric_Pad1.15x1.40mm_HandSolder" V 4430 2400 50  0001 C CNN
F 3 "~" H 4500 2400 50  0001 C CNN
	1    4500 2400
	1    0    0    -1  
$EndComp
$Comp
L device:R R23
U 1 1 5BD72DF8
P 4500 2800
F 0 "R23" H 4570 2846 50  0000 L CNN
F 1 "10k" H 4570 2755 50  0000 L CNN
F 2 "Resistor_SMD:R_0805_2012Metric_Pad1.15x1.40mm_HandSolder" V 4430 2800 50  0001 C CNN
F 3 "~" H 4500 2800 50  0001 C CNN
	1    4500 2800
	1    0    0    -1  
$EndComp
Wire Wire Line
	4800 2600 4500 2600
Wire Wire Line
	4500 2600 4500 2550
Wire Wire Line
	4500 2600 4500 2650
Connection ~ 4500 2600
Wire Wire Line
	4750 3100 4750 2800
Wire Wire Line
	4750 2800 4800 2800
Wire Wire Line
	5450 2700 5400 2700
$Comp
L device:R R26
U 1 1 5BD9824D
P 2710 2500
F 0 "R26" H 2780 2546 50  0000 L CNN
F 1 "10k" H 2780 2455 50  0000 L CNN
F 2 "Resistor_SMD:R_0805_2012Metric_Pad1.15x1.40mm_HandSolder" V 2640 2500 50  0001 C CNN
F 3 "~" H 2710 2500 50  0001 C CNN
	1    2710 2500
	1    0    0    -1  
$EndComp
$Comp
L device:R R27
U 1 1 5BD98254
P 2710 2900
F 0 "R27" H 2780 2946 50  0000 L CNN
F 1 "10k" H 2780 2855 50  0000 L CNN
F 2 "Resistor_SMD:R_0805_2012Metric_Pad1.15x1.40mm_HandSolder" V 2640 2900 50  0001 C CNN
F 3 "~" H 2710 2900 50  0001 C CNN
	1    2710 2900
	1    0    0    -1  
$EndComp
Wire Wire Line
	3010 2700 2710 2700
Wire Wire Line
	2710 2700 2710 2650
Wire Wire Line
	2710 2700 2710 2750
Connection ~ 2710 2700
$Comp
L power:GND #PWR0125
U 1 1 5BD98272
P 8140 5270
F 0 "#PWR0125" H 8140 5020 50  0001 C CNN
F 1 "GND" H 8145 5097 50  0000 C CNN
F 2 "" H 8140 5270 50  0001 C CNN
F 3 "" H 8140 5270 50  0001 C CNN
	1    8140 5270
	1    0    0    -1  
$EndComp
Wire Wire Line
	2960 3200 2960 2900
Wire Wire Line
	2960 2900 3010 2900
Wire Wire Line
	3660 3200 3660 2800
Wire Wire Line
	3660 2800 3610 2800
$Comp
L device:R R24
U 1 1 5BDAC047
P 1040 2420
F 0 "R24" H 1110 2466 50  0000 L CNN
F 1 "10k" H 1110 2375 50  0000 L CNN
F 2 "Resistor_SMD:R_0805_2012Metric_Pad1.15x1.40mm_HandSolder" V 970 2420 50  0001 C CNN
F 3 "~" H 1040 2420 50  0001 C CNN
	1    1040 2420
	1    0    0    -1  
$EndComp
$Comp
L device:R R25
U 1 1 5BDAC04E
P 1040 2820
F 0 "R25" H 1110 2866 50  0000 L CNN
F 1 "10k" H 1110 2775 50  0000 L CNN
F 2 "Resistor_SMD:R_0805_2012Metric_Pad1.15x1.40mm_HandSolder" V 970 2820 50  0001 C CNN
F 3 "~" H 1040 2820 50  0001 C CNN
	1    1040 2820
	1    0    0    -1  
$EndComp
Wire Wire Line
	1340 2620 1040 2620
Wire Wire Line
	1040 2620 1040 2570
Wire Wire Line
	1040 2620 1040 2670
Connection ~ 1040 2620
Wire Wire Line
	1290 3120 1290 2820
Wire Wire Line
	1290 2820 1340 2820
$Comp
L device:Opamp_Quad_Generic U6
U 4 1 5BDB15F9
P 3310 2800
F 0 "U6" H 3310 3167 50  0000 C CNN
F 1 "TL074IDT" H 3310 3076 50  0000 C CNN
F 2 "Housings_SOIC:SOIC-14_3.9x8.7mm_Pitch1.27mm" H 3310 2800 50  0001 C CNN
F 3 "~" H 3310 2800 50  0001 C CNN
	4    3310 2800
	1    0    0    -1  
$EndComp
$Comp
L Analog_ADC:MCP3208 U9
U 1 1 5BDEE677
P 7380 5840
F 0 "U9" H 7680 6290 50  0000 C CNN
F 1 "MCP3208" H 7780 5290 50  0000 C CNN
F 2 "Housings_SOIC:SOIC-16_3.9x9.9mm_Pitch1.27mm" H 7480 5940 50  0001 C CNN
F 3 "http://ww1.microchip.com/downloads/en/DeviceDoc/21298c.pdf" H 7480 5940 50  0001 C CNN
	1    7380 5840
	1    0    0    -1  
$EndComp
$Comp
L power:GND #PWR0128
U 1 1 5BE635F8
P 7430 6540
F 0 "#PWR0128" H 7430 6290 50  0001 C CNN
F 1 "GND" H 7435 6367 50  0000 C CNN
F 2 "" H 7430 6540 50  0001 C CNN
F 3 "" H 7430 6540 50  0001 C CNN
	1    7430 6540
	1    0    0    -1  
$EndComp
Wire Wire Line
	7280 6440 7280 6490
Wire Wire Line
	7280 6490 7430 6490
Wire Wire Line
	7580 6490 7580 6440
Wire Wire Line
	7430 6540 7430 6490
Connection ~ 7430 6490
Wire Wire Line
	7430 6490 7580 6490
Text Label 7530 5250 2    50   ~ 0
5V_IN
$Comp
L device:C C24
U 1 1 5BE77A41
P 7870 5250
F 0 "C24" V 7950 5310 50  0000 L CNN
F 1 "100n" V 7930 5000 50  0000 L CNN
F 2 "Capacitor_SMD:C_0805_2012Metric_Pad1.15x1.40mm_HandSolder" H 7908 5100 50  0001 C CNN
F 3 "~" H 7870 5250 50  0001 C CNN
	1    7870 5250
	0    -1   -1   0   
$EndComp
Wire Wire Line
	7580 5340 7580 5280
Wire Wire Line
	7580 5250 7530 5250
Wire Wire Line
	7980 5740 8130 5740
Text Label 8130 5740 0    50   ~ 0
CLK_ISO
Text Label 8130 5840 0    50   ~ 0
DOUT
Text Label 8130 5940 0    50   ~ 0
DIN
Text Label 8130 6040 0    50   ~ 0
SS_ISO
Wire Wire Line
	7980 5840 8130 5840
Wire Wire Line
	8130 5940 7980 5940
Wire Wire Line
	7980 6040 8130 6040
Wire Wire Line
	7890 4240 7950 4240
Text Label 7950 4240 0    50   ~ 0
CLK_ISO_N
Wire Wire Line
	7890 4340 7950 4340
Text Label 7950 4340 0    50   ~ 0
DOUT_N
Text Label 7040 3740 2    50   ~ 0
REF_4.096_N
Text Label 7440 3740 2    50   ~ 0
5V_N
$Comp
L device:C C23
U 1 1 5BFAB7FB
P 7710 3740
F 0 "C23" V 7660 3550 50  0000 L CNN
F 1 "100n" V 7650 3800 50  0000 L CNN
F 2 "Capacitor_SMD:C_0805_2012Metric_Pad1.15x1.40mm_HandSolder" H 7748 3590 50  0001 C CNN
F 3 "~" H 7710 3740 50  0001 C CNN
	1    7710 3740
	0    1    1    0   
$EndComp
Wire Wire Line
	1940 2720 1990 2720
Wire Wire Line
	1990 3120 1990 2720
Wire Wire Line
	7890 4440 7950 4440
Text Label 7950 4440 0    50   ~ 0
DIN_N
Wire Wire Line
	7890 4540 7950 4540
Text Label 7950 4540 0    50   ~ 0
SS_ISO_N
Text Label 9210 4610 2    50   ~ 0
CLK
Text Label 9210 4710 2    50   ~ 0
MOSI
Text Label 9210 4810 2    50   ~ 0
SS1
Text Label 9210 4910 2    50   ~ 0
MISO
Text Label 10510 4610 0    50   ~ 0
CLK_ISO_N
Text Label 10510 4710 0    50   ~ 0
DIN_N
Text Label 10510 4810 0    50   ~ 0
SS_ISO_N
Text Label 10510 4910 0    50   ~ 0
DOUT_N
Wire Wire Line
	10260 4610 10510 4610
Wire Wire Line
	10510 4710 10260 4710
Wire Wire Line
	10260 4810 10510 4810
Wire Wire Line
	10510 4910 10260 4910
Text Label 9230 6000 2    50   ~ 0
CLK
Wire Wire Line
	9210 4910 9460 4910
Wire Wire Line
	9210 4810 9460 4810
Wire Wire Line
	9210 4710 9460 4710
Wire Wire Line
	9210 4610 9460 4610
Text Label 9230 6100 2    50   ~ 0
MOSI
Text Label 9230 6200 2    50   ~ 0
SS
Text Label 9230 6300 2    50   ~ 0
MISO
Wire Wire Line
	9230 6000 9480 6000
Wire Wire Line
	9230 6100 9480 6100
Wire Wire Line
	9230 6200 9480 6200
Wire Wire Line
	9230 6300 9480 6300
Text Label 10530 6000 0    50   ~ 0
CLK_ISO
Text Label 10530 6100 0    50   ~ 0
DIN
Text Label 10530 6200 0    50   ~ 0
SS_ISO
Text Label 10530 6300 0    50   ~ 0
DOUT
Wire Wire Line
	10280 6000 10530 6000
Wire Wire Line
	10530 6100 10280 6100
Wire Wire Line
	10280 6200 10530 6200
Wire Wire Line
	10530 6300 10280 6300
$Comp
L power:GNDD #PWR0130
U 1 1 5C102677
P 8770 5600
F 0 "#PWR0130" H 8770 5350 50  0001 C CNN
F 1 "GNDD" H 8774 5445 50  0000 C CNN
F 2 "" H 8770 5600 50  0001 C CNN
F 3 "" H 8770 5600 50  0001 C CNN
	1    8770 5600
	1    0    0    -1  
$EndComp
$Comp
L device:C C26
U 1 1 5C10DA39
P 8930 5400
F 0 "C26" H 9045 5446 50  0000 L CNN
F 1 "100n" H 9045 5355 50  0000 L CNN
F 2 "Capacitor_SMD:C_0805_2012Metric_Pad1.15x1.40mm_HandSolder" H 8968 5250 50  0001 C CNN
F 3 "~" H 8930 5400 50  0001 C CNN
	1    8930 5400
	1    0    0    -1  
$EndComp
Wire Wire Line
	8930 5550 8930 5560
Wire Wire Line
	9330 5500 9330 5200
Wire Wire Line
	8930 5200 8930 5250
Connection ~ 8930 5200
$Comp
L device:R R51
U 1 1 5C147FA7
P 9130 5850
F 0 "R51" V 9050 5850 50  0000 C CNN
F 1 "10k" V 9130 5850 50  0000 C CNN
F 2 "Resistor_SMD:R_0805_2012Metric_Pad1.15x1.40mm_HandSolder" V 9060 5850 50  0001 C CNN
F 3 "~" H 9130 5850 50  0001 C CNN
	1    9130 5850
	0    1    1    0   
$EndComp
Wire Wire Line
	8930 5200 9330 5200
Wire Wire Line
	8610 5200 8660 5200
Wire Wire Line
	8660 5200 8660 5850
Wire Wire Line
	8660 5850 8880 5850
Connection ~ 8660 5200
Wire Wire Line
	8660 5200 8930 5200
Connection ~ 8880 5850
Wire Wire Line
	8880 5850 8980 5850
Wire Wire Line
	9330 5850 9280 5850
Connection ~ 9330 5800
Wire Wire Line
	9330 5800 9330 5850
$Comp
L power:GNDD #PWR0131
U 1 1 5C1BFCFA
P 8900 4060
F 0 "#PWR0131" H 8900 3810 50  0001 C CNN
F 1 "GNDD" H 8904 3905 50  0000 C CNN
F 2 "" H 8900 4060 50  0001 C CNN
F 3 "" H 8900 4060 50  0001 C CNN
	1    8900 4060
	1    0    0    -1  
$EndComp
$Comp
L device:C C25
U 1 1 5C1BFD01
P 9020 3970
F 0 "C25" H 9135 4016 50  0000 L CNN
F 1 "100n" H 9135 3925 50  0000 L CNN
F 2 "Capacitor_SMD:C_0805_2012Metric_Pad1.15x1.40mm_HandSolder" H 9058 3820 50  0001 C CNN
F 3 "~" H 9020 3970 50  0001 C CNN
	1    9020 3970
	1    0    0    -1  
$EndComp
Wire Wire Line
	9310 4110 9310 3810
$Comp
L device:R R48
U 1 1 5C1BFD0F
P 9110 4290
F 0 "R48" V 9030 4290 50  0000 C CNN
F 1 "10k" V 9110 4290 50  0000 C CNN
F 2 "Resistor_SMD:R_0805_2012Metric_Pad1.15x1.40mm_HandSolder" V 9040 4290 50  0001 C CNN
F 3 "~" H 9110 4290 50  0001 C CNN
	1    9110 4290
	0    1    1    0   
$EndComp
$Comp
L device:R R49
U 1 1 5C1BFD16
P 9110 4460
F 0 "R49" V 9030 4460 50  0000 C CNN
F 1 "10k" V 9110 4460 50  0000 C CNN
F 2 "Resistor_SMD:R_0805_2012Metric_Pad1.15x1.40mm_HandSolder" V 9040 4460 50  0001 C CNN
F 3 "~" H 9110 4460 50  0001 C CNN
	1    9110 4460
	0    1    1    0   
$EndComp
Wire Wire Line
	8740 3810 8790 3810
Wire Wire Line
	8790 3810 8790 4460
Connection ~ 8790 3810
Wire Wire Line
	9260 4290 9310 4290
Wire Wire Line
	9310 4290 9310 4410
Wire Wire Line
	9310 4460 9260 4460
Connection ~ 9310 4410
Wire Wire Line
	9310 4410 9310 4460
Wire Wire Line
	9310 4110 9460 4110
Wire Wire Line
	9310 4410 9460 4410
Wire Wire Line
	9330 5500 9480 5500
Wire Wire Line
	9330 5800 9480 5800
Text Label 11120 5200 2    50   ~ 0
5V_IN
$Comp
L power:GND #PWR0132
U 1 1 5C3388DD
P 10970 5580
F 0 "#PWR0132" H 10970 5330 50  0001 C CNN
F 1 "GND" H 10975 5407 50  0000 C CNN
F 2 "" H 10970 5580 50  0001 C CNN
F 3 "" H 10970 5580 50  0001 C CNN
	1    10970 5580
	1    0    0    -1  
$EndComp
$Comp
L device:C C28
U 1 1 5C3B6855
P 10880 5400
F 0 "C28" H 10995 5446 50  0000 L CNN
F 1 "100n" H 10995 5355 50  0000 L CNN
F 2 "Capacitor_SMD:C_0805_2012Metric_Pad1.15x1.40mm_HandSolder" H 10918 5250 50  0001 C CNN
F 3 "~" H 10880 5400 50  0001 C CNN
	1    10880 5400
	-1   0    0    -1  
$EndComp
Wire Wire Line
	10880 5550 10880 5580
Wire Wire Line
	10430 5500 10430 5200
Wire Wire Line
	10880 5200 10880 5250
Connection ~ 10880 5200
$Comp
L device:R R54
U 1 1 5C3B6862
P 10630 5660
F 0 "R54" V 10550 5660 50  0000 C CNN
F 1 "10k" V 10630 5660 50  0000 C CNN
F 2 "Resistor_SMD:R_0805_2012Metric_Pad1.15x1.40mm_HandSolder" V 10560 5660 50  0001 C CNN
F 3 "~" H 10630 5660 50  0001 C CNN
	1    10630 5660
	0    -1   1    0   
$EndComp
$Comp
L device:R R55
U 1 1 5C3B6869
P 10630 5850
F 0 "R55" V 10550 5850 50  0000 C CNN
F 1 "10k" V 10630 5850 50  0000 C CNN
F 2 "Resistor_SMD:R_0805_2012Metric_Pad1.15x1.40mm_HandSolder" V 10560 5850 50  0001 C CNN
F 3 "~" H 10630 5850 50  0001 C CNN
	1    10630 5850
	0    -1   1    0   
$EndComp
Wire Wire Line
	10880 5200 10430 5200
Wire Wire Line
	11120 5200 11070 5200
Wire Wire Line
	11070 5200 11070 5850
Wire Wire Line
	11070 5850 10880 5850
Connection ~ 11070 5200
Wire Wire Line
	11070 5200 10880 5200
Connection ~ 10880 5850
Wire Wire Line
	10880 5850 10780 5850
Wire Wire Line
	10430 5850 10480 5850
Connection ~ 10430 5800
Wire Wire Line
	10430 5800 10430 5850
Wire Wire Line
	10430 5500 10280 5500
Wire Wire Line
	10430 5800 10280 5800
$Comp
L device:C C27
U 1 1 5C40DDAA
P 10520 3970
F 0 "C27" H 10350 4060 50  0000 L CNN
F 1 "100n" H 10290 3880 50  0000 L CNN
F 2 "Capacitor_SMD:C_0805_2012Metric_Pad1.15x1.40mm_HandSolder" H 10558 3820 50  0001 C CNN
F 3 "~" H 10520 3970 50  0001 C CNN
	1    10520 3970
	-1   0    0    -1  
$EndComp
Wire Wire Line
	10410 4110 10410 3810
Text Label 10960 3810 0    50   ~ 0
5V_N
$Comp
L device:R R53
U 1 1 5C40DDBE
P 10610 4460
F 0 "R53" V 10530 4460 50  0000 C CNN
F 1 "10k" V 10610 4460 50  0000 C CNN
F 2 "Resistor_SMD:R_0805_2012Metric_Pad1.15x1.40mm_HandSolder" V 10540 4460 50  0001 C CNN
F 3 "~" H 10610 4460 50  0001 C CNN
	1    10610 4460
	0    -1   1    0   
$EndComp
Wire Wire Line
	10960 3810 10910 3810
Wire Wire Line
	10910 3810 10910 4460
Wire Wire Line
	10910 4460 10860 4460
Connection ~ 10910 3810
Connection ~ 10860 4460
Wire Wire Line
	10860 4460 10760 4460
Wire Wire Line
	10410 4460 10460 4460
Wire Wire Line
	10410 4410 10410 4460
Wire Wire Line
	10410 4110 10260 4110
Wire Wire Line
	10410 4410 10370 4410
Text Label 10790 4050 0    50   ~ 0
N
Wire Wire Line
	9900 2930 9900 3180
Connection ~ 9900 3180
Wire Wire Line
	9900 3180 10200 3180
Wire Wire Line
	10200 2930 10200 3180
Connection ~ 10200 3180
Wire Wire Line
	10200 3180 10500 3180
Wire Wire Line
	10500 2930 10500 3180
Wire Wire Line
	10500 2430 10500 2630
Wire Wire Line
	10200 2430 10200 2630
Wire Wire Line
	9900 2480 9900 2630
Text Label 6640 4240 2    50   ~ 0
V_T_MES
Text Label 6640 4140 2    50   ~ 0
V_S_MES
Text Label 6640 4040 2    50   ~ 0
V_R_MES
Text Label 6730 6140 2    50   ~ 0
I_OUT_3.3
Text Label 6730 6040 2    50   ~ 0
I_R_3.3
Text Label 6730 5940 2    50   ~ 0
I_S_3.3
Text Label 6730 5840 2    50   ~ 0
I_T_3.3
Text Label 6730 5740 2    50   ~ 0
TEMP_3.3_S
Wire Wire Line
	6780 6240 6730 6240
Text Label 8850 3180 2    50   ~ 0
N
Text Label 6590 4990 2    50   ~ 0
N
Text Label 7840 3860 2    50   ~ 0
N
Text Label 2100 950  0    50   ~ 0
R_COND
Text Label 2100 1050 0    50   ~ 0
S_COND
Text Label 2100 1150 0    50   ~ 0
T_COND
Text Label 2100 1250 0    50   ~ 0
N
Text Label 1100 950  0    50   ~ 0
5V_IN
Text Label 1100 1050 0    50   ~ 0
5V_N
Text Label 3000 1150 0    50   ~ 0
I_T
Text Label 3000 1050 0    50   ~ 0
I_S
Text Label 3000 950  0    50   ~ 0
I_R
Text Label 3000 1250 0    50   ~ 0
I_OUT
Text HLabel 800  950  0    50   Input ~ 0
5V_IN
Text HLabel 800  1050 0    50   Input ~ 0
5V_N
Wire Wire Line
	800  950  1100 950 
Wire Wire Line
	1100 1050 800  1050
Text HLabel 1700 950  0    50   Input ~ 0
R_COND
Text HLabel 1700 1250 0    50   Input ~ 0
N
Wire Wire Line
	1700 950  2100 950 
Wire Wire Line
	1700 1050 2100 1050
Wire Wire Line
	2100 1150 1700 1150
Wire Wire Line
	1700 1250 2100 1250
Text HLabel 2650 950  0    50   Input ~ 0
I_R
Text HLabel 2650 1050 0    50   Input ~ 0
I_S
Text HLabel 2650 1150 0    50   Input ~ 0
I_T
Text HLabel 2650 1250 0    50   Input ~ 0
I_OUT
Wire Wire Line
	2650 950  3000 950 
Wire Wire Line
	3000 1050 2650 1050
Wire Wire Line
	2650 1150 3000 1150
Wire Wire Line
	3000 1250 2650 1250
Text Label 4000 950  0    50   ~ 0
CLK
Text Label 4000 1050 0    50   ~ 0
MOSI
Text Label 4000 1150 0    50   ~ 0
SS
Text Label 4000 1250 0    50   ~ 0
SS1
Text Label 10450 900  2    50   ~ 0
MISO
Text Label 3000 1350 0    50   ~ 0
V_OUT_MES
Text HLabel 2650 1350 0    50   Input ~ 0
V_OUT_MES
Wire Wire Line
	2650 1350 3000 1350
Text HLabel 3600 950  0    50   Input ~ 0
CLK
Text HLabel 3600 1050 0    50   Input ~ 0
MOSI
Text HLabel 3600 1150 0    50   Input ~ 0
SS
Text HLabel 3600 1250 0    50   Input ~ 0
SS1
Wire Wire Line
	3600 950  4000 950 
Wire Wire Line
	4000 1050 3600 1050
Wire Wire Line
	3600 1150 4000 1150
Wire Wire Line
	4000 1250 3600 1250
Text HLabel 10850 900  2    50   Output ~ 0
MISO
Wire Wire Line
	10450 900  10850 900 
Wire Notes Line
	10000 770  11200 770 
Text Notes 10300 650  0    50   ~ 0
BLOCK OUTPUTS
Text Notes 2100 650  0    50   ~ 0
BLOCK INPUTS
$Comp
L Wind_module_lib:NCP41460 REF_?
U 1 1 5BA9B7B3
P 5170 850
AR Path="/5B8E5441/5BA9B7B3" Ref="REF_?"  Part="1" 
AR Path="/5B8E53AF/5BA9B7B3" Ref="REF_4.96"  Part="1" 
F 0 "REF_4.96" H 5170 950 50  0000 C CNN
F 1 "ZR40401F41TA" H 5170 850 50  0000 C CNN
F 2 "TO_SOT_Packages_SMD:SOT-23W" H 5170 850 50  0001 C CNN
F 3 "" H 5170 850 50  0001 C CNN
	1    5170 850 
	1    0    0    -1  
$EndComp
$Comp
L Wind_module_lib:NCP41460 REF_?
U 1 1 5BA9B7BA
P 6800 1310
AR Path="/5B8E5441/5BA9B7BA" Ref="REF_?"  Part="1" 
AR Path="/5B8E53AF/5BA9B7BA" Ref="REF_4.96_N1"  Part="1" 
F 0 "REF_4.96_N1" H 6800 1425 50  0000 C CNN
F 1 "ZR40401F41TA" H 6800 1334 50  0000 C CNN
F 2 "TO_SOT_Packages_SMD:SOT-23W" H 6800 1310 50  0001 C CNN
F 3 "" H 6800 1310 50  0001 C CNN
	1    6800 1310
	1    0    0    -1  
$EndComp
Text Label 4720 1000 2    50   ~ 0
5V_IN
Wire Wire Line
	4720 1000 4770 1000
Wire Wire Line
	6350 1460 6400 1460
$Comp
L power:GND #PWR?
U 1 1 5BA9B7CE
P 5170 1400
AR Path="/5B8E5441/5BA9B7CE" Ref="#PWR?"  Part="1" 
AR Path="/5B8E53AF/5BA9B7CE" Ref="#PWR03"  Part="1" 
F 0 "#PWR03" H 5170 1150 50  0001 C CNN
F 1 "GND" H 5175 1227 50  0000 C CNN
F 2 "" H 5170 1400 50  0001 C CNN
F 3 "" H 5170 1400 50  0001 C CNN
	1    5170 1400
	1    0    0    -1  
$EndComp
$Comp
L device:R R?
U 1 1 5BA9B7DC
P 7300 1660
AR Path="/5B8E5441/5BA9B7DC" Ref="R?"  Part="1" 
AR Path="/5B8E53AF/5BA9B7DC" Ref="R76"  Part="1" 
F 0 "R76" H 7370 1706 50  0000 L CNN
F 1 "10k" H 7370 1615 50  0000 L CNN
F 2 "Resistor_SMD:R_0805_2012Metric_Pad1.15x1.40mm_HandSolder" V 7230 1660 50  0001 C CNN
F 3 "~" H 7300 1660 50  0001 C CNN
	1    7300 1660
	1    0    0    -1  
$EndComp
$Comp
L device:R R?
U 1 1 5BA9B7E3
P 7300 2060
AR Path="/5B8E5441/5BA9B7E3" Ref="R?"  Part="1" 
AR Path="/5B8E53AF/5BA9B7E3" Ref="R77"  Part="1" 
F 0 "R77" H 7370 2106 50  0000 L CNN
F 1 "10k" H 7370 2015 50  0000 L CNN
F 2 "Resistor_SMD:R_0805_2012Metric_Pad1.15x1.40mm_HandSolder" V 7230 2060 50  0001 C CNN
F 3 "~" H 7300 2060 50  0001 C CNN
	1    7300 2060
	1    0    0    -1  
$EndComp
Wire Wire Line
	5170 1400 5170 1350
Wire Wire Line
	6800 1860 6800 1810
Wire Wire Line
	7150 1460 7250 1460
Wire Wire Line
	7300 1460 7300 1510
Wire Wire Line
	7300 1810 7300 1860
Wire Wire Line
	7300 2260 7300 2210
Connection ~ 7300 1860
Wire Wire Line
	7300 1860 7300 1910
Text Label 7750 1860 0    50   ~ 0
REF_2.048
Wire Wire Line
	1040 2970 1040 3110
Wire Wire Line
	4500 2950 4500 3090
Wire Wire Line
	2710 3050 2710 3200
Text Label 5560 1000 0    50   ~ 0
REF_4.096
Wire Wire Line
	9600 2190 8600 2190
Wire Wire Line
	9600 2190 9600 2380
Wire Wire Line
	8600 2190 8600 2480
Text Label 1200 5720 2    50   ~ 0
5V_IN
$Comp
L device:R R83
U 1 1 5BD86968
P 1700 6270
F 0 "R83" V 1610 6200 50  0000 L CNN
F 1 "150k" V 1700 6180 50  0000 L CNN
F 2 "Resistor_SMD:R_0805_2012Metric_Pad1.15x1.40mm_HandSolder" V 1630 6270 50  0001 C CNN
F 3 "~" H 1700 6270 50  0001 C CNN
	1    1700 6270
	1    0    0    -1  
$EndComp
$Comp
L power:GND #PWR06
U 1 1 5BD86976
P 1250 6470
F 0 "#PWR06" H 1250 6220 50  0001 C CNN
F 1 "GND" H 1255 6297 50  0000 C CNN
F 2 "" H 1250 6470 50  0001 C CNN
F 3 "" H 1250 6470 50  0001 C CNN
	1    1250 6470
	1    0    0    -1  
$EndComp
Wire Wire Line
	1700 6120 1700 6070
Wire Wire Line
	1250 6370 1250 6470
Wire Wire Line
	1700 6820 1700 6870
$Comp
L power:GND #PWR07
U 1 1 5BD8697F
P 1700 6870
F 0 "#PWR07" H 1700 6620 50  0001 C CNN
F 1 "GND" H 1705 6697 50  0000 C CNN
F 2 "" H 1700 6870 50  0001 C CNN
F 3 "" H 1700 6870 50  0001 C CNN
	1    1700 6870
	1    0    0    -1  
$EndComp
Wire Wire Line
	1700 6420 1700 6470
Connection ~ 1700 6470
Wire Wire Line
	1700 6470 1700 6520
$Comp
L Sensor_Temperature:LM35-LP U22
U 1 1 5BD86988
P 1250 6070
F 0 "U22" H 920 6116 50  0000 R CNN
F 1 "LM35-DZ" H 1350 6370 50  0000 R CNN
F 2 "TO_SOT_Packages_THT:TO-92_Inline_Wide" H 1300 5820 50  0001 L CNN
F 3 "http://www.ti.com/lit/ds/symlink/lm35.pdf" H 1250 6070 50  0001 C CNN
	1    1250 6070
	1    0    0    -1  
$EndComp
Wire Wire Line
	1650 6070 1700 6070
Wire Wire Line
	1250 5770 1250 5720
Wire Wire Line
	1250 5720 1200 5720
Wire Wire Line
	1700 6470 1850 6470
Text Label 6730 5640 2    50   ~ 0
TEMP_3.3_T
Text Label 6730 5540 2    50   ~ 0
TEMP_3.3_R
Wire Notes Line
	10000 440  10000 940 
Wire Notes Line
	10000 940  11200 940 
$Comp
L Isolator:ISO7341C U11
U 1 1 5BA580F2
P 9880 5900
F 0 "U11" H 9880 6567 50  0000 C CNN
F 1 "ISO7341C" H 9880 6476 50  0000 C CNN
F 2 "Package_SO:SOIC-16W_7.5x10.3mm_P1.27mm" H 9880 5350 50  0001 C CIN
F 3 "http://www.ti.com/general/docs/lit/getliterature.tsp?genericPartNumber=iso7341c&fileType=pdf" H 9880 6300 50  0001 C CNN
	1    9880 5900
	1    0    0    -1  
$EndComp
$Comp
L Isolator:ISO7341C U10
U 1 1 5BA5A23E
P 9860 4510
F 0 "U10" H 9860 5177 50  0000 C CNN
F 1 "ISO7341C" H 9860 5086 50  0000 C CNN
F 2 "Package_SO:SOIC-16W_7.5x10.3mm_P1.27mm" H 9860 3960 50  0001 C CIN
F 3 "http://www.ti.com/general/docs/lit/getliterature.tsp?genericPartNumber=iso7341c&fileType=pdf" H 9860 4910 50  0001 C CNN
	1    9860 4510
	1    0    0    -1  
$EndComp
Wire Wire Line
	9600 2530 9600 2680
Wire Wire Line
	9600 2680 9450 2680
Wire Wire Line
	10120 1220 10170 1220
Wire Wire Line
	10170 1220 10170 1260
$Comp
L device:C C47
U 1 1 5BC04EB6
P 10400 1260
F 0 "C47" V 10340 1320 50  0000 L CNN
F 1 "100n" V 10270 1050 50  0000 L CNN
F 2 "Capacitor_SMD:C_0805_2012Metric_Pad1.15x1.40mm_HandSolder" H 10438 1110 50  0001 C CNN
F 3 "~" H 10400 1260 50  0001 C CNN
	1    10400 1260
	0    1    1    0   
$EndComp
Wire Wire Line
	10170 1980 10170 1930
Text Label 6730 6240 2    50   ~ 0
V_OUT_MES
Wire Wire Line
	9970 1730 9920 1730
Wire Wire Line
	10720 1630 10570 1630
Wire Wire Line
	9970 1530 9770 1530
Text Label 10120 1980 2    50   ~ 0
N
Wire Wire Line
	10170 1980 10120 1980
Text Label 10120 1220 2    50   ~ 0
5V_N
Text Label 6750 1860 2    50   ~ 0
N
Wire Wire Line
	6750 1860 6800 1860
Text Label 6350 1460 2    50   ~ 0
5V_N
Text Label 7250 2260 2    50   ~ 0
N
Wire Wire Line
	7250 2260 7300 2260
Text Label 10630 1370 2    50   ~ 0
N
Text HLabel 1700 1050 0    50   Input ~ 0
S_COND
Text HLabel 1700 1150 0    50   Input ~ 0
T_COND
Text Label 890  2170 2    50   ~ 0
R_COND
Text Label 2710 2250 2    50   ~ 0
S_COND
Text Label 4500 2150 2    50   ~ 0
T_COND
Wire Wire Line
	890  2170 1040 2170
$Comp
L Analog_ADC:MCP3208 U23
U 1 1 5BCF4B63
P 7290 4340
F 0 "U23" H 7590 4790 50  0000 C CNN
F 1 "MCP3208" H 7690 3790 50  0000 C CNN
F 2 "Housings_SOIC:SOIC-16_3.9x9.9mm_Pitch1.27mm" H 7390 4440 50  0001 C CNN
F 3 "http://ww1.microchip.com/downloads/en/DeviceDoc/21298c.pdf" H 7390 4440 50  0001 C CNN
	1    7290 4340
	1    0    0    -1  
$EndComp
Wire Wire Line
	5450 2700 5450 3100
Wire Wire Line
	6690 4440 6640 4440
Wire Wire Line
	6690 4540 6640 4540
Wire Wire Line
	6690 4640 6640 4640
Wire Wire Line
	6690 4740 6640 4740
Wire Wire Line
	7190 4940 7190 4990
Wire Wire Line
	7490 3840 7490 3790
Wire Wire Line
	7490 3740 7440 3740
Wire Wire Line
	8930 5600 8990 5600
Wire Wire Line
	10280 5600 10470 5600
Wire Wire Line
	1040 2170 1040 2270
Wire Wire Line
	2710 2250 2710 2350
Wire Wire Line
	4500 2150 4500 2250
Wire Wire Line
	1290 3120 1990 3120
Wire Wire Line
	2960 3200 3660 3200
Wire Wire Line
	4750 3100 5450 3100
Text Label 9770 1530 2    50   ~ 0
T_COND
Wire Wire Line
	10720 1630 10820 1630
Connection ~ 10720 1630
Text Label 10820 1630 0    50   ~ 0
MES_FREQ
Text Label 9450 2680 2    50   ~ 0
MES_FREQ
Wire Wire Line
	9000 2530 9000 3180
Wire Wire Line
	9000 2530 9250 2530
Wire Wire Line
	9000 3180 8850 3180
Connection ~ 9000 3180
$Comp
L device:C C52
U 1 1 5C030688
P 7700 2060
F 0 "C52" H 7815 2106 50  0000 L CNN
F 1 "1u" H 7815 2015 50  0000 L CNN
F 2 "Capacitor_SMD:C_0805_2012Metric_Pad1.15x1.40mm_HandSolder" H 7738 1910 50  0001 C CNN
F 3 "~" H 7700 2060 50  0001 C CNN
	1    7700 2060
	1    0    0    -1  
$EndComp
Connection ~ 7300 2260
Text Label 7250 1360 0    50   ~ 0
REF_4.096_N
Wire Wire Line
	7750 1860 7700 1860
Connection ~ 7700 1860
Wire Wire Line
	7250 1460 7250 1360
Connection ~ 7250 1460
Wire Wire Line
	7250 1460 7300 1460
Wire Wire Line
	7040 3740 7190 3740
Wire Wire Line
	7190 3740 7190 3840
Wire Wire Line
	7700 1910 7700 1860
Wire Wire Line
	7700 2210 7700 2260
Wire Wire Line
	7300 2260 7700 2260
Wire Wire Line
	7300 1860 7700 1860
$Comp
L device:C C51
U 1 1 5C1E4AD6
P 6400 1660
F 0 "C51" H 6150 1760 50  0000 L CNN
F 1 "1u" H 6200 1660 50  0000 L CNN
F 2 "Capacitor_SMD:C_0805_2012Metric_Pad1.15x1.40mm_HandSolder" H 6438 1510 50  0001 C CNN
F 3 "~" H 6400 1660 50  0001 C CNN
	1    6400 1660
	1    0    0    -1  
$EndComp
Text Label 6350 1860 2    50   ~ 0
N
Wire Wire Line
	6350 1860 6400 1860
Wire Wire Line
	6400 1860 6400 1810
Wire Wire Line
	6400 1510 6400 1460
Connection ~ 6400 1460
Wire Wire Line
	6400 1460 6450 1460
$Comp
L device:C C53
U 1 1 5C23428B
P 4770 1200
F 0 "C53" H 4570 1300 50  0000 L CNN
F 1 "1u" H 4570 1200 50  0000 L CNN
F 2 "Capacitor_SMD:C_0805_2012Metric_Pad1.15x1.40mm_HandSolder" H 4808 1050 50  0001 C CNN
F 3 "~" H 4770 1200 50  0001 C CNN
	1    4770 1200
	1    0    0    -1  
$EndComp
$Comp
L power:GND #PWR?
U 1 1 5C23444D
P 4770 1400
AR Path="/5B8E5441/5C23444D" Ref="#PWR?"  Part="1" 
AR Path="/5B8E53AF/5C23444D" Ref="#PWR018"  Part="1" 
F 0 "#PWR018" H 4770 1150 50  0001 C CNN
F 1 "GND" H 4775 1227 50  0000 C CNN
F 2 "" H 4770 1400 50  0001 C CNN
F 3 "" H 4770 1400 50  0001 C CNN
	1    4770 1400
	1    0    0    -1  
$EndComp
Wire Wire Line
	4770 1400 4770 1350
Wire Wire Line
	4770 1050 4770 1000
Connection ~ 4770 1000
Wire Wire Line
	4770 1000 4820 1000
$Comp
L device:R R98
U 1 1 5C3C66D6
P 1850 6270
F 0 "R98" V 1780 6200 50  0000 L CNN
F 1 "150k" V 1850 6180 50  0000 L CNN
F 2 "Resistor_SMD:R_0805_2012Metric_Pad1.15x1.40mm_HandSolder" V 1780 6270 50  0001 C CNN
F 3 "~" H 1850 6270 50  0001 C CNN
	1    1850 6270
	1    0    0    -1  
$EndComp
$Comp
L device:R R100
U 1 1 5C3C6778
P 2000 6270
F 0 "R100" V 1930 6170 50  0000 L CNN
F 1 "150k" V 2000 6180 50  0000 L CNN
F 2 "Resistor_SMD:R_0805_2012Metric_Pad1.15x1.40mm_HandSolder" V 1930 6270 50  0001 C CNN
F 3 "~" H 2000 6270 50  0001 C CNN
	1    2000 6270
	1    0    0    -1  
$EndComp
$Comp
L device:R R102
U 1 1 5C3C680E
P 2150 6270
F 0 "R102" V 2080 6170 50  0000 L CNN
F 1 "150k" V 2150 6180 50  0000 L CNN
F 2 "Resistor_SMD:R_0805_2012Metric_Pad1.15x1.40mm_HandSolder" V 2080 6270 50  0001 C CNN
F 3 "~" H 2150 6270 50  0001 C CNN
	1    2150 6270
	1    0    0    -1  
$EndComp
$Comp
L device:R R92
U 1 1 5C3C6977
P 1700 6670
F 0 "R92" H 1770 6716 50  0000 L CNN
F 1 "150k" H 1770 6625 50  0000 L CNN
F 2 "Resistor_SMD:R_0805_2012Metric_Pad1.15x1.40mm_HandSolder" V 1630 6670 50  0001 C CNN
F 3 "~" H 1700 6670 50  0001 C CNN
	1    1700 6670
	1    0    0    -1  
$EndComp
Wire Wire Line
	1700 6070 1850 6070
Wire Wire Line
	2150 6070 2150 6120
Connection ~ 1700 6070
Wire Wire Line
	2000 6120 2000 6070
Connection ~ 2000 6070
Wire Wire Line
	2000 6070 2150 6070
Wire Wire Line
	1850 6120 1850 6070
Connection ~ 1850 6070
Wire Wire Line
	1850 6070 2000 6070
Wire Wire Line
	1850 6420 1850 6470
Connection ~ 1850 6470
Wire Wire Line
	2000 6470 2000 6420
Wire Wire Line
	1850 6470 2000 6470
Wire Wire Line
	2000 6470 2150 6470
Wire Wire Line
	2150 6470 2150 6420
Connection ~ 2000 6470
Wire Wire Line
	2150 6470 2250 6470
Connection ~ 2150 6470
Text Label 4520 5910 2    50   ~ 0
5V_IN
$Comp
L device:R R93
U 1 1 5C5271AD
P 5020 6460
F 0 "R93" V 4950 6390 50  0000 L CNN
F 1 "150k" V 5020 6370 50  0000 L CNN
F 2 "Resistor_SMD:R_0805_2012Metric_Pad1.15x1.40mm_HandSolder" V 4950 6460 50  0001 C CNN
F 3 "~" H 5020 6460 50  0001 C CNN
	1    5020 6460
	1    0    0    -1  
$EndComp
$Comp
L power:GND #PWR09
U 1 1 5C5271B4
P 4570 6660
F 0 "#PWR09" H 4570 6410 50  0001 C CNN
F 1 "GND" H 4575 6487 50  0000 C CNN
F 2 "" H 4570 6660 50  0001 C CNN
F 3 "" H 4570 6660 50  0001 C CNN
	1    4570 6660
	1    0    0    -1  
$EndComp
Wire Wire Line
	5020 6310 5020 6260
Wire Wire Line
	4570 6560 4570 6660
Wire Wire Line
	5020 7010 5020 7060
$Comp
L power:GND #PWR010
U 1 1 5C5271BD
P 5020 7060
F 0 "#PWR010" H 5020 6810 50  0001 C CNN
F 1 "GND" H 5025 6887 50  0000 C CNN
F 2 "" H 5020 7060 50  0001 C CNN
F 3 "" H 5020 7060 50  0001 C CNN
	1    5020 7060
	1    0    0    -1  
$EndComp
Wire Wire Line
	5020 6610 5020 6660
Connection ~ 5020 6660
Wire Wire Line
	5020 6660 5020 6710
$Comp
L Sensor_Temperature:LM35-LP U7
U 1 1 5C5271C6
P 4570 6260
F 0 "U7" H 4240 6306 50  0000 R CNN
F 1 "LM35-DZ" H 4460 5990 50  0000 R CNN
F 2 "TO_SOT_Packages_THT:TO-92_Inline_Wide" H 4620 6010 50  0001 L CNN
F 3 "http://www.ti.com/lit/ds/symlink/lm35.pdf" H 4570 6260 50  0001 C CNN
	1    4570 6260
	1    0    0    -1  
$EndComp
Wire Wire Line
	4970 6260 5020 6260
Wire Wire Line
	4570 5960 4570 5910
Wire Wire Line
	4570 5910 4520 5910
Wire Wire Line
	5020 6660 5170 6660
$Comp
L device:R R99
U 1 1 5C5271D1
P 5170 6460
F 0 "R99" V 5100 6390 50  0000 L CNN
F 1 "150k" V 5170 6370 50  0000 L CNN
F 2 "Resistor_SMD:R_0805_2012Metric_Pad1.15x1.40mm_HandSolder" V 5100 6460 50  0001 C CNN
F 3 "~" H 5170 6460 50  0001 C CNN
	1    5170 6460
	1    0    0    -1  
$EndComp
$Comp
L device:R R101
U 1 1 5C5271D8
P 5340 6460
F 0 "R101" V 5260 6360 50  0000 L CNN
F 1 "150k" V 5340 6370 50  0000 L CNN
F 2 "Resistor_SMD:R_0805_2012Metric_Pad1.15x1.40mm_HandSolder" V 5270 6460 50  0001 C CNN
F 3 "~" H 5340 6460 50  0001 C CNN
	1    5340 6460
	1    0    0    -1  
$EndComp
$Comp
L device:R R103
U 1 1 5C5271DF
P 5500 6460
F 0 "R103" V 5420 6370 50  0000 L CNN
F 1 "150k" V 5500 6370 50  0000 L CNN
F 2 "Resistor_SMD:R_0805_2012Metric_Pad1.15x1.40mm_HandSolder" V 5430 6460 50  0001 C CNN
F 3 "~" H 5500 6460 50  0001 C CNN
	1    5500 6460
	1    0    0    -1  
$EndComp
$Comp
L device:R R94
U 1 1 5C5271E6
P 5020 6860
F 0 "R94" H 5090 6906 50  0000 L CNN
F 1 "150k" H 5090 6815 50  0000 L CNN
F 2 "Resistor_SMD:R_0805_2012Metric_Pad1.15x1.40mm_HandSolder" V 4950 6860 50  0001 C CNN
F 3 "~" H 5020 6860 50  0001 C CNN
	1    5020 6860
	1    0    0    -1  
$EndComp
Wire Wire Line
	5020 6260 5170 6260
Wire Wire Line
	5500 6260 5500 6310
Connection ~ 5020 6260
Wire Wire Line
	5340 6310 5340 6260
Connection ~ 5340 6260
Wire Wire Line
	5340 6260 5500 6260
Wire Wire Line
	5170 6310 5170 6260
Connection ~ 5170 6260
Wire Wire Line
	5170 6260 5340 6260
Wire Wire Line
	5170 6610 5170 6660
Connection ~ 5170 6660
Wire Wire Line
	5340 6660 5340 6610
Wire Wire Line
	5170 6660 5340 6660
Wire Wire Line
	5340 6660 5500 6660
Wire Wire Line
	5500 6660 5500 6610
Connection ~ 5340 6660
Connection ~ 5500 6660
Text Label 3020 5500 2    50   ~ 0
5V_IN
$Comp
L device:R R109
U 1 1 5C5FD65D
P 2830 6890
F 0 "R109" V 2750 6790 50  0000 L CNN
F 1 "150k" V 2830 6800 50  0000 L CNN
F 2 "Resistor_SMD:R_0805_2012Metric_Pad1.15x1.40mm_HandSolder" V 2760 6890 50  0001 C CNN
F 3 "~" H 2830 6890 50  0001 C CNN
	1    2830 6890
	1    0    0    -1  
$EndComp
$Comp
L power:GND #PWR012
U 1 1 5C5FD664
P 3070 6250
F 0 "#PWR012" H 3070 6000 50  0001 C CNN
F 1 "GND" H 3075 6077 50  0000 C CNN
F 2 "" H 3070 6250 50  0001 C CNN
F 3 "" H 3070 6250 50  0001 C CNN
	1    3070 6250
	1    0    0    -1  
$EndComp
Wire Wire Line
	2830 6740 2830 6690
Wire Wire Line
	3070 6150 3070 6250
Wire Wire Line
	2830 7440 2830 7490
$Comp
L power:GND #PWR014
U 1 1 5C5FD66D
P 2830 7490
F 0 "#PWR014" H 2830 7240 50  0001 C CNN
F 1 "GND" H 2835 7317 50  0000 C CNN
F 2 "" H 2830 7490 50  0001 C CNN
F 3 "" H 2830 7490 50  0001 C CNN
	1    2830 7490
	1    0    0    -1  
$EndComp
Wire Wire Line
	2830 7040 2830 7090
Connection ~ 2830 7090
Wire Wire Line
	2830 7090 2830 7140
$Comp
L Sensor_Temperature:LM35-LP U8
U 1 1 5C5FD676
P 3070 5850
F 0 "U8" H 2740 5896 50  0000 R CNN
F 1 "LM35-DZ" H 3170 6150 50  0000 R CNN
F 2 "TO_SOT_Packages_THT:TO-92_Inline_Wide" H 3120 5600 50  0001 L CNN
F 3 "http://www.ti.com/lit/ds/symlink/lm35.pdf" H 3070 5850 50  0001 C CNN
	1    3070 5850
	1    0    0    -1  
$EndComp
Wire Wire Line
	3070 5550 3070 5500
Wire Wire Line
	3070 5500 3020 5500
Wire Wire Line
	2830 7090 2990 7090
$Comp
L device:R R111
U 1 1 5C5FD681
P 2990 6890
F 0 "R111" V 2910 6790 50  0000 L CNN
F 1 "150k" V 2990 6800 50  0000 L CNN
F 2 "Resistor_SMD:R_0805_2012Metric_Pad1.15x1.40mm_HandSolder" V 2920 6890 50  0001 C CNN
F 3 "~" H 2990 6890 50  0001 C CNN
	1    2990 6890
	1    0    0    -1  
$EndComp
$Comp
L device:R R112
U 1 1 5C5FD688
P 3150 6890
F 0 "R112" V 3070 6790 50  0000 L CNN
F 1 "150k" V 3150 6800 50  0000 L CNN
F 2 "Resistor_SMD:R_0805_2012Metric_Pad1.15x1.40mm_HandSolder" V 3080 6890 50  0001 C CNN
F 3 "~" H 3150 6890 50  0001 C CNN
	1    3150 6890
	1    0    0    -1  
$EndComp
$Comp
L device:R R113
U 1 1 5C5FD68F
P 3310 6890
F 0 "R113" V 3230 6790 50  0000 L CNN
F 1 "150k" V 3310 6800 50  0000 L CNN
F 2 "Resistor_SMD:R_0805_2012Metric_Pad1.15x1.40mm_HandSolder" V 3240 6890 50  0001 C CNN
F 3 "~" H 3310 6890 50  0001 C CNN
	1    3310 6890
	1    0    0    -1  
$EndComp
$Comp
L device:R R110
U 1 1 5C5FD696
P 2830 7290
F 0 "R110" H 2900 7336 50  0000 L CNN
F 1 "150k" H 2900 7245 50  0000 L CNN
F 2 "Resistor_SMD:R_0805_2012Metric_Pad1.15x1.40mm_HandSolder" V 2760 7290 50  0001 C CNN
F 3 "~" H 2830 7290 50  0001 C CNN
	1    2830 7290
	1    0    0    -1  
$EndComp
Wire Wire Line
	2830 6690 2990 6690
Wire Wire Line
	3310 6690 3310 6700
Wire Wire Line
	3150 6740 3150 6690
Connection ~ 3150 6690
Wire Wire Line
	3150 6690 3310 6690
Wire Wire Line
	2990 6740 2990 6690
Connection ~ 2990 6690
Wire Wire Line
	2990 6690 3150 6690
Wire Wire Line
	2990 7040 2990 7090
Connection ~ 2990 7090
Wire Wire Line
	3150 7090 3150 7040
Wire Wire Line
	2990 7090 3150 7090
Wire Wire Line
	3150 7090 3310 7090
Wire Wire Line
	3310 7090 3310 7040
Connection ~ 3150 7090
Wire Wire Line
	3310 7090 3380 7090
Connection ~ 3310 7090
$Comp
L device:R R124
U 1 1 5C6B80B7
P 8600 1300
F 0 "R124" V 8520 1200 50  0000 L CNN
F 1 "150k" V 8600 1210 50  0000 L CNN
F 2 "Resistor_SMD:R_0805_2012Metric_Pad1.15x1.40mm_HandSolder" V 8530 1300 50  0001 C CNN
F 3 "~" H 8600 1300 50  0001 C CNN
	1    8600 1300
	1    0    0    -1  
$EndComp
Wire Wire Line
	8600 1850 8600 1900
$Comp
L power:GND #PWR017
U 1 1 5C6B80BF
P 8600 1900
F 0 "#PWR017" H 8600 1650 50  0001 C CNN
F 1 "GND" H 8605 1727 50  0000 C CNN
F 2 "" H 8600 1900 50  0001 C CNN
F 3 "" H 8600 1900 50  0001 C CNN
	1    8600 1900
	1    0    0    -1  
$EndComp
Wire Wire Line
	8600 1450 8600 1500
Connection ~ 8600 1500
Wire Wire Line
	8600 1500 8600 1550
Wire Wire Line
	8600 1500 8760 1500
$Comp
L device:R R126
U 1 1 5C6B80C9
P 8760 1300
F 0 "R126" V 8680 1200 50  0000 L CNN
F 1 "150k" V 8760 1210 50  0000 L CNN
F 2 "Resistor_SMD:R_0805_2012Metric_Pad1.15x1.40mm_HandSolder" V 8690 1300 50  0001 C CNN
F 3 "~" H 8760 1300 50  0001 C CNN
	1    8760 1300
	1    0    0    -1  
$EndComp
$Comp
L device:R R127
U 1 1 5C6B80D0
P 8920 1300
F 0 "R127" V 8840 1210 50  0000 L CNN
F 1 "150k" V 8920 1210 50  0000 L CNN
F 2 "Resistor_SMD:R_0805_2012Metric_Pad1.15x1.40mm_HandSolder" V 8850 1300 50  0001 C CNN
F 3 "~" H 8920 1300 50  0001 C CNN
	1    8920 1300
	1    0    0    -1  
$EndComp
$Comp
L device:R R128
U 1 1 5C6B80D7
P 9080 1300
F 0 "R128" V 9000 1200 50  0000 L CNN
F 1 "150k" V 9080 1210 50  0000 L CNN
F 2 "Resistor_SMD:R_0805_2012Metric_Pad1.15x1.40mm_HandSolder" V 9010 1300 50  0001 C CNN
F 3 "~" H 9080 1300 50  0001 C CNN
	1    9080 1300
	1    0    0    -1  
$EndComp
$Comp
L device:R R125
U 1 1 5C6B80DE
P 8600 1700
F 0 "R125" H 8670 1746 50  0000 L CNN
F 1 "150k" H 8670 1655 50  0000 L CNN
F 2 "Resistor_SMD:R_0805_2012Metric_Pad1.15x1.40mm_HandSolder" V 8530 1700 50  0001 C CNN
F 3 "~" H 8600 1700 50  0001 C CNN
	1    8600 1700
	1    0    0    -1  
$EndComp
Wire Wire Line
	8760 1450 8760 1500
Connection ~ 8760 1500
Wire Wire Line
	8920 1500 8920 1450
Wire Wire Line
	8760 1500 8920 1500
Wire Wire Line
	8920 1500 9080 1500
Wire Wire Line
	9080 1500 9080 1450
Connection ~ 8920 1500
Connection ~ 9080 1500
$Comp
L device:R R104
U 1 1 5C6E8D76
P 4510 4080
F 0 "R104" V 4430 3980 50  0000 L CNN
F 1 "150k" V 4510 3990 50  0000 L CNN
F 2 "Resistor_SMD:R_0805_2012Metric_Pad1.15x1.40mm_HandSolder" V 4440 4080 50  0001 C CNN
F 3 "~" H 4510 4080 50  0001 C CNN
	1    4510 4080
	1    0    0    -1  
$EndComp
Wire Wire Line
	4510 4630 4510 4680
$Comp
L power:GND #PWR011
U 1 1 5C6E8D7E
P 4510 4680
F 0 "#PWR011" H 4510 4430 50  0001 C CNN
F 1 "GND" H 4515 4507 50  0000 C CNN
F 2 "" H 4510 4680 50  0001 C CNN
F 3 "" H 4510 4680 50  0001 C CNN
	1    4510 4680
	1    0    0    -1  
$EndComp
Wire Wire Line
	4510 4230 4510 4280
Connection ~ 4510 4280
Wire Wire Line
	4510 4280 4510 4330
Wire Wire Line
	4510 4280 4660 4280
$Comp
L device:R R106
U 1 1 5C6E8D88
P 4660 4080
F 0 "R106" V 4590 3980 50  0000 L CNN
F 1 "150k" V 4660 3990 50  0000 L CNN
F 2 "Resistor_SMD:R_0805_2012Metric_Pad1.15x1.40mm_HandSolder" V 4590 4080 50  0001 C CNN
F 3 "~" H 4660 4080 50  0001 C CNN
	1    4660 4080
	1    0    0    -1  
$EndComp
$Comp
L device:R R107
U 1 1 5C6E8D8F
P 4820 4080
F 0 "R107" V 4740 3980 50  0000 L CNN
F 1 "150k" V 4820 3990 50  0000 L CNN
F 2 "Resistor_SMD:R_0805_2012Metric_Pad1.15x1.40mm_HandSolder" V 4750 4080 50  0001 C CNN
F 3 "~" H 4820 4080 50  0001 C CNN
	1    4820 4080
	1    0    0    -1  
$EndComp
$Comp
L device:R R108
U 1 1 5C6E8D96
P 4980 4080
F 0 "R108" V 4900 3980 50  0000 L CNN
F 1 "150k" V 4980 3990 50  0000 L CNN
F 2 "Resistor_SMD:R_0805_2012Metric_Pad1.15x1.40mm_HandSolder" V 4910 4080 50  0001 C CNN
F 3 "~" H 4980 4080 50  0001 C CNN
	1    4980 4080
	1    0    0    -1  
$EndComp
$Comp
L device:R R105
U 1 1 5C6E8D9D
P 4510 4480
F 0 "R105" H 4580 4526 50  0000 L CNN
F 1 "150k" H 4580 4435 50  0000 L CNN
F 2 "Resistor_SMD:R_0805_2012Metric_Pad1.15x1.40mm_HandSolder" V 4440 4480 50  0001 C CNN
F 3 "~" H 4510 4480 50  0001 C CNN
	1    4510 4480
	1    0    0    -1  
$EndComp
Wire Wire Line
	4660 4230 4660 4280
Connection ~ 4660 4280
Wire Wire Line
	4820 4280 4820 4230
Wire Wire Line
	4660 4280 4820 4280
Wire Wire Line
	4820 4280 4980 4280
Wire Wire Line
	4980 4280 4980 4230
Connection ~ 4820 4280
Connection ~ 4980 4280
Text Label 4460 3880 2    50   ~ 0
I_T
Wire Wire Line
	4460 3880 4510 3880
Wire Wire Line
	4980 3880 4980 3930
Wire Wire Line
	4820 3930 4820 3880
Connection ~ 4820 3880
Wire Wire Line
	4820 3880 4980 3880
Wire Wire Line
	4660 3930 4660 3880
Connection ~ 4660 3880
Wire Wire Line
	4660 3880 4820 3880
Wire Wire Line
	4510 3930 4510 3880
Connection ~ 4510 3880
Wire Wire Line
	4510 3880 4660 3880
$Comp
L device:R R114
U 1 1 5C8549D9
P 2790 4110
F 0 "R114" V 2710 4010 50  0000 L CNN
F 1 "150k" V 2790 4010 50  0000 L CNN
F 2 "Resistor_SMD:R_0805_2012Metric_Pad1.15x1.40mm_HandSolder" V 2720 4110 50  0001 C CNN
F 3 "~" H 2790 4110 50  0001 C CNN
	1    2790 4110
	1    0    0    -1  
$EndComp
Wire Wire Line
	2790 4660 2790 4710
$Comp
L power:GND #PWR015
U 1 1 5C8549E1
P 2790 4710
F 0 "#PWR015" H 2790 4460 50  0001 C CNN
F 1 "GND" H 2795 4537 50  0000 C CNN
F 2 "" H 2790 4710 50  0001 C CNN
F 3 "" H 2790 4710 50  0001 C CNN
	1    2790 4710
	1    0    0    -1  
$EndComp
Wire Wire Line
	2790 4260 2790 4310
Connection ~ 2790 4310
Wire Wire Line
	2790 4310 2790 4360
Wire Wire Line
	2790 4310 2950 4310
$Comp
L device:R R116
U 1 1 5C8549EB
P 2950 4110
F 0 "R116" V 2870 4010 50  0000 L CNN
F 1 "150k" V 2950 4020 50  0000 L CNN
F 2 "Resistor_SMD:R_0805_2012Metric_Pad1.15x1.40mm_HandSolder" V 2880 4110 50  0001 C CNN
F 3 "~" H 2950 4110 50  0001 C CNN
	1    2950 4110
	1    0    0    -1  
$EndComp
$Comp
L device:R R117
U 1 1 5C8549F2
P 3110 4110
F 0 "R117" V 3030 4010 50  0000 L CNN
F 1 "150k" V 3110 4020 50  0000 L CNN
F 2 "Resistor_SMD:R_0805_2012Metric_Pad1.15x1.40mm_HandSolder" V 3040 4110 50  0001 C CNN
F 3 "~" H 3110 4110 50  0001 C CNN
	1    3110 4110
	1    0    0    -1  
$EndComp
$Comp
L device:R R118
U 1 1 5C8549F9
P 3270 4110
F 0 "R118" V 3190 4010 50  0000 L CNN
F 1 "150k" V 3270 4020 50  0000 L CNN
F 2 "Resistor_SMD:R_0805_2012Metric_Pad1.15x1.40mm_HandSolder" V 3200 4110 50  0001 C CNN
F 3 "~" H 3270 4110 50  0001 C CNN
	1    3270 4110
	1    0    0    -1  
$EndComp
$Comp
L device:R R115
U 1 1 5C854A00
P 2790 4510
F 0 "R115" H 2860 4556 50  0000 L CNN
F 1 "150k" H 2860 4465 50  0000 L CNN
F 2 "Resistor_SMD:R_0805_2012Metric_Pad1.15x1.40mm_HandSolder" V 2720 4510 50  0001 C CNN
F 3 "~" H 2790 4510 50  0001 C CNN
	1    2790 4510
	1    0    0    -1  
$EndComp
Wire Wire Line
	2950 4260 2950 4310
Connection ~ 2950 4310
Wire Wire Line
	3110 4310 3110 4260
Wire Wire Line
	2950 4310 3110 4310
Wire Wire Line
	3110 4310 3270 4310
Wire Wire Line
	3270 4310 3270 4260
Connection ~ 3110 4310
Connection ~ 3270 4310
Wire Wire Line
	2740 3910 2790 3910
Wire Wire Line
	2790 3910 2790 3960
Wire Wire Line
	2790 3910 2950 3910
Wire Wire Line
	2950 3910 2950 3960
Connection ~ 2790 3910
Wire Wire Line
	2950 3910 3110 3910
Wire Wire Line
	3110 3910 3110 3960
Connection ~ 2950 3910
Wire Wire Line
	3110 3910 3270 3910
Wire Wire Line
	3270 3910 3270 3960
Connection ~ 3110 3910
$Comp
L device:R R119
U 1 1 5CAAF1FD
P 1140 4040
F 0 "R119" V 1060 3940 50  0000 L CNN
F 1 "150k" V 1140 3950 50  0000 L CNN
F 2 "Resistor_SMD:R_0805_2012Metric_Pad1.15x1.40mm_HandSolder" V 1070 4040 50  0001 C CNN
F 3 "~" H 1140 4040 50  0001 C CNN
	1    1140 4040
	1    0    0    -1  
$EndComp
Wire Wire Line
	1140 4590 1140 4640
$Comp
L power:GND #PWR016
U 1 1 5CAAF205
P 1140 4640
F 0 "#PWR016" H 1140 4390 50  0001 C CNN
F 1 "GND" H 1145 4467 50  0000 C CNN
F 2 "" H 1140 4640 50  0001 C CNN
F 3 "" H 1140 4640 50  0001 C CNN
	1    1140 4640
	1    0    0    -1  
$EndComp
Wire Wire Line
	1140 4190 1140 4240
Connection ~ 1140 4240
Wire Wire Line
	1140 4240 1140 4290
Wire Wire Line
	1140 4240 1300 4240
$Comp
L device:R R121
U 1 1 5CAAF20F
P 1300 4040
F 0 "R121" V 1220 3940 50  0000 L CNN
F 1 "150k" V 1300 3950 50  0000 L CNN
F 2 "Resistor_SMD:R_0805_2012Metric_Pad1.15x1.40mm_HandSolder" V 1230 4040 50  0001 C CNN
F 3 "~" H 1300 4040 50  0001 C CNN
	1    1300 4040
	1    0    0    -1  
$EndComp
$Comp
L device:R R122
U 1 1 5CAAF216
P 1460 4040
F 0 "R122" V 1380 3940 50  0000 L CNN
F 1 "150k" V 1460 3950 50  0000 L CNN
F 2 "Resistor_SMD:R_0805_2012Metric_Pad1.15x1.40mm_HandSolder" V 1390 4040 50  0001 C CNN
F 3 "~" H 1460 4040 50  0001 C CNN
	1    1460 4040
	1    0    0    -1  
$EndComp
$Comp
L device:R R123
U 1 1 5CAAF21D
P 1620 4040
F 0 "R123" V 1540 3950 50  0000 L CNN
F 1 "150k" V 1620 3950 50  0000 L CNN
F 2 "Resistor_SMD:R_0805_2012Metric_Pad1.15x1.40mm_HandSolder" V 1550 4040 50  0001 C CNN
F 3 "~" H 1620 4040 50  0001 C CNN
	1    1620 4040
	1    0    0    -1  
$EndComp
$Comp
L device:R R120
U 1 1 5CAAF224
P 1140 4440
F 0 "R120" H 1210 4486 50  0000 L CNN
F 1 "150k" H 1210 4395 50  0000 L CNN
F 2 "Resistor_SMD:R_0805_2012Metric_Pad1.15x1.40mm_HandSolder" V 1070 4440 50  0001 C CNN
F 3 "~" H 1140 4440 50  0001 C CNN
	1    1140 4440
	1    0    0    -1  
$EndComp
Wire Wire Line
	1300 4190 1300 4240
Connection ~ 1300 4240
Wire Wire Line
	1460 4240 1460 4190
Wire Wire Line
	1300 4240 1460 4240
Wire Wire Line
	1460 4240 1620 4240
Wire Wire Line
	1620 4240 1620 4190
Connection ~ 1460 4240
Connection ~ 1620 4240
Wire Wire Line
	1090 3840 1140 3840
Wire Wire Line
	1140 3840 1140 3890
Wire Wire Line
	1140 3840 1300 3840
Wire Wire Line
	1300 3840 1300 3890
Connection ~ 1140 3840
Wire Wire Line
	1300 3840 1460 3840
Wire Wire Line
	1460 3840 1460 3890
Connection ~ 1300 3840
Wire Wire Line
	1460 3840 1620 3840
Wire Wire Line
	1620 3840 1620 3890
Connection ~ 1460 3840
Wire Wire Line
	9080 1500 9250 1500
Wire Wire Line
	9080 1150 9080 1100
Wire Wire Line
	9080 1100 8920 1100
Wire Wire Line
	8600 1150 8600 1100
Connection ~ 8600 1100
Wire Wire Line
	8600 1100 8550 1100
Wire Wire Line
	8760 1150 8760 1100
Connection ~ 8760 1100
Wire Wire Line
	8760 1100 8600 1100
Wire Wire Line
	8920 1150 8920 1100
Connection ~ 8920 1100
Wire Wire Line
	8920 1100 8760 1100
Text Label 8550 1100 2    50   ~ 0
I_OUT
Wire Wire Line
	9920 2010 10720 2010
Wire Wire Line
	9920 1730 9920 2010
Wire Wire Line
	10720 1630 10720 2010
Wire Wire Line
	9000 3180 9900 3180
$Comp
L device:R R35
U 1 1 5BD6F3D9
P 10650 2580
F 0 "R35" V 10560 2510 50  0000 L CNN
F 1 "150k" V 10650 2490 50  0000 L CNN
F 2 "Resistor_SMD:R_0805_2012Metric_Pad1.15x1.40mm_HandSolder" V 10580 2580 50  0001 C CNN
F 3 "~" H 10650 2580 50  0001 C CNN
	1    10650 2580
	1    0    0    -1  
$EndComp
Wire Wire Line
	10650 2430 10650 2380
Wire Wire Line
	10650 2730 10650 2780
Connection ~ 10650 2780
Wire Wire Line
	10650 2780 10650 2830
Wire Wire Line
	10650 2780 10820 2780
$Comp
L device:R R37
U 1 1 5BD6F3E6
P 10820 2580
F 0 "R37" V 10740 2510 50  0000 L CNN
F 1 "150k" V 10820 2480 50  0000 L CNN
F 2 "Resistor_SMD:R_0805_2012Metric_Pad1.15x1.40mm_HandSolder" V 10750 2580 50  0001 C CNN
F 3 "~" H 10820 2580 50  0001 C CNN
	1    10820 2580
	1    0    0    -1  
$EndComp
$Comp
L device:R R84
U 1 1 5BD6F3ED
P 10980 2580
F 0 "R84" V 10900 2510 50  0000 L CNN
F 1 "150k" V 10980 2490 50  0000 L CNN
F 2 "Resistor_SMD:R_0805_2012Metric_Pad1.15x1.40mm_HandSolder" V 10910 2580 50  0001 C CNN
F 3 "~" H 10980 2580 50  0001 C CNN
	1    10980 2580
	1    0    0    -1  
$EndComp
$Comp
L device:R R129
U 1 1 5BD6F3F4
P 11140 2580
F 0 "R129" V 11060 2490 50  0000 L CNN
F 1 "150k" V 11140 2490 50  0000 L CNN
F 2 "Resistor_SMD:R_0805_2012Metric_Pad1.15x1.40mm_HandSolder" V 11070 2580 50  0001 C CNN
F 3 "~" H 11140 2580 50  0001 C CNN
	1    11140 2580
	1    0    0    -1  
$EndComp
$Comp
L device:R R36
U 1 1 5BD6F3FB
P 10650 2980
F 0 "R36" H 10720 3026 50  0000 L CNN
F 1 "150k" H 10720 2935 50  0000 L CNN
F 2 "Resistor_SMD:R_0805_2012Metric_Pad1.15x1.40mm_HandSolder" V 10580 2980 50  0001 C CNN
F 3 "~" H 10650 2980 50  0001 C CNN
	1    10650 2980
	1    0    0    -1  
$EndComp
Wire Wire Line
	11140 2380 11140 2430
Wire Wire Line
	10820 2430 10820 2380
Wire Wire Line
	10820 2730 10820 2780
Connection ~ 10820 2780
Wire Wire Line
	10980 2780 10980 2730
Wire Wire Line
	10820 2780 10980 2780
Wire Wire Line
	10980 2780 11140 2780
Wire Wire Line
	11140 2780 11140 2730
Connection ~ 10980 2780
Text Label 10400 2230 2    50   ~ 0
OMEGA
Wire Wire Line
	9600 2380 10500 2380
Wire Wire Line
	10500 3180 10650 3180
Wire Wire Line
	10650 3180 10650 3130
Connection ~ 10500 3180
Connection ~ 10650 2380
Wire Wire Line
	10650 2380 10820 2380
Wire Wire Line
	10820 2380 10980 2380
Wire Wire Line
	10980 2380 10980 2430
Connection ~ 10820 2380
Wire Wire Line
	10980 2380 11140 2380
Connection ~ 10980 2380
Wire Wire Line
	6640 4440 6640 4540
Wire Wire Line
	6640 4540 6640 4640
Connection ~ 6640 4540
Wire Wire Line
	6640 4640 6640 4740
Connection ~ 6640 4640
Wire Wire Line
	6640 4740 6640 4990
Wire Wire Line
	6640 4990 7190 4990
Connection ~ 6640 4740
Connection ~ 7190 4990
Wire Wire Line
	7190 4990 7490 4990
Wire Wire Line
	7490 4990 7490 4940
Wire Wire Line
	6590 4990 6640 4990
Connection ~ 6640 4990
Text HLabel 3600 1500 0    50   Input ~ 0
VCC_3V3
Text Label 4000 1500 0    50   ~ 0
VCC_3V3
Wire Wire Line
	3600 1500 4000 1500
Wire Notes Line
	500  1600 4400 1600
Wire Notes Line
	500  800  4400 800 
Wire Notes Line
	4400 500  4400 1600
Text Label 8740 3810 2    50   ~ 0
VCC_3V3
Text Label 8610 5200 2    50   ~ 0
VCC_3V3
Wire Wire Line
	8900 2430 8950 2430
Wire Wire Line
	10500 2380 10500 2230
Wire Wire Line
	10500 2230 10400 2230
Connection ~ 10500 2380
Wire Wire Line
	10500 2380 10650 2380
Text Notes 9050 2930 0    50   ~ 0
The frequency \nmeasurement \nhas to be reviewed
$Comp
L device:R R15
U 1 1 5BF97A3C
P 9100 2430
F 0 "R15" V 9020 2360 50  0000 L CNN
F 1 "470" V 9100 2370 50  0000 L CNN
F 2 "Resistors_SMD:R_0805_HandSoldering" V 9030 2430 50  0001 C CNN
F 3 "~" H 9100 2430 50  0001 C CNN
	1    9100 2430
	0    1    1    0   
$EndComp
Wire Wire Line
	8790 4460 8870 4460
Wire Wire Line
	8960 4290 8870 4290
Wire Wire Line
	8870 4290 8870 4460
Connection ~ 8870 4460
Wire Wire Line
	8870 4460 8960 4460
Wire Wire Line
	9300 4140 9300 4210
Wire Wire Line
	9300 4210 9460 4210
Wire Wire Line
	10260 4210 10480 4210
Wire Wire Line
	10480 4210 10480 4140
Wire Wire Line
	10480 4140 10520 4140
$Comp
L device:R R52
U 1 1 5C40DDB7
P 10610 4290
F 0 "R52" V 10530 4290 50  0000 C CNN
F 1 "10k" V 10610 4280 50  0000 C CNN
F 2 "Resistor_SMD:R_0805_2012Metric_Pad1.15x1.40mm_HandSolder" V 10540 4290 50  0001 C CNN
F 3 "~" H 10610 4290 50  0001 C CNN
	1    10610 4290
	0    -1   1    0   
$EndComp
Wire Wire Line
	10860 4290 10760 4290
Wire Wire Line
	10860 4290 10860 4460
Wire Wire Line
	10460 4290 10370 4290
Wire Wire Line
	10370 4290 10370 4410
Connection ~ 10370 4410
Wire Wire Line
	10370 4410 10260 4410
Wire Wire Line
	10470 5600 10470 5520
Wire Wire Line
	10470 5520 10790 5520
Wire Wire Line
	10790 5520 10790 5600
Wire Wire Line
	10790 5600 10880 5600
Wire Wire Line
	10430 5660 10480 5660
Wire Wire Line
	10430 5660 10430 5800
Wire Wire Line
	10780 5660 10880 5660
Wire Wire Line
	10880 5660 10880 5850
Wire Wire Line
	8990 5600 8990 5500
Wire Wire Line
	8990 5500 9290 5500
Wire Wire Line
	9290 5500 9290 5600
Wire Wire Line
	9290 5600 9480 5600
Wire Wire Line
	9280 5630 9330 5630
Wire Wire Line
	8980 5630 8880 5630
Wire Wire Line
	8880 5630 8880 5850
$Comp
L device:R R50
U 1 1 5C130932
P 9130 5630
F 0 "R50" V 9050 5630 50  0000 C CNN
F 1 "10k" V 9130 5630 50  0000 C CNN
F 2 "Resistor_SMD:R_0805_2012Metric_Pad1.15x1.40mm_HandSolder" V 9060 5630 50  0001 C CNN
F 3 "~" H 9130 5630 50  0001 C CNN
	1    9130 5630
	0    1    1    0   
$EndComp
Wire Wire Line
	9330 5630 9330 5800
Wire Wire Line
	10970 5580 10880 5580
Connection ~ 10880 5580
Wire Wire Line
	10880 5580 10880 5600
Wire Wire Line
	8770 5600 8770 5560
Wire Wire Line
	8770 5560 8930 5560
Connection ~ 8930 5560
Wire Wire Line
	8930 5560 8930 5600
Wire Wire Line
	9020 3820 9020 3810
Connection ~ 9020 3810
Wire Wire Line
	9020 3810 9310 3810
Wire Wire Line
	9020 4120 9020 4140
Wire Wire Line
	8970 4140 9020 4140
Connection ~ 9020 4140
Wire Wire Line
	9020 4140 9300 4140
Wire Wire Line
	8970 4140 8970 4050
Wire Wire Line
	8970 4050 8900 4050
Wire Wire Line
	8900 4050 8900 4060
Wire Wire Line
	8790 3810 9020 3810
Wire Wire Line
	10520 3820 10520 3810
Connection ~ 10520 3810
Wire Wire Line
	10520 3810 10410 3810
Wire Wire Line
	10520 4120 10520 4140
Connection ~ 10520 4140
Wire Wire Line
	10520 4140 10760 4140
Wire Wire Line
	10760 4140 10760 4050
Wire Wire Line
	10760 4050 10790 4050
Wire Wire Line
	10520 3810 10910 3810
Text Label 9140 1870 2    50   ~ 0
I_OUT_3.3
Text Label 1920 4240 2    50   ~ 0
I_R_3.3
Text Label 3580 4310 2    50   ~ 0
I_S_3.3
Text Label 5290 4280 2    50   ~ 0
I_T_3.3
Wire Wire Line
	6780 5840 6730 5840
Wire Wire Line
	6780 5940 6730 5940
Wire Wire Line
	6780 6040 6730 6040
Wire Wire Line
	6780 6140 6730 6140
Text Label 3380 7090 0    50   ~ 0
TEMP_3.3_S
Wire Wire Line
	6780 5740 6730 5740
Text Label 5810 6810 2    50   ~ 0
TEMP_3.3_T
Text Label 2250 6470 0    50   ~ 0
TEMP_3.3_R
Wire Wire Line
	6780 5540 6730 5540
Wire Wire Line
	6780 5640 6730 5640
Text Label 7170 5270 2    50   ~ 0
REF_4.096
Wire Wire Line
	5520 1000 5560 1000
Wire Wire Line
	7280 5340 7280 5270
Wire Wire Line
	7280 5270 7170 5270
Wire Wire Line
	8140 5250 8140 5270
Wire Wire Line
	8020 5250 8140 5250
Wire Wire Line
	7720 5250 7620 5250
Wire Wire Line
	7620 5250 7620 5280
Wire Wire Line
	7620 5280 7580 5280
Connection ~ 7580 5280
Wire Wire Line
	7580 5280 7580 5250
Text Label 11090 3210 2    50   ~ 0
OMEGA_3.3
Text Label 6640 4340 2    50   ~ 0
OMEGA_3.3
Wire Wire Line
	6690 4340 6640 4340
Wire Wire Line
	6690 4240 6640 4240
Connection ~ 5450 2700
Text Label 5800 2700 2    50   ~ 0
V_T_MES
Wire Wire Line
	3660 2800 3760 2800
Connection ~ 3660 2800
Text Label 3760 2800 0    50   ~ 0
V_S_MES
Wire Wire Line
	6690 4140 6640 4140
Text Label 2290 2720 2    50   ~ 0
V_R_MES
Connection ~ 1990 2720
Wire Wire Line
	1040 3110 880  3110
Wire Wire Line
	4500 3090 4360 3090
Text Label 880  3110 2    50   ~ 0
REF_2.048
Text Label 2310 3200 0    50   ~ 0
REF_2.048
Text Label 4360 3090 2    50   ~ 0
REF_2.048
Wire Wire Line
	6690 4040 6640 4040
Wire Wire Line
	7490 3790 7560 3790
Wire Wire Line
	7560 3790 7560 3740
Connection ~ 7490 3790
Wire Wire Line
	7490 3790 7490 3740
Wire Wire Line
	7860 3740 7890 3740
Wire Wire Line
	7890 3860 7840 3860
Wire Wire Line
	7890 3740 7890 3860
Wire Wire Line
	2310 3200 2710 3200
Wire Wire Line
	3470 5850 3530 5850
Connection ~ 3310 6700
Wire Wire Line
	3310 6700 3310 6740
Wire Wire Line
	3530 6700 3530 5850
Wire Wire Line
	3310 6700 3530 6700
Text Notes 3240 6190 0    47   ~ 0
S
Text Notes 1400 6420 0    47   ~ 0
R
Text Notes 4710 6600 0    47   ~ 0
T\n
Wire Notes Line
	4130 7510 4140 7510
Wire Notes Line
	5950 1770 5950 7520
Wire Notes Line
	5950 7520 5970 7520
Wire Notes Line
	580  5000 2180 5000
Wire Notes Line
	2420 5000 3980 5000
Wire Notes Line
	3980 5000 3980 5010
Wire Notes Line
	4220 4990 5830 4990
Wire Notes Line
	5830 4990 5830 5000
Wire Notes Line
	540  3290 2180 3290
Wire Notes Line
	2380 3290 4050 3290
Wire Notes Line
	4050 3290 4050 3280
Wire Notes Line
	4160 3290 5870 3290
Text Notes 900  1730 0    47   ~ 0
R CHANNEL MEASUREMENTS
Text Notes 2700 1720 0    47   ~ 0
S CHANNEL MEASUREMENTS
Text Notes 4490 1730 0    47   ~ 0
T CHANNEL MEASUREMENTS
Text Notes 510  1880 0    47   ~ 0
VOLTAGE MEAS.
Wire Notes Line
	500  1750 5950 1750
Wire Notes Line
	6730 -320 8230 -320
Wire Notes Line
	5960 1600 5960 1720
Text Notes 1380 2030 0    47   ~ 0
X_COND is the input from the bridge divider in the power block.\nREF_2.048 is an offset introduced to render the measurement voltage bi-directional.\nThis should only be used for AC applications.
Text Notes 570  3450 0    47   ~ 0
CURRENT MEAS.
Text Notes 1440 3600 0    47   ~ 0
I_X is the current measurement input from the hall-effect sensor in the power block.\nThese resistances are needed to bring the voltage from 5V to 4.096V and make it compatible \nwith the external ADC reference.
Text Notes 590  5210 0    47   ~ 0
TEMPERATURE MEAS.
Text Notes 1460 5360 0    47   ~ 0
TEMP_3.3_X is the temperature output that goes to the external ADC.\nThese resistances are needed to bring the voltage from 5V to 4.096V and make it compatible \nwith the external ADC reference.
Wire Wire Line
	1620 4240 1920 4240
Wire Wire Line
	4980 4280 5290 4280
Wire Wire Line
	3270 4310 3580 4310
Wire Wire Line
	5830 6660 5830 6810
Wire Wire Line
	5830 6810 5810 6810
Wire Wire Line
	5500 6660 5830 6660
Wire Wire Line
	5450 2700 5800 2700
Wire Wire Line
	1990 2720 2290 2720
Wire Wire Line
	10250 1260 10170 1260
Connection ~ 10170 1260
Wire Wire Line
	10170 1260 10170 1330
Wire Wire Line
	10550 1260 10690 1260
Wire Wire Line
	10690 1260 10690 1370
Wire Wire Line
	10690 1370 10630 1370
Wire Wire Line
	11200 3210 11090 3210
Wire Wire Line
	11200 3210 11200 2780
Wire Wire Line
	11140 2780 11200 2780
Connection ~ 11140 2780
Wire Wire Line
	8900 2380 8900 2300
Wire Wire Line
	8900 2300 9250 2300
Wire Wire Line
	9250 2300 9250 2380
Connection ~ 8900 2380
Wire Notes Line
	8290 3260 8290 540 
Wire Notes Line
	8290 540  8280 540 
Wire Notes Line
	8280 540  8280 550 
Wire Notes Line
	5970 2390 8280 2390
Wire Notes Line
	8280 2390 8280 2380
Wire Notes Line
	8350 3300 11120 3300
Wire Notes Line
	11120 3300 11120 3310
Text Notes 6160 610  0    47   ~ 0
VOLTAGE REFERENCES
Text Notes 6020 1050 0    47   ~ 0
These references are used to provide a fixed reference\nvalue to the ADCs. One reference connected to the GND\nand the other to the NEUTRAL. \nThe NEUTRAL reference is used to generate a fixed 2.048V\noffset used by the voltage measurements.
Wire Wire Line
	9250 1500 9250 1870
Wire Wire Line
	9250 1870 9140 1870
Wire Notes Line
	8310 2110 9350 2110
Text Notes 9090 630  0    47   ~ 0
ZERO CROSS\nMEASUREMENT
Text Notes 9100 950  0    47   ~ 0
This circuit is used\nto measure the zero\ncrossing of phase T. \nMUST BE VALIDATED.
Wire Notes Line
	9340 980  9030 980 
Wire Notes Line
	9030 980  9030 520 
Wire Notes Line
	9350 2090 9350 980 
Wire Notes Line
	9130 640  9800 640 
Text Notes 8340 630  0    47   ~ 0
OUTPUT\nCURRENT
Text Notes 8320 1030 0    47   ~ 0
These resistors\nadapt the output\ncurrent meas.\nfrom 5V to 4.096V\nof the ADC
Wire Notes Line
	8330 640  8980 640 
Text Notes 6040 2540 0    47   ~ 0
ADC AND ISOLATOR
Text Notes 6050 3490 0    47   ~ 0
This power converter uses 2 external ADC as \na low cost solution to measuring voltage and\ncurrent accross its different channels.\n\nA pair of ADC + isolator is referenced to the \nNEUTRAL and measures the voltages of the \nsystem together with zero crossing.\n\nThe other pair of ADC + isolator is referenced\nto the GND and measures the currents of all \nphases, the output current, all temperatures \nand the output voltage.
$EndSCHEMATC
