EESchema Schematic File Version 4
LIBS:Wind_module-cache
EELAYER 26 0
EELAYER END
$Descr A4 11693 8268
encoding utf-8
Sheet 2 6
Title ""
Date ""
Rev ""
Comp ""
Comment1 ""
Comment2 ""
Comment3 ""
Comment4 ""
$EndDescr
Text Label 2220 1540 0    50   ~ 0
N
$Comp
L device:L L3
U 1 1 5B90EA89
P 1370 2500
F 0 "L3" V 1560 2500 50  0000 C CNN
F 1 "100u" V 1469 2500 50  0000 C CNN
F 2 "Wind_module:L_Toroid_Vertical_RS_1048448" H 1370 2500 50  0001 C CNN
F 3 "~" H 1370 2500 50  0001 C CNN
	1    1370 2500
	0    -1   -1   0   
$EndComp
Wire Wire Line
	1600 4400 1600 4450
Text Label 900  3750 2    50   ~ 0
5V_IN
Text Label 1750 3550 2    50   ~ 0
I_R
Wire Wire Line
	1800 3600 1800 3550
Wire Wire Line
	1800 3550 1750 3550
$Comp
L device:C C3
U 1 1 5B90EF29
P 1000 4000
F 0 "C3" H 1115 4046 50  0000 L CNN
F 1 "100n" H 1115 3955 50  0000 L CNN
F 2 "Capacitor_SMD:C_0805_2012Metric_Pad1.15x1.40mm_HandSolder" H 1038 3850 50  0001 C CNN
F 3 "~" H 1000 4000 50  0001 C CNN
	1    1000 4000
	1    0    0    -1  
$EndComp
Wire Wire Line
	900  3750 1000 3750
Wire Wire Line
	1000 3750 1000 3850
Wire Wire Line
	1000 3750 1250 3750
Wire Wire Line
	1250 3750 1250 4000
Wire Wire Line
	1250 4000 1400 4000
Connection ~ 1000 3750
Wire Wire Line
	1000 4150 1000 4200
$Comp
L power:GND #PWR0101
U 1 1 5B90F2B7
P 1000 4200
F 0 "#PWR0101" H 1000 3950 50  0001 C CNN
F 1 "GND" H 1005 4027 50  0000 C CNN
F 2 "" H 1000 4200 50  0001 C CNN
F 3 "" H 1000 4200 50  0001 C CNN
	1    1000 4200
	1    0    0    -1  
$EndComp
$Comp
L power:GND #PWR0102
U 1 1 5B90F2E1
P 2250 4050
F 0 "#PWR0102" H 2250 3800 50  0001 C CNN
F 1 "GND" H 2255 3877 50  0000 C CNN
F 2 "" H 2250 4050 50  0001 C CNN
F 3 "" H 2250 4050 50  0001 C CNN
	1    2250 4050
	1    0    0    -1  
$EndComp
$Comp
L device:C C6
U 1 1 5B90F41E
P 2250 3750
F 0 "C6" H 2365 3796 50  0000 L CNN
F 1 "1n" H 2365 3705 50  0000 L CNN
F 2 "Capacitor_SMD:C_0805_2012Metric_Pad1.15x1.40mm_HandSolder" H 2288 3600 50  0001 C CNN
F 3 "~" H 2250 3750 50  0001 C CNN
	1    2250 3750
	1    0    0    -1  
$EndComp
Text Label 850  2310 2    50   ~ 0
VR
Wire Wire Line
	2000 4400 2000 4450
$Comp
L device:R R1
U 1 1 5B910127
P 1010 5910
F 0 "R1" H 1080 5956 50  0000 L CNN
F 1 "10k" H 1080 5865 50  0000 L CNN
F 2 "Resistor_SMD:R_0805_2012Metric_Pad1.15x1.40mm_HandSolder" V 940 5910 50  0001 C CNN
F 3 "~" H 1010 5910 50  0001 C CNN
	1    1010 5910
	1    0    0    -1  
$EndComp
Wire Wire Line
	1010 6060 1010 6110
Connection ~ 1010 6110
Wire Wire Line
	1010 6110 1510 6110
Wire Wire Line
	1010 5760 1010 5510
Wire Wire Line
	1010 5510 1210 5510
Wire Wire Line
	1510 5710 1510 6110
Connection ~ 1510 6110
Wire Wire Line
	1510 5310 1510 5060
$Comp
L Wind_module_lib:Diode_Power D1
U 1 1 5B9154A8
P 2060 5060
F 0 "D1" H 2068 4606 50  0000 L CNN
F 1 "MBRD1045G" H 2020 4570 50  0001 L CNN
F 2 "TO_SOT_Packages_SMD:TO-252-2" H 2060 5060 50  0001 C CNN
F 3 "" H 2060 5060 50  0001 C CNN
	1    2060 5060
	1    0    0    -1  
$EndComp
Wire Wire Line
	1910 5360 1910 5060
Wire Wire Line
	1510 5060 1910 5060
Wire Wire Line
	1810 5760 1810 6110
Wire Wire Line
	1510 6110 1810 6110
Wire Wire Line
	1810 6110 1910 6110
Wire Wire Line
	2010 6110 2010 5760
Connection ~ 1810 6110
$Comp
L device:R R3
U 1 1 5B9162E6
P 2260 5260
F 0 "R3" H 2330 5306 50  0000 L CNN
F 1 "10k" H 2330 5215 50  0000 L CNN
F 2 "Resistor_SMD:R_0805_2012Metric_Pad1.15x1.40mm_HandSolder" V 2190 5260 50  0001 C CNN
F 3 "~" H 2260 5260 50  0001 C CNN
	1    2260 5260
	1    0    0    -1  
$EndComp
$Comp
L device:C C7
U 1 1 5B916342
P 2260 5810
F 0 "C7" H 2375 5856 50  0000 L CNN
F 1 "100n" H 2375 5765 50  0000 L CNN
F 2 "Capacitor_SMD:C_0805_2012Metric_Pad1.15x1.40mm_HandSolder" H 2298 5660 50  0001 C CNN
F 3 "~" H 2260 5810 50  0001 C CNN
	1    2260 5810
	1    0    0    -1  
$EndComp
Wire Wire Line
	1910 5060 2260 5060
Wire Wire Line
	2260 5060 2260 5110
Connection ~ 1910 5060
Wire Wire Line
	2260 5410 2260 5660
Wire Wire Line
	2260 5960 2260 6110
Wire Wire Line
	2260 6110 2010 6110
Connection ~ 2010 6110
Wire Wire Line
	1010 5510 960  5510
Connection ~ 1010 5510
Text Label 960  5510 2    50   ~ 0
SaD
$Comp
L device:R R2
U 1 1 5B917CB1
P 1010 6960
F 0 "R2" H 1080 7006 50  0000 L CNN
F 1 "10k" H 1080 6915 50  0000 L CNN
F 2 "Resistor_SMD:R_0805_2012Metric_Pad1.15x1.40mm_HandSolder" V 940 6960 50  0001 C CNN
F 3 "~" H 1010 6960 50  0001 C CNN
	1    1010 6960
	1    0    0    -1  
$EndComp
Wire Wire Line
	1010 7110 1010 7160
Wire Wire Line
	1010 7160 1510 7160
Wire Wire Line
	1010 6810 1010 6560
Wire Wire Line
	1010 6560 1210 6560
Wire Wire Line
	1510 6760 1510 7160
Connection ~ 1510 7160
Wire Wire Line
	1510 6360 1510 6110
$Comp
L Wind_module_lib:Diode_Power D2
U 1 1 5B917CC7
P 2060 6110
F 0 "D2" H 2068 5656 50  0000 L CNN
F 1 "MBRD1045G" H 1710 5410 50  0001 L CNN
F 2 "TO_SOT_Packages_SMD:TO-252-2" H 2060 6110 50  0001 C CNN
F 3 "" H 2060 6110 50  0001 C CNN
	1    2060 6110
	1    0    0    -1  
$EndComp
Wire Wire Line
	1910 6410 1910 6110
Wire Wire Line
	1810 6810 1810 7160
Wire Wire Line
	1510 7160 1810 7160
Wire Wire Line
	1810 7160 2010 7160
Wire Wire Line
	2010 7160 2010 6810
Connection ~ 1810 7160
$Comp
L device:R R4
U 1 1 5B917CD5
P 2260 6310
F 0 "R4" H 2330 6356 50  0000 L CNN
F 1 "10k" H 2330 6265 50  0000 L CNN
F 2 "Resistor_SMD:R_0805_2012Metric_Pad1.15x1.40mm_HandSolder" V 2190 6310 50  0001 C CNN
F 3 "~" H 2260 6310 50  0001 C CNN
	1    2260 6310
	1    0    0    -1  
$EndComp
$Comp
L device:C C8
U 1 1 5B917CDC
P 2260 6860
F 0 "C8" H 2375 6906 50  0000 L CNN
F 1 "100n" H 2375 6815 50  0000 L CNN
F 2 "Capacitor_SMD:C_0805_2012Metric_Pad1.15x1.40mm_HandSolder" H 2298 6710 50  0001 C CNN
F 3 "~" H 2260 6860 50  0001 C CNN
	1    2260 6860
	1    0    0    -1  
$EndComp
Wire Wire Line
	2260 6110 2260 6160
Wire Wire Line
	2260 6460 2260 6710
Wire Wire Line
	2260 7010 2260 7160
Wire Wire Line
	2260 7160 2010 7160
Connection ~ 2010 7160
Wire Wire Line
	1010 6560 960  6560
Connection ~ 1010 6560
Text Label 960  6560 2    50   ~ 0
Sa
Connection ~ 1910 6110
Wire Wire Line
	1910 6110 2010 6110
Connection ~ 2260 6110
$Comp
L device:L L1
U 1 1 5B91A006
P 2930 2490
F 0 "L1" V 3120 2490 50  0000 C CNN
F 1 "100u" V 3029 2490 50  0000 C CNN
F 2 "Wind_module:L_Toroid_Vertical_RS_1048448" H 2930 2490 50  0001 C CNN
F 3 "~" H 2930 2490 50  0001 C CNN
	1    2930 2490
	0    -1   -1   0   
$EndComp
Wire Wire Line
	3450 4360 3450 4410
Text Label 2900 3710 2    50   ~ 0
5V_IN
Text Label 3600 3510 2    50   ~ 0
I_S
Wire Wire Line
	3650 3560 3650 3510
Wire Wire Line
	3650 3510 3600 3510
$Comp
L device:C C1
U 1 1 5B91A01D
P 2950 3960
F 0 "C1" H 3065 4006 50  0000 L CNN
F 1 "100n" H 3065 3915 50  0000 L CNN
F 2 "Capacitor_SMD:C_0805_2012Metric_Pad1.15x1.40mm_HandSolder" H 2988 3810 50  0001 C CNN
F 3 "~" H 2950 3960 50  0001 C CNN
	1    2950 3960
	1    0    0    -1  
$EndComp
Wire Wire Line
	2950 3710 2950 3810
Wire Wire Line
	2950 4110 2950 4160
$Comp
L power:GND #PWR0103
U 1 1 5B91A02B
P 2950 4160
F 0 "#PWR0103" H 2950 3910 50  0001 C CNN
F 1 "GND" H 2955 3987 50  0000 C CNN
F 2 "" H 2950 4160 50  0001 C CNN
F 3 "" H 2950 4160 50  0001 C CNN
	1    2950 4160
	1    0    0    -1  
$EndComp
$Comp
L power:GND #PWR0104
U 1 1 5B91A031
P 4100 4010
F 0 "#PWR0104" H 4100 3760 50  0001 C CNN
F 1 "GND" H 4105 3837 50  0000 C CNN
F 2 "" H 4100 4010 50  0001 C CNN
F 3 "" H 4100 4010 50  0001 C CNN
	1    4100 4010
	1    0    0    -1  
$EndComp
Wire Wire Line
	4050 3960 4100 3960
Wire Wire Line
	4100 3960 4100 4010
$Comp
L device:C C4
U 1 1 5B91A039
P 4100 3710
F 0 "C4" H 4215 3756 50  0000 L CNN
F 1 "1n" H 4215 3665 50  0000 L CNN
F 2 "Capacitor_SMD:C_0805_2012Metric_Pad1.15x1.40mm_HandSolder" H 4138 3560 50  0001 C CNN
F 3 "~" H 4100 3710 50  0001 C CNN
	1    4100 3710
	1    0    0    -1  
$EndComp
Wire Wire Line
	3750 3560 3750 3510
Text Label 2470 2270 2    50   ~ 0
VS
Wire Wire Line
	3850 4360 3850 4410
$Comp
L device:L L2
U 1 1 5B91BF9D
P 4180 2490
F 0 "L2" V 4370 2490 50  0000 C CNN
F 1 "100u" V 4279 2490 50  0000 C CNN
F 2 "Wind_module:L_Toroid_Vertical_RS_1048448" H 4180 2490 50  0001 C CNN
F 3 "~" H 4180 2490 50  0001 C CNN
	1    4180 2490
	0    -1   -1   0   
$EndComp
Wire Wire Line
	5330 4300 5330 4350
Text Label 4780 3650 2    50   ~ 0
5V_IN
Text Label 5480 3450 2    50   ~ 0
I_T
Wire Wire Line
	5530 3500 5530 3450
Wire Wire Line
	5530 3450 5480 3450
$Comp
L device:C C2
U 1 1 5B91BFB4
P 4830 3900
F 0 "C2" H 4945 3946 50  0000 L CNN
F 1 "100n" H 4945 3855 50  0000 L CNN
F 2 "Capacitor_SMD:C_0805_2012Metric_Pad1.15x1.40mm_HandSolder" H 4868 3750 50  0001 C CNN
F 3 "~" H 4830 3900 50  0001 C CNN
	1    4830 3900
	1    0    0    -1  
$EndComp
Wire Wire Line
	4830 3650 4830 3750
Wire Wire Line
	4830 4050 4830 4100
$Comp
L power:GND #PWR0105
U 1 1 5B91BFC2
P 4830 4100
F 0 "#PWR0105" H 4830 3850 50  0001 C CNN
F 1 "GND" H 4835 3927 50  0000 C CNN
F 2 "" H 4830 4100 50  0001 C CNN
F 3 "" H 4830 4100 50  0001 C CNN
	1    4830 4100
	1    0    0    -1  
$EndComp
$Comp
L power:GND #PWR0106
U 1 1 5B91BFC8
P 5980 3950
F 0 "#PWR0106" H 5980 3700 50  0001 C CNN
F 1 "GND" H 5985 3777 50  0000 C CNN
F 2 "" H 5980 3950 50  0001 C CNN
F 3 "" H 5980 3950 50  0001 C CNN
	1    5980 3950
	1    0    0    -1  
$EndComp
Wire Wire Line
	5930 3900 5980 3900
Wire Wire Line
	5980 3900 5980 3950
$Comp
L device:C C5
U 1 1 5B91BFD0
P 5980 3650
F 0 "C5" H 6095 3696 50  0000 L CNN
F 1 "1n" H 6095 3605 50  0000 L CNN
F 2 "Capacitor_SMD:C_0805_2012Metric_Pad1.15x1.40mm_HandSolder" H 6018 3500 50  0001 C CNN
F 3 "~" H 5980 3650 50  0001 C CNN
	1    5980 3650
	1    0    0    -1  
$EndComp
Text Label 3730 2320 2    50   ~ 0
VT
Wire Wire Line
	5730 4300 5730 4350
$Comp
L device:R R5
U 1 1 5B91FAEA
P 3010 5910
F 0 "R5" H 3080 5956 50  0000 L CNN
F 1 "10k" H 3080 5865 50  0000 L CNN
F 2 "Resistor_SMD:R_0805_2012Metric_Pad1.15x1.40mm_HandSolder" V 2940 5910 50  0001 C CNN
F 3 "~" H 3010 5910 50  0001 C CNN
	1    3010 5910
	1    0    0    -1  
$EndComp
Wire Wire Line
	3010 6060 3010 6110
Wire Wire Line
	3010 6110 3510 6110
Wire Wire Line
	3010 5760 3010 5510
Wire Wire Line
	3010 5510 3210 5510
Wire Wire Line
	3510 5710 3510 6110
Connection ~ 3510 6110
Wire Wire Line
	3510 5310 3510 5060
$Comp
L Wind_module_lib:Diode_Power D3
U 1 1 5B91FB00
P 4060 5060
F 0 "D3" H 4068 4606 50  0000 L CNN
F 1 "MBRD1045G" H 3710 4360 50  0001 L CNN
F 2 "TO_SOT_Packages_SMD:TO-252-2" H 4060 5060 50  0001 C CNN
F 3 "" H 4060 5060 50  0001 C CNN
	1    4060 5060
	1    0    0    -1  
$EndComp
Wire Wire Line
	3910 5360 3910 5060
Wire Wire Line
	3510 5060 3910 5060
Wire Wire Line
	3810 5760 3810 6110
Wire Wire Line
	3510 6110 3810 6110
Wire Wire Line
	3810 6110 3910 6110
Wire Wire Line
	4010 6110 4010 5760
Connection ~ 3810 6110
$Comp
L device:R R7
U 1 1 5B91FB0E
P 4260 5260
F 0 "R7" H 4330 5306 50  0000 L CNN
F 1 "10k" H 4330 5215 50  0000 L CNN
F 2 "Resistor_SMD:R_0805_2012Metric_Pad1.15x1.40mm_HandSolder" V 4190 5260 50  0001 C CNN
F 3 "~" H 4260 5260 50  0001 C CNN
	1    4260 5260
	1    0    0    -1  
$EndComp
$Comp
L device:C C9
U 1 1 5B91FB15
P 4260 5810
F 0 "C9" H 4375 5856 50  0000 L CNN
F 1 "100n" H 4375 5765 50  0000 L CNN
F 2 "Capacitor_SMD:C_0805_2012Metric_Pad1.15x1.40mm_HandSolder" H 4298 5660 50  0001 C CNN
F 3 "~" H 4260 5810 50  0001 C CNN
	1    4260 5810
	1    0    0    -1  
$EndComp
Connection ~ 3910 5060
Wire Wire Line
	4260 5410 4260 5660
Wire Wire Line
	4260 5960 4260 6110
Wire Wire Line
	3010 5510 2960 5510
Connection ~ 3010 5510
Text Label 2960 5510 2    50   ~ 0
SbD
$Comp
L device:R R6
U 1 1 5B91FB26
P 3010 6960
F 0 "R6" H 3080 7006 50  0000 L CNN
F 1 "10k" H 3080 6915 50  0000 L CNN
F 2 "Resistor_SMD:R_0805_2012Metric_Pad1.15x1.40mm_HandSolder" V 2940 6960 50  0001 C CNN
F 3 "~" H 3010 6960 50  0001 C CNN
	1    3010 6960
	1    0    0    -1  
$EndComp
Wire Wire Line
	3010 7110 3010 7160
Wire Wire Line
	3010 7160 3510 7160
Wire Wire Line
	3010 6810 3010 6560
Wire Wire Line
	3010 6560 3210 6560
Wire Wire Line
	3510 6760 3510 7160
Connection ~ 3510 7160
Wire Wire Line
	3510 6360 3510 6110
$Comp
L Wind_module_lib:Diode_Power D4
U 1 1 5B91FB3B
P 4060 6110
F 0 "D4" H 4068 5656 50  0000 L CNN
F 1 "MBRD1045G" H 3710 5410 50  0001 L CNN
F 2 "TO_SOT_Packages_SMD:TO-252-2" H 4060 6110 50  0001 C CNN
F 3 "" H 4060 6110 50  0001 C CNN
	1    4060 6110
	1    0    0    -1  
$EndComp
Wire Wire Line
	3910 6410 3910 6110
Wire Wire Line
	3810 6810 3810 7160
Wire Wire Line
	3510 7160 3810 7160
Wire Wire Line
	3810 7160 4010 7160
Wire Wire Line
	4010 7160 4010 6810
Connection ~ 3810 7160
$Comp
L device:R R8
U 1 1 5B91FB48
P 4260 6310
F 0 "R8" H 4330 6356 50  0000 L CNN
F 1 "10k" H 4330 6265 50  0000 L CNN
F 2 "Resistor_SMD:R_0805_2012Metric_Pad1.15x1.40mm_HandSolder" V 4190 6310 50  0001 C CNN
F 3 "~" H 4260 6310 50  0001 C CNN
	1    4260 6310
	1    0    0    -1  
$EndComp
$Comp
L device:C C10
U 1 1 5B91FB4F
P 4260 6860
F 0 "C10" H 4375 6906 50  0000 L CNN
F 1 "100n" H 4375 6815 50  0000 L CNN
F 2 "Capacitor_SMD:C_0805_2012Metric_Pad1.15x1.40mm_HandSolder" H 4298 6710 50  0001 C CNN
F 3 "~" H 4260 6860 50  0001 C CNN
	1    4260 6860
	1    0    0    -1  
$EndComp
Wire Wire Line
	4260 6460 4260 6710
Wire Wire Line
	4260 7010 4260 7160
Wire Wire Line
	4260 7160 4010 7160
Connection ~ 4010 7160
Wire Wire Line
	3010 6560 2960 6560
Connection ~ 3010 6560
Text Label 2960 6560 2    50   ~ 0
Sb
Connection ~ 3910 6110
Wire Wire Line
	3910 6110 4010 6110
$Comp
L device:R R9
U 1 1 5B924B2D
P 5010 5910
F 0 "R9" H 5080 5956 50  0000 L CNN
F 1 "10k" H 5080 5865 50  0000 L CNN
F 2 "Resistor_SMD:R_0805_2012Metric_Pad1.15x1.40mm_HandSolder" V 4940 5910 50  0001 C CNN
F 3 "~" H 5010 5910 50  0001 C CNN
	1    5010 5910
	1    0    0    -1  
$EndComp
Wire Wire Line
	5010 6060 5010 6110
Wire Wire Line
	5010 6110 5510 6110
Wire Wire Line
	5010 5760 5010 5510
Wire Wire Line
	5010 5510 5210 5510
Wire Wire Line
	5510 5710 5510 6110
Connection ~ 5510 6110
Wire Wire Line
	5510 5310 5510 5060
$Comp
L Wind_module_lib:Diode_Power D5
U 1 1 5B924B43
P 6060 5060
F 0 "D5" H 6068 4606 50  0000 L CNN
F 1 "MBRD1045G" H 5710 4360 50  0001 L CNN
F 2 "TO_SOT_Packages_SMD:TO-252-2" H 6060 5060 50  0001 C CNN
F 3 "" H 6060 5060 50  0001 C CNN
	1    6060 5060
	1    0    0    -1  
$EndComp
Wire Wire Line
	5910 5360 5910 5060
Wire Wire Line
	5810 5760 5810 6110
Wire Wire Line
	5510 6110 5810 6110
Wire Wire Line
	5810 6110 5910 6110
Wire Wire Line
	6010 6110 6010 5760
Connection ~ 5810 6110
$Comp
L device:R R11
U 1 1 5B924B51
P 6260 5260
F 0 "R11" H 6330 5306 50  0000 L CNN
F 1 "10k" H 6330 5215 50  0000 L CNN
F 2 "Resistor_SMD:R_0805_2012Metric_Pad1.15x1.40mm_HandSolder" V 6190 5260 50  0001 C CNN
F 3 "~" H 6260 5260 50  0001 C CNN
	1    6260 5260
	1    0    0    -1  
$EndComp
$Comp
L device:C C11
U 1 1 5B924B58
P 6260 5810
F 0 "C11" H 6375 5856 50  0000 L CNN
F 1 "100n" H 6375 5765 50  0000 L CNN
F 2 "Capacitor_SMD:C_0805_2012Metric_Pad1.15x1.40mm_HandSolder" H 6298 5660 50  0001 C CNN
F 3 "~" H 6260 5810 50  0001 C CNN
	1    6260 5810
	1    0    0    -1  
$EndComp
Wire Wire Line
	5910 5060 6260 5060
Wire Wire Line
	6260 5060 6260 5110
Connection ~ 5910 5060
Wire Wire Line
	6260 5410 6260 5660
Wire Wire Line
	6260 5960 6260 6110
Wire Wire Line
	6260 6110 6010 6110
Connection ~ 6010 6110
Wire Wire Line
	5010 5510 4960 5510
Connection ~ 5010 5510
Text Label 4960 5510 2    50   ~ 0
ScD
$Comp
L device:R R10
U 1 1 5B924B69
P 5010 6960
F 0 "R10" H 5080 7006 50  0000 L CNN
F 1 "10k" H 5080 6915 50  0000 L CNN
F 2 "Resistor_SMD:R_0805_2012Metric_Pad1.15x1.40mm_HandSolder" V 4940 6960 50  0001 C CNN
F 3 "~" H 5010 6960 50  0001 C CNN
	1    5010 6960
	1    0    0    -1  
$EndComp
Wire Wire Line
	5010 7110 5010 7160
Wire Wire Line
	5010 7160 5510 7160
Wire Wire Line
	5010 6810 5010 6560
Wire Wire Line
	5010 6560 5210 6560
Wire Wire Line
	5510 6760 5510 7160
Connection ~ 5510 7160
Wire Wire Line
	5510 6360 5510 6110
$Comp
L Wind_module_lib:Diode_Power D6
U 1 1 5B924B7E
P 6060 6110
F 0 "D6" H 6068 5656 50  0000 L CNN
F 1 "MBRD1045G" H 5710 5410 50  0001 L CNN
F 2 "TO_SOT_Packages_SMD:TO-252-2" H 6060 6110 50  0001 C CNN
F 3 "" H 6060 6110 50  0001 C CNN
	1    6060 6110
	1    0    0    -1  
$EndComp
Wire Wire Line
	5910 6410 5910 6110
Wire Wire Line
	5810 6810 5810 7160
Wire Wire Line
	5510 7160 5810 7160
Wire Wire Line
	5810 7160 6010 7160
Wire Wire Line
	6010 7160 6010 6810
Connection ~ 5810 7160
$Comp
L device:R R12
U 1 1 5B924B8B
P 6260 6310
F 0 "R12" H 6330 6356 50  0000 L CNN
F 1 "10k" H 6330 6265 50  0000 L CNN
F 2 "Resistor_SMD:R_0805_2012Metric_Pad1.15x1.40mm_HandSolder" V 6190 6310 50  0001 C CNN
F 3 "~" H 6260 6310 50  0001 C CNN
	1    6260 6310
	1    0    0    -1  
$EndComp
$Comp
L device:C C12
U 1 1 5B924B92
P 6260 6860
F 0 "C12" H 6375 6906 50  0000 L CNN
F 1 "100n" H 6375 6815 50  0000 L CNN
F 2 "Capacitor_SMD:C_0805_2012Metric_Pad1.15x1.40mm_HandSolder" H 6298 6710 50  0001 C CNN
F 3 "~" H 6260 6860 50  0001 C CNN
	1    6260 6860
	1    0    0    -1  
$EndComp
Wire Wire Line
	6260 6110 6260 6160
Wire Wire Line
	6260 6460 6260 6710
Wire Wire Line
	6260 7010 6260 7160
Wire Wire Line
	6260 7160 6010 7160
Connection ~ 6010 7160
Wire Wire Line
	5010 6560 4960 6560
Connection ~ 5010 6560
Text Label 4960 6560 2    50   ~ 0
Sc
Connection ~ 5910 6110
Wire Wire Line
	5910 6110 6010 6110
Connection ~ 6260 6110
Connection ~ 3010 6110
Wire Wire Line
	4810 6110 5010 6110
Connection ~ 5010 6110
Connection ~ 3510 5060
Wire Wire Line
	1810 7160 1810 7260
Wire Wire Line
	3810 7160 3810 7260
Wire Wire Line
	5810 7160 5810 7260
$Comp
L power:GND #PWR0107
U 1 1 5B976D8B
P 1810 7260
F 0 "#PWR0107" H 1810 7010 50  0001 C CNN
F 1 "GND" H 1815 7087 50  0000 C CNN
F 2 "" H 1810 7260 50  0001 C CNN
F 3 "" H 1810 7260 50  0001 C CNN
	1    1810 7260
	1    0    0    -1  
$EndComp
$Comp
L power:GND #PWR0108
U 1 1 5B976DEC
P 3810 7260
F 0 "#PWR0108" H 3810 7010 50  0001 C CNN
F 1 "GND" H 3815 7087 50  0000 C CNN
F 2 "" H 3810 7260 50  0001 C CNN
F 3 "" H 3810 7260 50  0001 C CNN
	1    3810 7260
	1    0    0    -1  
$EndComp
$Comp
L power:GND #PWR0109
U 1 1 5B976E4D
P 5810 7260
F 0 "#PWR0109" H 5810 7010 50  0001 C CNN
F 1 "GND" H 5815 7087 50  0000 C CNN
F 2 "" H 5810 7260 50  0001 C CNN
F 3 "" H 5810 7260 50  0001 C CNN
	1    5810 7260
	1    0    0    -1  
$EndComp
Wire Wire Line
	2810 6110 2810 7560
Wire Wire Line
	2810 6110 3010 6110
Text Label 960  6260 2    50   ~ 0
Vsa
Text Label 2960 6260 2    50   ~ 0
Vsb
Text Label 4960 6260 2    50   ~ 0
Vsc
$Comp
L device:CP C13
U 1 1 5B901471
P 6830 3330
F 0 "C13" H 6840 3410 50  0000 L CNN
F 1 "470u" H 6830 3230 50  0000 L CNN
F 2 "Capacitors_THT:CP_Radial_D16.0mm_P7.50mm" H 6868 3180 50  0001 C CNN
F 3 "~" H 6830 3330 50  0001 C CNN
	1    6830 3330
	1    0    0    -1  
$EndComp
$Comp
L device:CP C14
U 1 1 5B9015C0
P 7020 3070
F 0 "C14" H 7030 3150 50  0000 L CNN
F 1 "470u" H 7020 2970 50  0000 L CNN
F 2 "Capacitors_THT:CP_Radial_D16.0mm_P7.50mm" H 7058 2920 50  0001 C CNN
F 3 "~" H 7020 3070 50  0001 C CNN
	1    7020 3070
	1    0    0    -1  
$EndComp
$Comp
L device:C C15
U 1 1 5B9016D3
P 4610 6110
F 0 "C15" H 4620 6210 50  0000 L CNN
F 1 "100n" H 4610 6010 50  0000 L CNN
F 2 "Capacitor_SMD:C_1812_4532Metric_Pad1.30x3.40mm_HandSolder" H 4648 5960 50  0001 C CNN
F 3 "~" H 4610 6110 50  0001 C CNN
	1    4610 6110
	1    0    0    -1  
$EndComp
$Comp
L device:C C16
U 1 1 5B90175D
P 2610 6110
F 0 "C16" H 2630 6230 50  0000 L CNN
F 1 "100n" H 2610 6010 50  0000 L CNN
F 2 "Capacitor_SMD:C_1812_4532Metric_Pad1.30x3.40mm_HandSolder" H 2648 5960 50  0001 C CNN
F 3 "~" H 2610 6110 50  0001 C CNN
	1    2610 6110
	1    0    0    -1  
$EndComp
$Comp
L device:C C17
U 1 1 5B901A65
P 6610 6110
F 0 "C17" H 6725 6156 50  0000 L CNN
F 1 "100n" H 6610 6010 50  0000 L CNN
F 2 "Capacitor_SMD:C_1812_4532Metric_Pad1.30x3.40mm_HandSolder" H 6648 5960 50  0001 C CNN
F 3 "~" H 6610 6110 50  0001 C CNN
	1    6610 6110
	1    0    0    -1  
$EndComp
Wire Wire Line
	6830 3490 6870 3490
$Comp
L power:GND #PWR0110
U 1 1 5B972FF5
P 6870 3540
F 0 "#PWR0110" H 6870 3290 50  0001 C CNN
F 1 "GND" H 6875 3367 50  0000 C CNN
F 2 "" H 6870 3540 50  0001 C CNN
F 3 "" H 6870 3540 50  0001 C CNN
	1    6870 3540
	1    0    0    -1  
$EndComp
Text Label 9160 2960 0    50   ~ 0
5V_IN
Wire Wire Line
	7940 3160 7940 3060
Wire Wire Line
	1900 3600 1900 3550
Wire Wire Line
	2250 3900 2250 4000
Wire Wire Line
	2250 3550 1900 3550
Wire Wire Line
	2250 3550 2250 3600
Wire Wire Line
	4100 3560 4100 3510
Wire Wire Line
	4100 3510 3750 3510
Wire Wire Line
	5630 3500 5630 3450
Wire Wire Line
	5630 3450 5980 3450
Wire Wire Line
	5980 3450 5980 3500
Wire Wire Line
	5980 3800 5980 3900
Connection ~ 5980 3900
Wire Wire Line
	4100 3860 4100 3960
Connection ~ 4100 3960
$Comp
L Connector_Generic:Conn_01x02 J2
U 1 1 5BA87BBE
P 9670 2610
F 0 "J2" H 9749 2602 50  0000 L CNN
F 1 "+VOUT_GND" H 9470 2760 50  0000 L CNN
F 2 "Wind_module:Power_Connector_2" H 9670 2610 50  0001 C CNN
F 3 "~" H 9670 2610 50  0001 C CNN
	1    9670 2610
	1    0    0    -1  
$EndComp
$Comp
L power:GND #PWR0111
U 1 1 5BAC0AE4
P 7940 3160
F 0 "#PWR0111" H 7940 2910 50  0001 C CNN
F 1 "GND" H 7945 2987 50  0000 C CNN
F 2 "" H 7940 3160 50  0001 C CNN
F 3 "" H 7940 3160 50  0001 C CNN
	1    7940 3160
	1    0    0    -1  
$EndComp
$Comp
L device:C C18
U 1 1 5BAEE440
P 8190 3300
F 0 "C18" H 8030 3380 50  0000 L CNN
F 1 "1n" H 8060 3230 50  0000 L CNN
F 2 "Capacitor_SMD:C_0805_2012Metric_Pad1.15x1.40mm_HandSolder" H 8228 3150 50  0001 C CNN
F 3 "~" H 8190 3300 50  0001 C CNN
	1    8190 3300
	1    0    0    -1  
$EndComp
$Comp
L device:C C19
U 1 1 5BAEE9EE
P 9110 3260
F 0 "C19" H 9225 3306 50  0000 L CNN
F 1 "100n" H 9225 3215 50  0000 L CNN
F 2 "Capacitor_SMD:C_0805_2012Metric_Pad1.15x1.40mm_HandSolder" H 9148 3110 50  0001 C CNN
F 3 "~" H 9110 3260 50  0001 C CNN
	1    9110 3260
	1    0    0    -1  
$EndComp
Wire Wire Line
	9110 3110 9110 3060
Wire Wire Line
	9110 3060 9050 3060
$Comp
L power:GND #PWR0113
U 1 1 5BAF9EEF
P 9110 3460
F 0 "#PWR0113" H 9110 3210 50  0001 C CNN
F 1 "GND" H 9115 3287 50  0000 C CNN
F 2 "" H 9110 3460 50  0001 C CNN
F 3 "" H 9110 3460 50  0001 C CNN
	1    9110 3460
	1    0    0    -1  
$EndComp
Wire Wire Line
	8850 2660 8850 2610
Wire Wire Line
	9110 3060 9110 2960
Wire Wire Line
	9110 2960 9160 2960
Connection ~ 9110 3060
Text Label 8800 3520 0    50   ~ 0
I_OUT
$Comp
L device:R R13
U 1 1 5BB1C795
P 10480 2310
F 0 "R13" H 10550 2356 50  0000 L CNN
F 1 "150k" H 10550 2265 50  0000 L CNN
F 2 "Resistor_SMD:R_0805_2012Metric_Pad1.15x1.40mm_HandSolder" V 10410 2310 50  0001 C CNN
F 3 "~" H 10480 2310 50  0001 C CNN
	1    10480 2310
	1    0    0    -1  
$EndComp
$Comp
L device:R R14
U 1 1 5BB1C833
P 10830 3520
F 0 "R14" V 10740 3450 50  0000 L CNN
F 1 "10k" V 10830 3450 50  0000 L CNN
F 2 "Resistor_SMD:R_0805_2012Metric_Pad1.15x1.40mm_HandSolder" V 10760 3520 50  0001 C CNN
F 3 "~" H 10830 3520 50  0001 C CNN
	1    10830 3520
	1    0    0    -1  
$EndComp
Wire Wire Line
	10480 2460 10480 2490
Wire Wire Line
	10830 3670 10830 3720
Wire Wire Line
	9110 3460 9110 3410
$Comp
L power:GND #PWR0114
U 1 1 5BB4B2ED
P 10830 3770
F 0 "#PWR0114" H 10830 3520 50  0001 C CNN
F 1 "GND" H 10835 3597 50  0000 C CNN
F 2 "" H 10830 3770 50  0001 C CNN
F 3 "" H 10830 3770 50  0001 C CNN
	1    10830 3770
	1    0    0    -1  
$EndComp
Wire Wire Line
	9470 2710 9470 2810
$Comp
L power:GND #PWR0115
U 1 1 5BB57534
P 9470 2810
F 0 "#PWR0115" H 9470 2560 50  0001 C CNN
F 1 "GND" H 9475 2637 50  0000 C CNN
F 2 "" H 9470 2810 50  0001 C CNN
F 3 "" H 9470 2810 50  0001 C CNN
	1    9470 2810
	1    0    0    -1  
$EndComp
Wire Wire Line
	10480 2100 10480 2160
$Comp
L device:C C20
U 1 1 5BB6F46B
P 11080 3520
F 0 "C20" H 10930 3600 50  0000 L CNN
F 1 "1u" H 10960 3440 50  0000 L CNN
F 2 "Capacitor_SMD:C_0805_2012Metric_Pad1.15x1.40mm_HandSolder" H 11118 3370 50  0001 C CNN
F 3 "~" H 11080 3520 50  0001 C CNN
	1    11080 3520
	1    0    0    -1  
$EndComp
Wire Wire Line
	11080 3320 11080 3370
Wire Wire Line
	10830 3320 10830 3370
Wire Wire Line
	11080 3670 11080 3720
Wire Wire Line
	11080 3720 10830 3720
Wire Wire Line
	10830 3720 10830 3770
Connection ~ 10830 3720
Text Label 10730 3170 0    50   ~ 0
V_OUT_MES
Text Label 1150 800  0    50   ~ 0
5V_IN
Text Label 1150 1000 0    50   ~ 0
SaD
Text Label 1150 1100 0    50   ~ 0
Sa
Text Label 1150 1300 0    50   ~ 0
SbD
Text Label 1150 1400 0    50   ~ 0
Sb
Text Label 1150 1600 0    50   ~ 0
ScD
Text Label 1150 1700 0    50   ~ 0
Sc
Text Label 1150 900  0    50   ~ 0
Vsa
Text Label 1150 1200 0    50   ~ 0
Vsb
Text Label 1150 1500 0    50   ~ 0
Vsc
Text Label 10350 850  2    50   ~ 0
I_R
Text Label 10350 950  2    50   ~ 0
I_S
Text Label 10350 1050 2    50   ~ 0
I_T
Text Label 10350 1150 2    50   ~ 0
I_OUT
Text Label 10350 1250 2    50   ~ 0
V_OUT_MES
Text HLabel 850  800  0    50   Input ~ 0
5V_IN
Text HLabel 850  900  0    50   Input ~ 0
Vsa
Text HLabel 850  1000 0    50   Input ~ 0
SaD
Text HLabel 850  1100 0    50   Input ~ 0
Sa
Text HLabel 850  1200 0    50   Input ~ 0
Vsb
Text HLabel 850  1300 0    50   Input ~ 0
SbD
Text HLabel 850  1400 0    50   Input ~ 0
Sb
Text HLabel 850  1500 0    50   Input ~ 0
Vsc
Text HLabel 850  1600 0    50   Input ~ 0
ScD
Text HLabel 850  1700 0    50   Input ~ 0
Sc
Wire Wire Line
	850  800  1150 800 
Wire Wire Line
	1150 900  850  900 
Wire Wire Line
	850  1000 1150 1000
Wire Wire Line
	1150 1100 850  1100
Wire Wire Line
	850  1200 1150 1200
Wire Wire Line
	850  1300 1150 1300
Wire Wire Line
	850  1400 1150 1400
Wire Wire Line
	850  1500 1150 1500
Wire Wire Line
	850  1600 1150 1600
Wire Wire Line
	1150 1700 850  1700
Text HLabel 10700 850  2    50   Output ~ 0
I_R
Text HLabel 10700 950  2    50   Output ~ 0
I_S
Text HLabel 10700 1050 2    50   Output ~ 0
I_T
Text HLabel 10700 1150 2    50   Output ~ 0
I_OUT
Text HLabel 10700 1250 2    50   Output ~ 0
V_OUT_MES
Wire Wire Line
	10350 850  10700 850 
Wire Wire Line
	10700 950  10350 950 
Wire Wire Line
	10350 1050 10700 1050
Wire Wire Line
	10350 1150 10700 1150
Wire Wire Line
	10350 1250 10700 1250
Text Label 10300 1350 2    50   ~ 0
T_COND
Wire Wire Line
	10300 1350 10700 1350
Wire Wire Line
	10700 1450 10300 1450
Wire Wire Line
	10300 1550 10700 1550
Text HLabel 10700 1650 2    50   Output ~ 0
N
Wire Wire Line
	10300 1650 10700 1650
Wire Notes Line
	500  1800 1600 1800
Wire Notes Line
	1600 1800 1600 500 
Wire Notes Line
	1600 700  500  700 
Wire Notes Line
	9750 700  11200 700 
$Comp
L device:Q_NMOS_GDS Q1
U 1 1 5BBDB017
P 1410 5510
F 0 "Q1" H 1615 5556 50  0000 L CNN
F 1 "FDPF39N20" H 1330 5270 50  0001 L CNN
F 2 "TO_SOT_Packages_THT:TO-220_Horizontal_Reversed" H 1610 5610 50  0001 C CNN
F 3 "~" H 1410 5510 50  0001 C CNN
	1    1410 5510
	1    0    0    -1  
$EndComp
$Comp
L device:Q_NMOS_GDS Q3
U 1 1 5BBDB627
P 3410 5510
F 0 "Q3" H 3615 5556 50  0000 L CNN
F 1 "FDPF39N20" H 3310 5760 50  0001 L CNN
F 2 "TO_SOT_Packages_THT:TO-220_Horizontal_Reversed" H 3610 5610 50  0001 C CNN
F 3 "~" H 3410 5510 50  0001 C CNN
	1    3410 5510
	1    0    0    -1  
$EndComp
$Comp
L device:Q_NMOS_GDS Q5
U 1 1 5BBDB6CF
P 5410 5510
F 0 "Q5" H 5615 5556 50  0000 L CNN
F 1 "FDPF39N20" H 5310 5760 50  0001 L CNN
F 2 "TO_SOT_Packages_THT:TO-220_Horizontal_Reversed" H 5610 5610 50  0001 C CNN
F 3 "~" H 5410 5510 50  0001 C CNN
	1    5410 5510
	1    0    0    -1  
$EndComp
$Comp
L device:Q_NMOS_GDS Q6
U 1 1 5BBDB76F
P 5410 6560
F 0 "Q6" H 5615 6606 50  0000 L CNN
F 1 "FDPF39N20" H 5310 6810 50  0001 L CNN
F 2 "TO_SOT_Packages_THT:TO-220_Horizontal_Reversed" H 5610 6660 50  0001 C CNN
F 3 "~" H 5410 6560 50  0001 C CNN
	1    5410 6560
	1    0    0    -1  
$EndComp
$Comp
L device:Q_NMOS_GDS Q4
U 1 1 5BBDB81D
P 3410 6560
F 0 "Q4" H 3615 6606 50  0000 L CNN
F 1 "FDPF39N20" H 3310 6810 50  0001 L CNN
F 2 "TO_SOT_Packages_THT:TO-220_Horizontal_Reversed" H 3610 6660 50  0001 C CNN
F 3 "~" H 3410 6560 50  0001 C CNN
	1    3410 6560
	1    0    0    -1  
$EndComp
$Comp
L device:Q_NMOS_GDS Q2
U 1 1 5BBDB915
P 1410 6560
F 0 "Q2" H 1615 6606 50  0000 L CNN
F 1 "FDPF39N20" H 1310 6760 50  0001 L CNN
F 2 "TO_SOT_Packages_THT:TO-220_Horizontal_Reversed" H 1610 6660 50  0001 C CNN
F 3 "~" H 1410 6560 50  0001 C CNN
	1    1410 6560
	1    0    0    -1  
$EndComp
Text Notes 10200 600  0    50   ~ 0
BLOCK OUTPUTS
Text Notes 700  600  0    50   ~ 0
BLOCK INTPUTS
Wire Wire Line
	6870 3490 6870 3540
Wire Wire Line
	6870 3490 7020 3490
Connection ~ 6870 3490
Wire Wire Line
	6610 5060 6610 5960
Wire Wire Line
	6610 6260 6610 7160
Wire Wire Line
	4610 5960 4610 5060
Wire Wire Line
	4260 7160 4610 7160
Wire Wire Line
	4610 7160 4610 6260
Connection ~ 4260 7160
Wire Wire Line
	2610 5960 2610 5060
Wire Wire Line
	2610 5060 3510 5060
Wire Wire Line
	2260 5060 2610 5060
Connection ~ 2260 5060
Wire Wire Line
	2260 7160 2610 7160
Wire Wire Line
	2610 7160 2610 6260
Connection ~ 2260 7160
Wire Wire Line
	5510 5060 5910 5060
Connection ~ 4610 5060
Connection ~ 2610 5060
Wire Wire Line
	4610 5060 5510 5060
Connection ~ 5510 5060
Wire Wire Line
	6260 5060 6560 5060
Connection ~ 6260 5060
Wire Wire Line
	6260 7160 6610 7160
Connection ~ 6260 7160
Wire Wire Line
	3250 3960 3200 3960
Wire Wire Line
	3200 3960 3200 3710
Wire Wire Line
	3200 3710 2950 3710
Wire Wire Line
	5130 3900 5080 3900
Wire Wire Line
	5080 3900 5080 3650
Wire Wire Line
	5080 3650 4830 3650
Wire Wire Line
	2900 3710 2950 3710
Connection ~ 2950 3710
Wire Wire Line
	4780 3650 4830 3650
Connection ~ 4830 3650
Wire Wire Line
	1010 6110 1010 6260
Wire Wire Line
	960  6260 1010 6260
Wire Wire Line
	3010 6110 3010 6260
Wire Wire Line
	3010 6260 2960 6260
Wire Wire Line
	5010 6110 5010 6260
Wire Wire Line
	5010 6260 4960 6260
Wire Wire Line
	6830 2850 6830 3180
Wire Wire Line
	6830 2850 7020 2850
Wire Wire Line
	6830 3480 6830 3490
Wire Wire Line
	8650 3520 8800 3520
Wire Wire Line
	8650 3460 8650 3520
Text Label 8410 2610 2    50   ~ 0
I_VOUT_OUT
Text HLabel 10700 1750 2    50   Output ~ 0
V_HIGH
Wire Wire Line
	10300 1750 10700 1750
Wire Notes Line
	9740 1870 11190 1870
Wire Notes Line
	9740 520  9740 1870
$Comp
L device:CP C38
U 1 1 5BA9E271
P 1070 2640
F 0 "C38" H 1188 2686 50  0000 L CNN
F 1 "470u" H 1070 2540 50  0000 L CNN
F 2 "Capacitors_THT:CP_Radial_D16.0mm_P7.50mm" H 1108 2490 50  0001 C CNN
F 3 "~" H 1070 2640 50  0001 C CNN
	1    1070 2640
	1    0    0    -1  
$EndComp
$Comp
L device:CP C37
U 1 1 5BA9E5D7
P 3930 2660
F 0 "C37" H 4048 2706 50  0000 L CNN
F 1 "470u" H 3930 2560 50  0000 L CNN
F 2 "Capacitors_THT:CP_Radial_D16.0mm_P7.50mm" H 3968 2510 50  0001 C CNN
F 3 "~" H 3930 2660 50  0001 C CNN
	1    3930 2660
	1    0    0    -1  
$EndComp
Wire Wire Line
	3930 2510 3930 2490
Wire Wire Line
	2590 2510 2590 2490
Wire Wire Line
	1070 2490 1070 2500
Connection ~ 1070 2500
Wire Wire Line
	1070 2500 1220 2500
$Comp
L device:CP C44
U 1 1 5BB11A25
P 7220 3320
F 0 "C44" H 7230 3400 50  0000 L CNN
F 1 "470u" H 7220 3220 50  0000 L CNN
F 2 "Capacitors_THT:CP_Radial_D16.0mm_P7.50mm" H 7258 3170 50  0001 C CNN
F 3 "~" H 7220 3320 50  0001 C CNN
	1    7220 3320
	1    0    0    -1  
$EndComp
$Comp
L device:CP C45
U 1 1 5BB11BCD
P 7420 3080
F 0 "C45" H 7450 3170 50  0000 L CNN
F 1 "470u" H 7420 2980 50  0000 L CNN
F 2 "Capacitors_THT:CP_Radial_D16.0mm_P7.50mm" H 7458 2930 50  0001 C CNN
F 3 "~" H 7420 3080 50  0001 C CNN
	1    7420 3080
	1    0    0    -1  
$EndComp
Wire Wire Line
	7220 3170 7220 2850
Wire Wire Line
	7220 2850 7420 2850
Wire Wire Line
	7420 2850 7420 2930
Wire Wire Line
	7420 3230 7420 3490
Wire Wire Line
	7420 3490 7220 3490
Connection ~ 7020 3490
Wire Wire Line
	7220 3470 7220 3490
Connection ~ 7220 3490
Wire Wire Line
	7220 3490 7020 3490
Wire Wire Line
	7020 3220 7020 3490
Wire Wire Line
	7220 2850 7120 2850
Connection ~ 7220 2850
Connection ~ 7020 2850
Wire Wire Line
	7020 2850 7020 2920
$Comp
L Connector_Generic:Conn_01x01 J5
U 1 1 5BE3874F
P 630 2500
F 0 "J5" H 640 2410 50  0000 C CNN
F 1 "R" H 630 2600 50  0000 C CNN
F 2 "Wind_module:Power_Connector_1" H 630 2500 50  0001 C CNN
F 3 "~" H 630 2500 50  0001 C CNN
	1    630  2500
	-1   0    0    1   
$EndComp
Wire Wire Line
	830  2500 910  2500
$Comp
L Connector_Generic:Conn_01x01 J6
U 1 1 5BE62F39
P 2190 2490
F 0 "J6" H 2190 2400 50  0000 C CNN
F 1 "S" H 2190 2590 50  0000 C CNN
F 2 "Wind_module:Power_Connector_1" H 2190 2490 50  0001 C CNN
F 3 "~" H 2190 2490 50  0001 C CNN
	1    2190 2490
	-1   0    0    1   
$EndComp
Wire Wire Line
	2390 2490 2510 2490
$Comp
L Connector_Generic:Conn_01x01 J7
U 1 1 5BEB5CCD
P 3450 2490
F 0 "J7" H 3450 2400 50  0000 C CNN
F 1 "T" H 3450 2590 50  0000 C CNN
F 2 "Wind_module:Power_Connector_1" H 3450 2490 50  0001 C CNN
F 3 "~" H 3450 2490 50  0001 C CNN
	1    3450 2490
	-1   0    0    1   
$EndComp
Wire Wire Line
	4030 2490 3930 2490
Connection ~ 3930 2490
$Comp
L Connector_Generic:Conn_01x01 J1
U 1 1 5BEDE71C
P 1820 1540
F 0 "J1" H 1820 1450 50  0000 C CNN
F 1 "N" H 1820 1650 50  0000 C CNN
F 2 "Wind_module:Power_Connector_1" H 1820 1540 50  0001 C CNN
F 3 "~" H 1820 1540 50  0001 C CNN
	1    1820 1540
	-1   0    0    1   
$EndComp
Wire Wire Line
	2020 1540 2220 1540
Connection ~ 2590 2490
Wire Wire Line
	2590 2490 2780 2490
$Comp
L Sensor_Current:ACS712xLCTR-05B U3
U 1 1 5BA6F7F4
P 1800 4000
F 0 "U3" V 1400 4050 50  0000 R CNN
F 1 "ACS712xLCTR-05B" V 1300 4350 50  0000 R CNN
F 2 "Package_SO:SOIC-8_3.9x4.9mm_P1.27mm" H 1900 3650 50  0001 L CIN
F 3 "http://www.allegromicro.com/~/media/Files/Datasheets/ACS712-Datasheet.ashx?la=en" H 1800 4000 50  0001 C CNN
	1    1800 4000
	0    -1   -1   0   
$EndComp
Wire Wire Line
	2200 4000 2250 4000
Connection ~ 2250 4000
Wire Wire Line
	2250 4000 2250 4050
$Comp
L Sensor_Current:ACS712xLCTR-05B U1
U 1 1 5BAAB9F2
P 3650 3960
F 0 "U1" V 3250 4010 50  0000 R CNN
F 1 "ACS712xLCTR-05B" V 3150 4310 50  0000 R CNN
F 2 "Package_SO:SOIC-8_3.9x4.9mm_P1.27mm" H 3750 3610 50  0001 L CIN
F 3 "http://www.allegromicro.com/~/media/Files/Datasheets/ACS712-Datasheet.ashx?la=en" H 3650 3960 50  0001 C CNN
	1    3650 3960
	0    -1   -1   0   
$EndComp
$Comp
L Sensor_Current:ACS712xLCTR-05B U2
U 1 1 5BABFBC5
P 5530 3900
F 0 "U2" V 5130 3950 50  0000 R CNN
F 1 "ACS712xLCTR-05B" V 5030 4250 50  0000 R CNN
F 2 "Package_SO:SOIC-8_3.9x4.9mm_P1.27mm" H 5630 3550 50  0001 L CIN
F 3 "http://www.allegromicro.com/~/media/Files/Datasheets/ACS712-Datasheet.ashx?la=en" H 5530 3900 50  0001 C CNN
	1    5530 3900
	0    -1   -1   0   
$EndComp
$Comp
L Sensor_Current:ACS712xLCTR-05B U4
U 1 1 5BAD3669
P 8650 3060
F 0 "U4" V 8300 3010 50  0000 L CNN
F 1 "ACS712xLCTR-05B" V 8150 2860 50  0001 L CNN
F 2 "Package_SO:SOIC-8_3.9x4.9mm_P1.27mm" H 8750 2710 50  0001 L CIN
F 3 "http://www.allegromicro.com/~/media/Files/Datasheets/ACS712-Datasheet.ashx?la=en" H 8650 3060 50  0001 C CNN
	1    8650 3060
	0    1    1    0   
$EndComp
$Comp
L device:R R97
U 1 1 5BA905AC
P 10480 2640
F 0 "R97" H 10550 2686 50  0000 L CNN
F 1 "150k" H 10550 2595 50  0000 L CNN
F 2 "Resistor_SMD:R_0805_2012Metric_Pad1.15x1.40mm_HandSolder" V 10410 2640 50  0001 C CNN
F 3 "~" H 10480 2640 50  0001 C CNN
	1    10480 2640
	1    0    0    -1  
$EndComp
$Comp
L device:R R95
U 1 1 5BA906F0
P 10480 2970
F 0 "R95" H 10550 3016 50  0000 L CNN
F 1 "150k" H 10550 2925 50  0000 L CNN
F 2 "Resistor_SMD:R_0805_2012Metric_Pad1.15x1.40mm_HandSolder" V 10410 2970 50  0001 C CNN
F 3 "~" H 10480 2970 50  0001 C CNN
	1    10480 2970
	1    0    0    -1  
$EndComp
$Comp
L device:R R81
U 1 1 5BA90B87
P 10330 3520
F 0 "R81" V 10240 3450 50  0000 L CNN
F 1 "10k" V 10330 3450 50  0000 L CNN
F 2 "Resistor_SMD:R_0805_2012Metric_Pad1.15x1.40mm_HandSolder" V 10260 3520 50  0001 C CNN
F 3 "~" H 10330 3520 50  0001 C CNN
	1    10330 3520
	1    0    0    -1  
$EndComp
$Comp
L device:R R96
U 1 1 5BA90D09
P 10580 3520
F 0 "R96" V 10500 3450 50  0000 L CNN
F 1 "10k" V 10580 3450 50  0000 L CNN
F 2 "Resistor_SMD:R_0805_2012Metric_Pad1.15x1.40mm_HandSolder" V 10510 3520 50  0001 C CNN
F 3 "~" H 10580 3520 50  0001 C CNN
	1    10580 3520
	1    0    0    -1  
$EndComp
Wire Wire Line
	10480 2790 10480 2820
Wire Wire Line
	11080 3320 10830 3320
Connection ~ 10830 3320
Wire Wire Line
	10480 3120 10480 3170
Connection ~ 10480 3320
Wire Wire Line
	10730 3170 10480 3170
Connection ~ 10480 3170
Wire Wire Line
	10480 3170 10480 3320
Text Label 8210 6520 2    50   ~ 0
N
Wire Wire Line
	8260 6520 8210 6520
$Comp
L device:R R18
U 1 1 5BF79B02
P 7910 4990
F 0 "R18" H 7980 5036 50  0000 L CNN
F 1 "150k" H 7980 4945 50  0000 L CNN
F 2 "Resistor_SMD:R_0805_2012Metric_Pad1.15x1.40mm_HandSolder" V 7840 4990 50  0001 C CNN
F 3 "~" H 7910 4990 50  0001 C CNN
	1    7910 4990
	1    0    0    -1  
$EndComp
$Comp
L device:R R28
U 1 1 5BF79B09
P 8260 6220
F 0 "R28" V 8170 6150 50  0000 L CNN
F 1 "10k" V 8260 6160 50  0000 L CNN
F 2 "Resistor_SMD:R_0805_2012Metric_Pad1.15x1.40mm_HandSolder" V 8190 6220 50  0001 C CNN
F 3 "~" H 8260 6220 50  0001 C CNN
	1    8260 6220
	1    0    0    -1  
$EndComp
Wire Wire Line
	7910 5140 7910 5170
Wire Wire Line
	8260 6370 8260 6420
Wire Wire Line
	7910 4810 7910 4840
$Comp
L device:C C48
U 1 1 5BF79B13
P 8510 6220
F 0 "C48" H 8360 6310 50  0000 L CNN
F 1 "1u" H 8400 6130 50  0000 L CNN
F 2 "Capacitor_SMD:C_0805_2012Metric_Pad1.15x1.40mm_HandSolder" H 8548 6070 50  0001 C CNN
F 3 "~" H 8510 6220 50  0001 C CNN
	1    8510 6220
	1    0    0    -1  
$EndComp
Wire Wire Line
	8510 6020 8510 6070
Wire Wire Line
	8260 6020 8260 6070
Wire Wire Line
	8510 6370 8510 6420
Wire Wire Line
	8510 6420 8260 6420
Connection ~ 8260 6420
$Comp
L device:R R21
U 1 1 5BF79B1F
P 7910 5320
F 0 "R21" H 7980 5366 50  0000 L CNN
F 1 "150k" H 7980 5275 50  0000 L CNN
F 2 "Resistor_SMD:R_0805_2012Metric_Pad1.15x1.40mm_HandSolder" V 7840 5320 50  0001 C CNN
F 3 "~" H 7910 5320 50  0001 C CNN
	1    7910 5320
	1    0    0    -1  
$EndComp
$Comp
L device:R R19
U 1 1 5BF79B2D
P 7910 5660
F 0 "R19" H 7980 5706 50  0000 L CNN
F 1 "150k" H 7980 5615 50  0000 L CNN
F 2 "Resistor_SMD:R_0805_2012Metric_Pad1.15x1.40mm_HandSolder" V 7840 5660 50  0001 C CNN
F 3 "~" H 7910 5660 50  0001 C CNN
	1    7910 5660
	1    0    0    -1  
$EndComp
$Comp
L device:R R17
U 1 1 5BF79B34
P 7760 6220
AR Path="/5B8E5356/5BF79B34" Ref="R17"  Part="1" 
AR Path="/5B8E53AF/5BF79B34" Ref="R?"  Part="1" 
F 0 "R17" V 7670 6150 50  0000 L CNN
F 1 "10k" V 7760 6160 50  0000 L CNN
F 2 "Resistor_SMD:R_0805_2012Metric_Pad1.15x1.40mm_HandSolder" V 7690 6220 50  0001 C CNN
F 3 "~" H 7760 6220 50  0001 C CNN
	1    7760 6220
	1    0    0    -1  
$EndComp
$Comp
L device:R R20
U 1 1 5BF79B3B
P 8010 6220
AR Path="/5B8E5356/5BF79B3B" Ref="R20"  Part="1" 
AR Path="/5B8E53AF/5BF79B3B" Ref="R?"  Part="1" 
F 0 "R20" V 7920 6160 50  0000 L CNN
F 1 "10k" V 8010 6160 50  0000 L CNN
F 2 "Resistor_SMD:R_0805_2012Metric_Pad1.15x1.40mm_HandSolder" V 7940 6220 50  0001 C CNN
F 3 "~" H 8010 6220 50  0001 C CNN
	1    8010 6220
	1    0    0    -1  
$EndComp
Wire Wire Line
	7910 5470 7910 5510
Wire Wire Line
	8510 6020 8260 6020
Connection ~ 8260 6020
Wire Wire Line
	7910 5810 7910 5870
Connection ~ 7910 6020
Wire Wire Line
	8160 5870 7910 5870
Connection ~ 7910 5870
Wire Wire Line
	7910 5870 7910 6020
$Comp
L device:R R16
U 1 1 5BF79B53
P 7510 6220
AR Path="/5B8E5356/5BF79B53" Ref="R16"  Part="1" 
AR Path="/5B8E53AF/5BF79B53" Ref="R?"  Part="1" 
F 0 "R16" V 7420 6160 50  0000 L CNN
F 1 "10k" V 7510 6150 50  0000 L CNN
F 2 "Resistor_SMD:R_0805_2012Metric_Pad1.15x1.40mm_HandSolder" V 7440 6220 50  0001 C CNN
F 3 "~" H 7510 6220 50  0001 C CNN
	1    7510 6220
	1    0    0    -1  
$EndComp
Wire Wire Line
	7910 6020 8010 6020
Wire Wire Line
	8010 6070 8010 6020
Connection ~ 8010 6020
Wire Wire Line
	8010 6020 8260 6020
Wire Wire Line
	8010 6370 8010 6420
Connection ~ 8010 6420
Wire Wire Line
	8010 6420 8260 6420
Wire Wire Line
	7760 6370 7760 6420
Connection ~ 7760 6420
Wire Wire Line
	7760 6420 8010 6420
Wire Wire Line
	7760 6070 7760 6020
Connection ~ 7760 6020
Wire Wire Line
	7760 6020 7910 6020
Wire Wire Line
	7510 6020 7510 6070
Wire Wire Line
	7510 6020 7760 6020
Wire Wire Line
	7510 6370 7510 6420
Wire Wire Line
	7510 6420 7760 6420
Wire Wire Line
	8260 6420 8260 6520
Text Label 9490 6530 2    50   ~ 0
N
Wire Wire Line
	9540 6530 9490 6530
$Comp
L device:R R31
U 1 1 5BF94F0F
P 9190 5030
F 0 "R31" H 9260 5076 50  0000 L CNN
F 1 "150k" H 9260 4985 50  0000 L CNN
F 2 "Resistor_SMD:R_0805_2012Metric_Pad1.15x1.40mm_HandSolder" V 9120 5030 50  0001 C CNN
F 3 "~" H 9190 5030 50  0001 C CNN
	1    9190 5030
	1    0    0    -1  
$EndComp
$Comp
L device:R R39
U 1 1 5BF94F16
P 9540 6230
F 0 "R39" V 9460 6160 50  0000 L CNN
F 1 "10k" V 9540 6170 50  0000 L CNN
F 2 "Resistor_SMD:R_0805_2012Metric_Pad1.15x1.40mm_HandSolder" V 9470 6230 50  0001 C CNN
F 3 "~" H 9540 6230 50  0001 C CNN
	1    9540 6230
	1    0    0    -1  
$EndComp
Wire Wire Line
	9190 5180 9190 5200
Wire Wire Line
	9540 6380 9540 6430
Wire Wire Line
	9190 4840 9190 4880
$Comp
L device:C C49
U 1 1 5BF94F20
P 9790 6230
F 0 "C49" H 9640 6300 50  0000 L CNN
F 1 "1u" H 9670 6160 50  0000 L CNN
F 2 "Capacitor_SMD:C_0805_2012Metric_Pad1.15x1.40mm_HandSolder" H 9828 6080 50  0001 C CNN
F 3 "~" H 9790 6230 50  0001 C CNN
	1    9790 6230
	1    0    0    -1  
$EndComp
Wire Wire Line
	9790 6030 9790 6080
Wire Wire Line
	9540 6030 9540 6080
Wire Wire Line
	9790 6380 9790 6430
Wire Wire Line
	9790 6430 9540 6430
Connection ~ 9540 6430
$Comp
L device:R R38
U 1 1 5BF94F2C
P 9190 5350
F 0 "R38" H 9260 5396 50  0000 L CNN
F 1 "150k" H 9260 5305 50  0000 L CNN
F 2 "Resistor_SMD:R_0805_2012Metric_Pad1.15x1.40mm_HandSolder" V 9120 5350 50  0001 C CNN
F 3 "~" H 9190 5350 50  0001 C CNN
	1    9190 5350
	1    0    0    -1  
$EndComp
$Comp
L device:R R32
U 1 1 5BF94F3A
P 9190 5680
F 0 "R32" H 9260 5726 50  0000 L CNN
F 1 "150k" H 9260 5635 50  0000 L CNN
F 2 "Resistor_SMD:R_0805_2012Metric_Pad1.15x1.40mm_HandSolder" V 9120 5680 50  0001 C CNN
F 3 "~" H 9190 5680 50  0001 C CNN
	1    9190 5680
	1    0    0    -1  
$EndComp
$Comp
L device:R R30
U 1 1 5BF94F41
P 9040 6230
AR Path="/5B8E5356/5BF94F41" Ref="R30"  Part="1" 
AR Path="/5B8E53AF/5BF94F41" Ref="R?"  Part="1" 
F 0 "R30" V 8960 6160 50  0000 L CNN
F 1 "10k" V 9040 6170 50  0000 L CNN
F 2 "Resistor_SMD:R_0805_2012Metric_Pad1.15x1.40mm_HandSolder" V 8970 6230 50  0001 C CNN
F 3 "~" H 9040 6230 50  0001 C CNN
	1    9040 6230
	1    0    0    -1  
$EndComp
$Comp
L device:R R33
U 1 1 5BF94F48
P 9290 6230
AR Path="/5B8E5356/5BF94F48" Ref="R33"  Part="1" 
AR Path="/5B8E53AF/5BF94F48" Ref="R?"  Part="1" 
F 0 "R33" V 9210 6160 50  0000 L CNN
F 1 "10k" V 9290 6170 50  0000 L CNN
F 2 "Resistor_SMD:R_0805_2012Metric_Pad1.15x1.40mm_HandSolder" V 9220 6230 50  0001 C CNN
F 3 "~" H 9290 6230 50  0001 C CNN
	1    9290 6230
	1    0    0    -1  
$EndComp
Wire Wire Line
	9190 5500 9190 5530
Wire Wire Line
	9790 6030 9540 6030
Connection ~ 9540 6030
Wire Wire Line
	9190 5830 9190 5880
Connection ~ 9190 6030
Wire Wire Line
	9440 5880 9190 5880
Connection ~ 9190 5880
Wire Wire Line
	9190 5880 9190 6030
$Comp
L device:R R29
U 1 1 5BF94F60
P 8790 6230
AR Path="/5B8E5356/5BF94F60" Ref="R29"  Part="1" 
AR Path="/5B8E53AF/5BF94F60" Ref="R?"  Part="1" 
F 0 "R29" V 8710 6160 50  0000 L CNN
F 1 "10k" V 8790 6170 50  0000 L CNN
F 2 "Resistor_SMD:R_0805_2012Metric_Pad1.15x1.40mm_HandSolder" V 8720 6230 50  0001 C CNN
F 3 "~" H 8790 6230 50  0001 C CNN
	1    8790 6230
	1    0    0    -1  
$EndComp
Wire Wire Line
	9190 6030 9290 6030
Wire Wire Line
	9290 6080 9290 6030
Connection ~ 9290 6030
Wire Wire Line
	9290 6030 9540 6030
Wire Wire Line
	9290 6380 9290 6430
Connection ~ 9290 6430
Wire Wire Line
	9290 6430 9540 6430
Wire Wire Line
	9040 6380 9040 6430
Connection ~ 9040 6430
Wire Wire Line
	9040 6430 9290 6430
Wire Wire Line
	9040 6080 9040 6030
Connection ~ 9040 6030
Wire Wire Line
	9040 6030 9190 6030
Wire Wire Line
	8790 6030 8790 6080
Wire Wire Line
	8790 6030 9040 6030
Wire Wire Line
	8790 6380 8790 6430
Wire Wire Line
	8790 6430 9040 6430
Wire Wire Line
	9540 6430 9540 6530
Text Label 10750 6520 2    50   ~ 0
N
Wire Wire Line
	10800 6520 10750 6520
$Comp
L device:R R42
U 1 1 5BFB7468
P 10450 5030
F 0 "R42" H 10520 5076 50  0000 L CNN
F 1 "150k" H 10520 4985 50  0000 L CNN
F 2 "Resistor_SMD:R_0805_2012Metric_Pad1.15x1.40mm_HandSolder" V 10380 5030 50  0001 C CNN
F 3 "~" H 10450 5030 50  0001 C CNN
	1    10450 5030
	1    0    0    -1  
$EndComp
$Comp
L device:R R46
U 1 1 5BFB746F
P 10800 6220
F 0 "R46" V 10710 6150 50  0000 L CNN
F 1 "10k" V 10800 6150 50  0000 L CNN
F 2 "Resistor_SMD:R_0805_2012Metric_Pad1.15x1.40mm_HandSolder" V 10730 6220 50  0001 C CNN
F 3 "~" H 10800 6220 50  0001 C CNN
	1    10800 6220
	1    0    0    -1  
$EndComp
Wire Wire Line
	10450 5180 10450 5200
Wire Wire Line
	10800 6370 10800 6420
Wire Wire Line
	10450 4850 10450 4880
$Comp
L device:C C50
U 1 1 5BFB7479
P 11050 6220
F 0 "C50" H 10890 6290 50  0000 L CNN
F 1 "1u" H 10930 6150 50  0000 L CNN
F 2 "Capacitor_SMD:C_0805_2012Metric_Pad1.15x1.40mm_HandSolder" H 11088 6070 50  0001 C CNN
F 3 "~" H 11050 6220 50  0001 C CNN
	1    11050 6220
	1    0    0    -1  
$EndComp
Wire Wire Line
	11050 6020 11050 6070
Wire Wire Line
	10800 6020 10800 6070
Wire Wire Line
	11050 6370 11050 6420
Wire Wire Line
	11050 6420 10800 6420
Connection ~ 10800 6420
$Comp
L device:R R45
U 1 1 5BFB7485
P 10450 5350
F 0 "R45" H 10520 5396 50  0000 L CNN
F 1 "150k" H 10520 5305 50  0000 L CNN
F 2 "Resistor_SMD:R_0805_2012Metric_Pad1.15x1.40mm_HandSolder" V 10380 5350 50  0001 C CNN
F 3 "~" H 10450 5350 50  0001 C CNN
	1    10450 5350
	1    0    0    -1  
$EndComp
$Comp
L device:R R43
U 1 1 5BFB7493
P 10450 5670
F 0 "R43" H 10520 5716 50  0000 L CNN
F 1 "150k" H 10520 5625 50  0000 L CNN
F 2 "Resistor_SMD:R_0805_2012Metric_Pad1.15x1.40mm_HandSolder" V 10380 5670 50  0001 C CNN
F 3 "~" H 10450 5670 50  0001 C CNN
	1    10450 5670
	1    0    0    -1  
$EndComp
$Comp
L device:R R41
U 1 1 5BFB749A
P 10300 6220
AR Path="/5B8E5356/5BFB749A" Ref="R41"  Part="1" 
AR Path="/5B8E53AF/5BFB749A" Ref="R?"  Part="1" 
F 0 "R41" V 10220 6150 50  0000 L CNN
F 1 "10k" V 10300 6140 50  0000 L CNN
F 2 "Resistor_SMD:R_0805_2012Metric_Pad1.15x1.40mm_HandSolder" V 10230 6220 50  0001 C CNN
F 3 "~" H 10300 6220 50  0001 C CNN
	1    10300 6220
	1    0    0    -1  
$EndComp
$Comp
L device:R R44
U 1 1 5BFB74A1
P 10550 6220
AR Path="/5B8E5356/5BFB74A1" Ref="R44"  Part="1" 
AR Path="/5B8E53AF/5BFB74A1" Ref="R?"  Part="1" 
F 0 "R44" V 10470 6150 50  0000 L CNN
F 1 "10k" V 10550 6150 50  0000 L CNN
F 2 "Resistor_SMD:R_0805_2012Metric_Pad1.15x1.40mm_HandSolder" V 10480 6220 50  0001 C CNN
F 3 "~" H 10550 6220 50  0001 C CNN
	1    10550 6220
	1    0    0    -1  
$EndComp
Wire Wire Line
	10450 5500 10450 5520
Wire Wire Line
	11050 6020 10800 6020
Connection ~ 10800 6020
Wire Wire Line
	10450 5820 10450 5870
Connection ~ 10450 6020
Wire Wire Line
	10700 5870 10450 5870
Connection ~ 10450 5870
Wire Wire Line
	10450 5870 10450 6020
$Comp
L device:R R40
U 1 1 5BFB74B9
P 10050 6220
AR Path="/5B8E5356/5BFB74B9" Ref="R40"  Part="1" 
AR Path="/5B8E53AF/5BFB74B9" Ref="R?"  Part="1" 
F 0 "R40" V 9970 6150 50  0000 L CNN
F 1 "10k" V 10050 6160 50  0000 L CNN
F 2 "Resistor_SMD:R_0805_2012Metric_Pad1.15x1.40mm_HandSolder" V 9980 6220 50  0001 C CNN
F 3 "~" H 10050 6220 50  0001 C CNN
	1    10050 6220
	1    0    0    -1  
$EndComp
Wire Wire Line
	10450 6020 10550 6020
Wire Wire Line
	10550 6070 10550 6020
Connection ~ 10550 6020
Wire Wire Line
	10550 6020 10800 6020
Wire Wire Line
	10550 6370 10550 6420
Connection ~ 10550 6420
Wire Wire Line
	10550 6420 10800 6420
Wire Wire Line
	10300 6370 10300 6420
Connection ~ 10300 6420
Wire Wire Line
	10300 6420 10550 6420
Wire Wire Line
	10300 6070 10300 6020
Connection ~ 10300 6020
Wire Wire Line
	10300 6020 10450 6020
Wire Wire Line
	10050 6020 10050 6070
Wire Wire Line
	10050 6020 10300 6020
Wire Wire Line
	10050 6370 10050 6420
Wire Wire Line
	10050 6420 10300 6420
Wire Wire Line
	10800 6420 10800 6520
Text Label 7860 4810 2    50   ~ 0
VR
Text Label 9140 4840 2    50   ~ 0
VS
Text Label 10400 4850 2    50   ~ 0
VT
Wire Wire Line
	10400 4850 10450 4850
Wire Wire Line
	9140 4840 9190 4840
Wire Wire Line
	7860 4810 7910 4810
Wire Wire Line
	1070 2790 1070 2800
Wire Wire Line
	2590 2810 2590 2830
Wire Wire Line
	3930 2810 3930 2830
Text Label 10700 5870 0    50   ~ 0
T_COND
Text Label 9440 5880 0    50   ~ 0
S_COND
Text Label 8160 5870 0    50   ~ 0
R_COND
Text Label 10300 1650 2    50   ~ 0
N
Text Label 10300 1450 2    50   ~ 0
S_COND
Text Label 10300 1550 2    50   ~ 0
R_COND
Text HLabel 10700 1350 2    50   Output ~ 0
T_COND
Text HLabel 10700 1450 2    50   Output ~ 0
S_COND
Text HLabel 10700 1550 2    50   Output ~ 0
R_COND
$Comp
L device:CP C43
U 1 1 5BA9E4EF
P 2590 2660
F 0 "C43" H 2708 2706 50  0000 L CNN
F 1 "470u" H 2590 2560 50  0000 L CNN
F 2 "Capacitors_THT:CP_Radial_D16.0mm_P7.50mm" H 2628 2510 50  0001 C CNN
F 3 "~" H 2590 2660 50  0001 C CNN
	1    2590 2660
	1    0    0    -1  
$EndComp
$Comp
L power:GND #PWR08
U 1 1 5BD25E08
P 3930 2830
F 0 "#PWR08" H 3930 2580 50  0001 C CNN
F 1 "GND" H 3935 2657 50  0000 C CNN
F 2 "" H 3930 2830 50  0001 C CNN
F 3 "" H 3930 2830 50  0001 C CNN
	1    3930 2830
	1    0    0    -1  
$EndComp
$Comp
L power:GND #PWR01
U 1 1 5BD25ED1
P 2590 2830
F 0 "#PWR01" H 2590 2580 50  0001 C CNN
F 1 "GND" H 2595 2657 50  0000 C CNN
F 2 "" H 2590 2830 50  0001 C CNN
F 3 "" H 2590 2830 50  0001 C CNN
	1    2590 2830
	1    0    0    -1  
$EndComp
$Comp
L power:GND #PWR02
U 1 1 5BD25F9A
P 1070 2800
F 0 "#PWR02" H 1070 2550 50  0001 C CNN
F 1 "GND" H 1075 2627 50  0000 C CNN
F 2 "" H 1070 2800 50  0001 C CNN
F 3 "" H 1070 2800 50  0001 C CNN
	1    1070 2800
	1    0    0    -1  
$EndComp
$Comp
L device:R R47
U 1 1 5C2AF43B
P 10080 3520
F 0 "R47" V 9990 3460 50  0000 L CNN
F 1 "10k" V 10080 3450 50  0000 L CNN
F 2 "Resistor_SMD:R_0805_2012Metric_Pad1.15x1.40mm_HandSolder" V 10010 3520 50  0001 C CNN
F 3 "~" H 10080 3520 50  0001 C CNN
	1    10080 3520
	1    0    0    -1  
$EndComp
Wire Wire Line
	10080 3370 10080 3320
Wire Wire Line
	10080 3670 10080 3720
Wire Wire Line
	10080 3720 10330 3720
Wire Wire Line
	10080 3320 10330 3320
Wire Wire Line
	10330 3370 10330 3320
Wire Wire Line
	10330 3320 10480 3320
Wire Wire Line
	10330 3670 10330 3720
Wire Wire Line
	10580 3670 10580 3720
Connection ~ 10580 3720
Wire Wire Line
	10580 3720 10830 3720
Wire Wire Line
	10580 3370 10580 3320
Connection ~ 10580 3320
Wire Wire Line
	10580 3320 10830 3320
Wire Wire Line
	10480 3320 10580 3320
Wire Wire Line
	10330 3720 10580 3720
$Comp
L Connector:TestPoint TP?
U 1 1 5BED15E5
P 5360 2580
AR Path="/5B8E53EB/5BED15E5" Ref="TP?"  Part="1" 
AR Path="/5B8E5356/5BED15E5" Ref="TP17"  Part="1" 
F 0 "TP17" H 5418 2700 50  0000 L CNN
F 1 "GND" H 5418 2609 50  0000 L CNN
F 2 "Wind_module:TestPoint_Loop_D1.80mm_Drill1.0mm_Beaded" H 5560 2580 50  0001 C CNN
F 3 "~" H 5560 2580 50  0001 C CNN
	1    5360 2580
	1    0    0    -1  
$EndComp
Wire Wire Line
	5360 2580 5360 2730
$Comp
L power:GND #PWR0116
U 1 1 5BEFA053
P 5360 2730
F 0 "#PWR0116" H 5360 2480 50  0001 C CNN
F 1 "GND" H 5365 2557 50  0000 C CNN
F 2 "" H 5360 2730 50  0001 C CNN
F 3 "" H 5360 2730 50  0001 C CNN
	1    5360 2730
	1    0    0    -1  
$EndComp
Wire Wire Line
	3650 2490 3770 2490
Wire Wire Line
	3770 2490 3770 2320
Wire Wire Line
	3770 2320 3730 2320
Connection ~ 3770 2490
Wire Wire Line
	3770 2490 3930 2490
Wire Wire Line
	2510 2490 2510 2270
Wire Wire Line
	2510 2270 2470 2270
Connection ~ 2510 2490
Wire Wire Line
	2510 2490 2590 2490
Wire Wire Line
	910  2500 910  2310
Wire Wire Line
	910  2310 850  2310
Connection ~ 910  2500
Wire Wire Line
	910  2500 1070 2500
Wire Wire Line
	2810 7560 760  7560
Wire Wire Line
	4810 7710 750  7710
Wire Wire Line
	4810 7710 4810 6110
Wire Wire Line
	2000 4450 2370 4450
Wire Wire Line
	3850 4410 4160 4410
Text Label 1320 4450 0    50   ~ 0
I_R_IN
Text Label 3180 4410 0    50   ~ 0
I_S_IN
Text Label 6050 4350 2    50   ~ 0
I_T_OUT
Text Label 8980 2610 0    50   ~ 0
I_VOUT_IN
Wire Wire Line
	8850 2610 9470 2610
Connection ~ 10330 3320
Connection ~ 10330 3720
Text Label 10480 2100 0    50   ~ 0
VOUT
Text Label 7150 5060 2    50   ~ 0
I_VOUT_OUT
Wire Wire Line
	7150 5060 6670 5060
Connection ~ 6610 5060
Wire Wire Line
	7120 2850 7120 2740
Connection ~ 7120 2850
Wire Wire Line
	7120 2850 7020 2850
Connection ~ 4010 6110
Wire Wire Line
	4260 6110 4260 6160
Connection ~ 4260 6110
Wire Wire Line
	4260 6110 4010 6110
Wire Wire Line
	4260 5060 4610 5060
Wire Wire Line
	3910 5060 4260 5060
Connection ~ 4260 5060
Wire Wire Line
	4260 5060 4260 5110
Wire Notes Line
	7760 4460 7750 4460
Text Notes 530  3320 0    47   ~ 0
CURRENT MEASUREMENTS
Text Notes 540  4720 0    47   ~ 0
3-PHASE SYNCHRONOUS BUCK TOPOLOGY
Text Notes 520  3390 0    47   ~ 0
These hall-effect sensors are are connected to the input connectors of each phase.\n
Text Label 2370 4450 2    50   ~ 0
I_R_OUT
Text Label 4160 4410 2    50   ~ 0
I_S_OUT
Text Label 5030 4350 0    50   ~ 0
I_T_IN
Wire Wire Line
	1320 4450 1600 4450
Wire Wire Line
	5030 4350 5330 4350
Wire Wire Line
	3180 4410 3450 4410
Wire Wire Line
	5730 4350 6050 4350
Text Label 620  6110 0    50   ~ 0
I_R_OUT
Wire Wire Line
	620  6110 1010 6110
Text Label 760  7560 0    50   ~ 0
I_S_OUT
Text Label 750  7710 0    50   ~ 0
I_T_OUT
Text Label 7120 2740 0    50   ~ 0
VOUT
Wire Wire Line
	8450 2470 8380 2470
Wire Wire Line
	8450 2470 8450 2610
Wire Wire Line
	8450 2610 8410 2610
Connection ~ 8450 2610
Wire Wire Line
	8450 2610 8450 2660
Text Label 8380 2470 2    50   ~ 0
VOUT
Wire Wire Line
	8190 3150 8190 3060
Wire Wire Line
	7940 3060 8190 3060
Connection ~ 8190 3060
Wire Wire Line
	8190 3060 8250 3060
Wire Wire Line
	8190 3450 8190 3520
Wire Wire Line
	8190 3520 8550 3520
Wire Wire Line
	8550 3460 8550 3520
Wire Wire Line
	6670 5060 6670 4850
Wire Wire Line
	6670 4850 6760 4850
Connection ~ 6670 5060
Wire Wire Line
	6670 5060 6610 5060
Text Label 6760 4850 0    50   ~ 0
VOUT
Text Label 1750 2500 2    50   ~ 0
I_R_IN
Wire Wire Line
	1520 2500 1750 2500
Wire Wire Line
	3080 2490 3260 2490
Wire Wire Line
	4330 2490 4540 2490
Text Label 3260 2490 2    50   ~ 0
I_S_IN
Text Label 4540 2490 2    50   ~ 0
I_T_IN
Wire Notes Line
	660  3180 6360 3180
Wire Notes Line
	6360 3180 6360 4700
Wire Notes Line
	6450 3820 10390 3820
Wire Notes Line
	10390 3820 10390 4080
Wire Notes Line
	10390 4080 11130 4080
Text Notes 6520 3930 0    47   ~ 0
VOLTAGE MEASUREMENTS
Text Notes 6420 4440 0    47   ~ 0
The OwnTech converter is multi-function. This means it can handle DC-DC and DC-AC conversions. \nThis creates a challenge for its voltage measurements.\nThese resistor bridges ARE NOT REFERENCED TO THE GROUND. \nInstead, they are referenced to a NEUTRAL which can be used to measure AC line voltages. \nIn case of DC operation, the NEUTRAL can be connected to the GROUND for referencing. \nThe values of the resistances were calculated for a base of 700V measurements:\n
Text Notes 7540 7030 0    47   ~ 0
Vmeas/VIN = Rmeas/450k\n\nIf Rmeas = 10k, Vmeas/VIN = 1/46, VIN_max = 150V\nIf Rmeas = 5k, Vmeas/VIN = 1/91, VIN_max = 300V\nIf Rmeas = 3.3k, Vmeas/VIN = 1/136, VIN_max = 450V\nIf Rmeas = 2.5,, Vmeas/VIN = 1/181, VIN_max = 600V\n
Wire Notes Line
	7360 6500 7360 7100
Wire Notes Line
	2140 5110 2750 5110
Text Notes 2170 7410 0    47   ~ 0
EXPERIMENTAL\nSNUBBER\n
Wire Notes Line
	2140 5110 2140 7430
Wire Notes Line
	2140 7430 2750 7430
Wire Notes Line
	2750 5110 2750 7430
Text Notes 4190 7410 0    47   ~ 0
EXPERIMENTAL\nSNUBBER\n
Wire Notes Line
	4160 5110 4160 7430
Wire Notes Line
	4160 7430 4770 7430
Wire Notes Line
	4770 5110 4770 7430
Text Notes 6190 7430 0    47   ~ 0
EXPERIMENTAL\nSNUBBER\n
Wire Notes Line
	6160 5130 6160 7450
Wire Notes Line
	6160 7450 6770 7450
Wire Notes Line
	6770 5130 6770 7450
Wire Notes Line
	4160 5110 4770 5110
Wire Notes Line
	6160 5120 6770 5120
Text Notes 530  1940 0    47   ~ 0
CONVERTER INPUT CONNECTORS
Text Notes 520  2140 0    47   ~ 0
The OwnTech 3-phase converter has 3 input connectors (R, S and T).\nEach input connector is shown here with its input capacitor and inductor. \n
Wire Notes Line
	1640 1780 1640 1770
Wire Notes Line
	6360 2970 6360 1870
Wire Notes Line
	6360 1870 9690 1870
Text Notes 6500 2000 0    47   ~ 0
CONVERTER OUTPUT
Text Notes 6500 2340 0    47   ~ 0
The OwnTech 3-phase converter has a single output connector (VOUT).\nHere, the output capacitors (C13, C14, C44 and C45) are shown together with\nthe output current measurement and output voltage measurement. \nThe output resistor divider is calculated on a similar base as those below.\n
Text Notes 540  4980 0    47   ~ 0
The 3-phase synchronous buck topology allows for the use of both DC-DC and DC-AC conversions. \nIn this implementation, a series of experimental snubbers have been connected in parallel to each inverter leg. \nTheir values are not correct and they will be later used for experimental validation.
Wire Notes Line
	510  4620 6330 4620
Wire Notes Line
	6330 4620 6330 4610
Wire Notes Line
	6400 4690 7360 4690
Wire Notes Line
	7360 4690 7360 6460
Text Notes 2580 660  0    47   ~ 0
NOTE TAKING SPACE
Text Notes 2600 750  0    47   ~ 0
This space is left blank for note taking while debugging.
Text Notes 4740 1980 0    47   ~ 0
MEASUREMENT PIN
Text Notes 4760 2260 0    47   ~ 0
This pin should be placed in a \nconvenient spot for easy bebugging\nand probe connection.
Wire Notes Line
	6320 1870 4690 1870
Wire Notes Line
	1750 1800 1750 1870
Wire Notes Line
	1750 1870 4620 1870
Wire Notes Line
	4620 1870 4620 1880
Wire Notes Line
	1620 1800 1750 1800
Wire Notes Line
	4660 1880 4660 3120
Wire Notes Line
	2460 610  2460 1790
Wire Notes Line
	2460 1790 2470 1790
Text Notes 1620 1080 0    47   ~ 0
NEUTRAL CONNECTOR\n\nThis converter has a \nseparate neutral \nconnector for AC\n implementation
Text Label 10300 1750 2    50   ~ 0
V_HIGH
Text Label 6500 4820 2    50   ~ 0
V_HIGH
Wire Wire Line
	6560 5060 6560 4830
Wire Wire Line
	6560 4830 6500 4830
Wire Wire Line
	6500 4830 6500 4820
Connection ~ 6560 5060
Wire Wire Line
	6560 5060 6610 5060
$EndSCHEMATC
